\relax 
\providecommand\hyper@newdestlabel[2]{}
\citation{morduch1999microfinance,Conlin1999249}
\citation{funk2015online}
\citation{LCW}
\@writefile{toc}{\contentsline {chapter}{\numberline {1}Introduction}{1}{chapter.1}\protected@file@percent }
\@writefile{lof}{\addvspace {10\p@ }}
\@writefile{lot}{\addvspace {10\p@ }}
\newlabel{CH1:Introduction}{{1}{1}{Introduction}{chapter.1}{}}
\acronymused{P2PL}
\acronymused{P2PL}
\acronymused{P2PL}
\acronymused{P2PL}
\acronymused{P2PL}
\acronymused{P2PL}
\acronymused{P2PL}
\acronymused{P2PL}
\acronymused{P2PL}
\acronymused{P2PL}
\acronymused{P2PL}
\citation{malekipirbazari2015risk}
\citation{Guo2016417}
\citation{ceyhan2011dynamics}
\@writefile{toc}{\contentsline {section}{\numberline {1.1}Motivations}{2}{section.1.1}\protected@file@percent }
\newlabel{Ch1:moti}{{1.1}{2}{Motivations}{section.1.1}{}}
\acronymused{P2PL}
\acronymused{P2PL}
\acronymused{P2PL}
\acronymused{P2PL}
\acronymused{P2PL}
\acronymused{P2PL}
\acronymused{P2PL}
\citation{Prop}
\citation{garman2008person,feller2017information,wu2011decision,liu2022modelling}
\acronymused{P2PL}
\acronymused{P2PL}
\acronymused{P2PL}
\@writefile{toc}{\contentsline {section}{\numberline {1.2}Data description}{3}{section.1.2}\protected@file@percent }
\newlabel{CH1:Data analysis}{{1.2}{3}{Data description}{section.1.2}{}}
\acronymused{P2PL}
\acronymused{P2PL}
\citation{Udacity}
\acronymused{P2PL}
\acronymused{P2PL}
\@writefile{toc}{\contentsline {subsection}{\numberline {1.2.1}Funded loan dataset}{4}{subsection.1.2.1}\protected@file@percent }
\newlabel{Ch1: funded dataset}{{1.2.1}{4}{Funded loan dataset}{subsection.1.2.1}{}}
\@writefile{lot}{\contentsline {table}{\numberline {1.1}{\ignorespaces An example loan with 81 features from the funded loan dataset\relax }}{5}{table.caption.17}\protected@file@percent }
\providecommand*\caption@xref[2]{\@setref\relax\@undefined{#1}}
\newlabel{table:frow}{{1.1}{5}{An example loan with 81 features from the funded loan dataset\relax }{table.caption.17}{}}
\@writefile{lot}{\contentsline {table}{\numberline {1.2}{\ignorespaces Features and response variable description of the funded loan dataset that are used for predicting the likelihood of the borrowers defaulting\relax }}{6}{table.caption.18}\protected@file@percent }
\newlabel{table:fe}{{1.2}{6}{Features and response variable description of the funded loan dataset that are used for predicting the likelihood of the borrowers defaulting\relax }{table.caption.18}{}}
\@writefile{lot}{\contentsline {table}{\numberline {1.3}{\ignorespaces Features and response variable description of the funded loan dataset for predicting the interest rates payable of the borrowers\relax }}{7}{table.caption.19}\protected@file@percent }
\newlabel{tab:fet}{{1.3}{7}{Features and response variable description of the funded loan dataset for predicting the interest rates payable of the borrowers\relax }{table.caption.19}{}}
\@writefile{toc}{\contentsline {subsection}{\numberline {1.2.2}Bidding loan dataset}{8}{subsection.1.2.2}\protected@file@percent }
\newlabel{Ch1: bidding dataset}{{1.2.2}{8}{Bidding loan dataset}{subsection.1.2.2}{}}
\@writefile{lot}{\contentsline {table}{\numberline {1.4}{\ignorespaces An example loan with 30 features from the bidding loan dataset\relax }}{8}{table.caption.20}\protected@file@percent }
\newlabel{table:brow}{{1.4}{8}{An example loan with 30 features from the bidding loan dataset\relax }{table.caption.20}{}}
\citation{tsai2014peer}
\citation{berger2010emergence}
\@writefile{lot}{\contentsline {table}{\numberline {1.5}{\ignorespaces Features and response variable description of the bidding dataset\relax }}{9}{table.caption.21}\protected@file@percent }
\newlabel{table:feb}{{1.5}{9}{Features and response variable description of the bidding dataset\relax }{table.caption.21}{}}
\@writefile{toc}{\contentsline {section}{\numberline {1.3}Basic background knowledge of P2PL}{9}{section.1.3}\protected@file@percent }
\newlabel{Ch1: Backgroud knowledge}{{1.3}{9}{Basic background knowledge of P2PL}{section.1.3}{}}
\acronymused{P2PL}
\@writefile{toc}{\contentsline {subsection}{\numberline {1.3.1}Unbalanced dataset}{9}{subsection.1.3.1}\protected@file@percent }
\acronymused{P2PL}
\citation{tsai2014peer,cui2016p2p,serrano2015determinants}
\acronymused{P2PL}
\@writefile{toc}{\contentsline {subsection}{\numberline {1.3.2}Grade rating}{10}{subsection.1.3.2}\protected@file@percent }
\newlabel{Ch1: Risk rating}{{1.3.2}{10}{Grade rating}{subsection.1.3.2}{}}
\acronymused{P2PL}
\acronymused{P2PL}
\@writefile{toc}{\contentsline {subsection}{\numberline {1.3.3}Type of loans}{10}{subsection.1.3.3}\protected@file@percent }
\newlabel{Ch1: Type of loans}{{1.3.3}{10}{Type of loans}{subsection.1.3.3}{}}
\acronymused{P2PL}
\acronymused{P2PL}
\acronymused{P2PL}
\citation{Guo2016417}
\citation{Guo2016417,markowitz1991foundations}
\acronymused{P2PL}
\acronymused{P2PL}
\acronymused{P2PL}
\@writefile{toc}{\contentsline {section}{\numberline {1.4}Thesis contribution}{11}{section.1.4}\protected@file@percent }
\newlabel{Ch1: Contribution}{{1.4}{11}{Thesis contribution}{section.1.4}{}}
\acronymused{P2PL}
\acronymused{P2PL}
\acronymused{P2PL}
\acronymused{P2PL}
\@writefile{toc}{\contentsline {section}{\numberline {1.5}Thesis organisation}{12}{section.1.5}\protected@file@percent }
\newlabel{Ch1: Organasition}{{1.5}{12}{Thesis organisation}{section.1.5}{}}
\acronymused{P2PL}
\acronymused{P2PL}
\acronymused{P2PL}
\@setckpt{Chapters/Introduction/Introduction}{
\setcounter{page}{14}
\setcounter{equation}{0}
\setcounter{enumi}{4}
\setcounter{enumii}{0}
\setcounter{enumiii}{0}
\setcounter{enumiv}{0}
\setcounter{footnote}{7}
\setcounter{mpfootnote}{0}
\setcounter{part}{0}
\setcounter{chapter}{1}
\setcounter{section}{5}
\setcounter{subsection}{0}
\setcounter{subsubsection}{0}
\setcounter{paragraph}{0}
\setcounter{subparagraph}{0}
\setcounter{figure}{0}
\setcounter{table}{5}
\setcounter{@pps}{0}
\setcounter{@ppsavesec}{0}
\setcounter{@ppsaveapp}{0}
\setcounter{NAT@ctr}{0}
\setcounter{Item}{25}
\setcounter{Hfootnote}{7}
\setcounter{bookmark@seq@number}{14}
\setcounter{AM@survey}{0}
\setcounter{caption@flags}{2}
\setcounter{continuedfloat}{0}
\setcounter{subfigure}{0}
\setcounter{subtable}{0}
\setcounter{parentequation}{0}
\setcounter{LT@tables}{0}
\setcounter{LT@chunks}{0}
\setcounter{section@level}{0}
}
