\relax 
\providecommand\hyper@newdestlabel[2]{}
\@writefile{toc}{\contentsline {chapter}{\numberline {6}Recommendation system for lower interest borrowing}{123}{chapter.6}\protected@file@percent }
\@writefile{lof}{\addvspace {10\p@ }}
\@writefile{lot}{\addvspace {10\p@ }}
\newlabel{Ch6}{{6}{123}{Recommendation system for lower interest borrowing}{chapter.6}{}}
\acronymused{P2PL}
\acronymused{P2PL}
\acronymused{P2PL}
\acronymused{P2PL}
\@writefile{toc}{\contentsline {section}{\numberline {6.1}Introduction}{123}{section.6.1}\protected@file@percent }
\newlabel{Ch6:Intro}{{6.1}{123}{Introduction}{section.6.1}{}}
\acronymused{P2PL}
\acronymused{P2PL}
\citation{herzenstein2011tell}
\citation{althoff2014ask}
\citation{herzenstein2008democratization}
\citation{ryan2007fund}
\citation{ceyhan2011dynamics}
\citation{ceyhan2011dynamics}
\acronymused{P2PL}
\acronymused{P2PL}
\acronymused{P2PL}
\acronymused{P2PL}
\acronymused{P2PL}
\citation{barasinska2014crowdfunding}
\@writefile{toc}{\contentsline {section}{\numberline {6.2}Problem statement, objectives and the overall proposed methodology}{125}{section.6.2}\protected@file@percent }
\newlabel{Ch6: problem}{{6.2}{125}{Problem statement, objectives and the overall proposed methodology}{section.6.2}{}}
\@writefile{toc}{\contentsline {subsection}{\numberline {6.2.1}The problem statement and objectives}{125}{subsection.6.2.1}\protected@file@percent }
\newlabel{Ch6: problem statement}{{6.2.1}{125}{The problem statement and objectives}{subsection.6.2.1}{}}
\acronymused{P2PL}
\@writefile{toc}{\contentsline {subsection}{\numberline {6.2.2}The overall proposed methodology}{126}{subsection.6.2.2}\protected@file@percent }
\newlabel{Ch6: overall}{{6.2.2}{126}{The overall proposed methodology}{subsection.6.2.2}{}}
\citation{neter1996applied}
\citation{feldman2005mortgage}
\citation{drucker1997support}
\citation{chatterjee1970nonparametric}
\@writefile{lof}{\contentsline {figure}{\numberline {6.1}{\ignorespaces The overall proposed methodology\relax }}{127}{figure.caption.109}\protected@file@percent }
\newlabel{fig:ch6:overall}{{6.1}{127}{The overall proposed methodology\relax }{figure.caption.109}{}}
\acronymused{P2PL}
\@writefile{lot}{\contentsline {table}{\numberline {6.1}{\ignorespaces Average interest rates of traditional loans and bidding loans for borrowers with the same loan grade. \relax }}{128}{table.caption.110}\protected@file@percent }
\newlabel{tab:ch6:average}{{6.1}{128}{Average interest rates of traditional loans and bidding loans for borrowers with the same loan grade. \relax }{table.caption.110}{}}
\@writefile{toc}{\contentsline {section}{\numberline {6.3}Data analysis}{128}{section.6.3}\protected@file@percent }
\newlabel{Ch6: data}{{6.3}{128}{Data analysis}{section.6.3}{}}
\@writefile{lot}{\contentsline {table}{\numberline {6.2}{\ignorespaces T-test between the interest rates of traditional loans and bidding loans for each grade, with null hypothesis that they have the same mean value. \relax }}{129}{table.caption.111}\protected@file@percent }
\newlabel{tab:ch6:t-test}{{6.2}{129}{T-test between the interest rates of traditional loans and bidding loans for each grade, with null hypothesis that they have the same mean value. \relax }{table.caption.111}{}}
\@writefile{lof}{\contentsline {figure}{\numberline {6.2}{\ignorespaces Pie chart of distribution on 12006 bidding loans\relax }}{129}{figure.caption.112}\protected@file@percent }
\newlabel{fig:ch6:pie}{{6.2}{129}{Pie chart of distribution on 12006 bidding loans\relax }{figure.caption.112}{}}
\@writefile{lof}{\contentsline {figure}{\numberline {6.3}{\ignorespaces Pie chart of distribution of funded and non-funded loans with grades AA to C in the bidding loan dataset\relax }}{130}{figure.caption.113}\protected@file@percent }
\newlabel{fig:ch6:AA-C}{{6.3}{130}{Pie chart of distribution of funded and non-funded loans with grades AA to C in the bidding loan dataset\relax }{figure.caption.113}{}}
\@writefile{toc}{\contentsline {section}{\numberline {6.4}Methodology}{130}{section.6.4}\protected@file@percent }
\newlabel{Ch6: method}{{6.4}{130}{Methodology}{section.6.4}{}}
\@writefile{toc}{\contentsline {subsection}{\numberline {6.4.1}Feature encoding and sentiment analysis}{130}{subsection.6.4.1}\protected@file@percent }
\newlabel{Ch6: feature sentiment}{{6.4.1}{130}{Feature encoding and sentiment analysis}{subsection.6.4.1}{}}
\acronymused{LOGIT}
\@writefile{lof}{\contentsline {figure}{\numberline {6.4}{\ignorespaces Pie chart of distribution of funded and non-funded loans with grades D to HR in the bidding loan dataset\relax }}{131}{figure.caption.114}\protected@file@percent }
\newlabel{fig:ch6:D-HR}{{6.4}{131}{Pie chart of distribution of funded and non-funded loans with grades D to HR in the bidding loan dataset\relax }{figure.caption.114}{}}
\citation{liu2012sentiment,pang2008opinion,agarwal2011sentiment}
\citation{wilson2005recognizing}
\citation{hutto2014vader}
\@writefile{lot}{\contentsline {table}{\numberline {6.3}{\ignorespaces A numerical example: characteristic of two borrowers\relax }}{132}{table.caption.115}\protected@file@percent }
\newlabel{tab:ch6:ID}{{6.3}{132}{A numerical example: characteristic of two borrowers\relax }{table.caption.115}{}}
\citation{hutto2014vader}
\AC@undonewlabel{acro:VADER}
\newlabel{acro:VADER}{{6.4.1}{133}{Feature encoding and sentiment analysis}{section*.116}{}}
\acronymused{VADER}
\@writefile{toc}{\contentsline {subsection}{\numberline {6.4.2}Machine learning models for interest rate prediction and likelihood of getting funded}{133}{subsection.6.4.2}\protected@file@percent }
\newlabel{Ch6: predictive models}{{6.4.2}{133}{Machine learning models for interest rate prediction and likelihood of getting funded}{subsection.6.4.2}{}}
\acronymused{k-NN}
\citation{dattorro2010convex}
\acronymused{RF}
\acronymused{SVR}
\acronymused{k-NN}
\acronymused{RF}
\acronymused{SVM}
\acronymused{k-NN}
\acronymused{LOGIT}
\@writefile{toc}{\contentsline {subsection}{\numberline {6.4.3}Decision process to recommend the type of loan application}{134}{subsection.6.4.3}\protected@file@percent }
\newlabel{Ch6: decision process}{{6.4.3}{134}{Decision process to recommend the type of loan application}{subsection.6.4.3}{}}
\newlabel{model:ch6:optm}{{6.1}{135}{Decision process to recommend the type of loan application}{equation.6.4.1}{}}
\@writefile{lot}{\contentsline {table}{\numberline {6.4}{\ignorespaces The predicted interest rate and success rate of getting funded of traditional and bidding loan\relax }}{135}{table.caption.117}\protected@file@percent }
\newlabel{tab:ch6:ISR}{{6.4}{135}{The predicted interest rate and success rate of getting funded of traditional and bidding loan\relax }{table.caption.117}{}}
\@writefile{lot}{\contentsline {table}{\numberline {6.5}{\ignorespaces The euclidean distance between traditional/bidding and the ideal case\relax }}{135}{table.caption.118}\protected@file@percent }
\newlabel{tab:ch6:ideal}{{6.5}{135}{The euclidean distance between traditional/bidding and the ideal case\relax }{table.caption.118}{}}
\@writefile{toc}{\contentsline {section}{\numberline {6.5}Experimental results}{135}{section.6.5}\protected@file@percent }
\newlabel{Ch6: results}{{6.5}{135}{Experimental results}{section.6.5}{}}
\citation{pedregosa2011scikit}
\@writefile{toc}{\contentsline {subsection}{\numberline {6.5.1}Experimental setup}{136}{subsection.6.5.1}\protected@file@percent }
\newlabel{Ch6: setup}{{6.5.1}{136}{Experimental setup}{subsection.6.5.1}{}}
\@writefile{toc}{\contentsline {subsection}{\numberline {6.5.2}Interest rate payable prediction for traditional and bidding loans}{137}{subsection.6.5.2}\protected@file@percent }
\newlabel{Ch6: interest rates}{{6.5.2}{137}{Interest rate payable prediction for traditional and bidding loans}{subsection.6.5.2}{}}
\@writefile{lof}{\contentsline {figure}{\numberline {6.5}{\ignorespaces Average coefficient of determination ($R^{2}$) of prediction of interest rates for traditional loans by applying linear regression, \ac {RF}, \ac {SVR} and \ac {k-NN} along with all features, forward, backward and recursive feature selection algorithm.\relax }}{137}{figure.caption.119}\protected@file@percent }
\acronymused{RF}
\acronymused{SVR}
\acronymused{k-NN}
\newlabel{fig:ch6:Itrad}{{6.5}{137}{Average coefficient of determination ($R^{2}$) of prediction of interest rates for traditional loans by applying linear regression, \ac {RF}, \ac {SVR} and \ac {k-NN} along with all features, forward, backward and recursive feature selection algorithm.\relax }{figure.caption.119}{}}
\newlabel{eq:ch6:r2}{{6.2}{137}{Interest rate payable prediction for traditional and bidding loans}{equation.6.5.2}{}}
\acronymused{RF}
\acronymused{SVR}
\acronymused{k-NN}
\acronymused{SVR}
\acronymused{RF}
\acronymused{RF}
\acronymused{k-NN}
\acronymused{SVR}
\@writefile{lot}{\contentsline {table}{\numberline {6.6}{\ignorespaces The $R^{2}$ of 5 Monte-Carlo CV of the four regression models with recursive selection for predicting the interest rate of traditional loans\relax }}{138}{table.caption.120}\protected@file@percent }
\newlabel{tab:ch6:mcr}{{6.6}{138}{The $R^{2}$ of 5 Monte-Carlo CV of the four regression models with recursive selection for predicting the interest rate of traditional loans\relax }{table.caption.120}{}}
\acronymused{SVR}
\acronymused{SVR}
\acronymused{SVR}
\acronymused{k-NN}
\acronymused{RF}
\acronymused{RF}
\acronymused{RF}
\@writefile{lot}{\contentsline {table}{\numberline {6.7}{\ignorespaces The $R^{2}$ of 5 Monte-Carlo CV of SVR with different kernel for predicting the interest rate of traditional loans\relax }}{139}{table.caption.121}\protected@file@percent }
\newlabel{tab:ch6:svrk}{{6.7}{139}{The $R^{2}$ of 5 Monte-Carlo CV of SVR with different kernel for predicting the interest rate of traditional loans\relax }{table.caption.121}{}}
\@writefile{lot}{\contentsline {table}{\numberline {6.8}{\ignorespaces The 5 Monte-Carlo CV of the four regression models with recursive selection for predicting the interest rate of bidding loans\relax }}{139}{table.caption.122}\protected@file@percent }
\newlabel{tab:ch6:mcb}{{6.8}{139}{The 5 Monte-Carlo CV of the four regression models with recursive selection for predicting the interest rate of bidding loans\relax }{table.caption.122}{}}
\acronymused{RF}
\acronymused{SVR}
\acronymused{k-NN}
\acronymused{SVR}
\acronymused{RF}
\acronymused{RF}
\acronymused{k-NN}
\acronymused{SVR}
\acronymused{RF}
\acronymused{RF}
\@writefile{lof}{\contentsline {figure}{\numberline {6.6}{\ignorespaces Average coefficient of determination ($R^{2}$) of prediction of interest rates for bidding loans by applying linear regression, \ac {RF}, \ac {SVR} and \ac {k-NN} along with all features, forward, backward and recursive feature selection algorithm.\relax }}{140}{figure.caption.123}\protected@file@percent }
\acronymused{RF}
\acronymused{SVR}
\acronymused{k-NN}
\newlabel{fig:ch6:Ibid}{{6.6}{140}{Average coefficient of determination ($R^{2}$) of prediction of interest rates for bidding loans by applying linear regression, \ac {RF}, \ac {SVR} and \ac {k-NN} along with all features, forward, backward and recursive feature selection algorithm.\relax }{figure.caption.123}{}}
\@writefile{toc}{\contentsline {subsection}{\numberline {6.5.3}Predicting the success rate of funding of bidding loans}{140}{subsection.6.5.3}\protected@file@percent }
\newlabel{Ch6: predict sucess}{{6.5.3}{140}{Predicting the success rate of funding of bidding loans}{subsection.6.5.3}{}}
\acronymused{LOGIT}
\acronymused{RF}
\acronymused{SVM}
\acronymused{k-NN}
\acronymused{LOGIT}
\acronymused{RF}
\acronymused{SVM}
\acronymused{k-NN}
\@writefile{lof}{\contentsline {figure}{\numberline {6.7}{\ignorespaces The average total accuracy of prediction of the likelihood of successfully getting funded for bidding loans by applying logistic regression, \ac {RF}, \ac {SVM} and \ac {k-NN} along with all features, forward, backward and recursive feature selection algorithm.\relax }}{141}{figure.caption.124}\protected@file@percent }
\acronymused{RF}
\acronymused{SVM}
\acronymused{k-NN}
\newlabel{fig:ch6:Sbid}{{6.7}{141}{The average total accuracy of prediction of the likelihood of successfully getting funded for bidding loans by applying logistic regression, \ac {RF}, \ac {SVM} and \ac {k-NN} along with all features, forward, backward and recursive feature selection algorithm.\relax }{figure.caption.124}{}}
\@writefile{lot}{\contentsline {table}{\numberline {6.9}{\ignorespaces The total accuracy of 5 Monte-Carlo CV of the four regression models with recursive selection for predicting the success of getting funded of bidding loans\relax }}{141}{table.caption.125}\protected@file@percent }
\newlabel{tab:ch6:mcs}{{6.9}{141}{The total accuracy of 5 Monte-Carlo CV of the four regression models with recursive selection for predicting the success of getting funded of bidding loans\relax }{table.caption.125}{}}
\acronymused{RF}
\acronymused{SVM}
\acronymused{RF}
\acronymused{RF}
\citation{ceyhan2011dynamics}
\citation{ceyhan2011dynamics}
\citation{ceyhan2011dynamics}
\citation{ceyhan2011dynamics}
\citation{ceyhan2011dynamics}
\@writefile{lot}{\contentsline {table}{\numberline {6.10}{\ignorespaces The confusion matrix of \ac {RF} with recursive selection on the test bidding dataset\relax }}{142}{table.caption.126}\protected@file@percent }
\acronymused{RF}
\newlabel{tab:ch6:cm}{{6.10}{142}{The confusion matrix of \ac {RF} with recursive selection on the test bidding dataset\relax }{table.caption.126}{}}
\@writefile{lot}{\contentsline {table}{\numberline {6.11}{\ignorespaces The total accuracy of predicting the success of getting funded of bidding loans by applying the proposed technique and the current stat-of-the-art technique\relax }}{142}{table.caption.127}\protected@file@percent }
\newlabel{tab:ch6:preds}{{6.11}{142}{The total accuracy of predicting the success of getting funded of bidding loans by applying the proposed technique and the current stat-of-the-art technique\relax }{table.caption.127}{}}
\acronymused{RF}
\acronymused{RF}
\newlabel{eq:ch6:lg}{{6.3}{142}{Predicting the success rate of funding of bidding loans}{equation.6.5.3}{}}
\citation{hutto2014vader}
\acronymused{RF}
\@writefile{toc}{\contentsline {subsection}{\numberline {6.5.4}Impact of sentiment score}{143}{subsection.6.5.4}\protected@file@percent }
\newlabel{Ch6: sentiment}{{6.5.4}{143}{Impact of sentiment score}{subsection.6.5.4}{}}
\acronymused{VADER}
\acronymused{RF}
\@writefile{lof}{\contentsline {figure}{\numberline {6.8}{\ignorespaces Information gain of RF with recursive feature selection model\relax }}{143}{figure.caption.128}\protected@file@percent }
\newlabel{fig:ch6:feat}{{6.8}{143}{Information gain of RF with recursive feature selection model\relax }{figure.caption.128}{}}
\acronymused{RF}
\acronymused{VADER}
\acronymused{RF}
\@writefile{lof}{\contentsline {figure}{\numberline {6.9}{\ignorespaces Impact on success of getting funded by changing the sentiment of texts.\relax }}{144}{figure.caption.129}\protected@file@percent }
\newlabel{fig:ch6:senti}{{6.9}{144}{Impact on success of getting funded by changing the sentiment of texts.\relax }{figure.caption.129}{}}
\acronymused{RF}
\@writefile{lot}{\contentsline {table}{\numberline {6.12}{\ignorespaces Results of increasing sentiment score on the 12,006 loans in the bidding dataset.\relax }}{145}{table.caption.130}\protected@file@percent }
\newlabel{tab:ch6:com}{{6.12}{145}{Results of increasing sentiment score on the 12,006 loans in the bidding dataset.\relax }{table.caption.130}{}}
\@writefile{toc}{\contentsline {subsection}{\numberline {6.5.5}Efficacy of the overall recommendation engine}{145}{subsection.6.5.5}\protected@file@percent }
\newlabel{Ch6: efficacy}{{6.5.5}{145}{Efficacy of the overall recommendation engine}{subsection.6.5.5}{}}
\acronymused{RF}
\@writefile{lot}{\contentsline {table}{\numberline {6.13}{\ignorespaces Comparison between the historical data and the results obtained by applying the proposed method\relax }}{146}{table.caption.131}\protected@file@percent }
\newlabel{tab:ch6:cphis}{{6.13}{146}{Comparison between the historical data and the results obtained by applying the proposed method\relax }{table.caption.131}{}}
\@writefile{toc}{\contentsline {section}{\numberline {6.6}Discussion}{146}{section.6.6}\protected@file@percent }
\newlabel{Ch6: discuss}{{6.6}{146}{Discussion}{section.6.6}{}}
\acronymused{RF}
\acronymused{RF}
\@setckpt{Chapters/Chapter6/Chapter6}{
\setcounter{page}{148}
\setcounter{equation}{3}
\setcounter{enumi}{3}
\setcounter{enumii}{0}
\setcounter{enumiii}{0}
\setcounter{enumiv}{0}
\setcounter{footnote}{3}
\setcounter{mpfootnote}{0}
\setcounter{part}{0}
\setcounter{chapter}{6}
\setcounter{section}{6}
\setcounter{subsection}{0}
\setcounter{subsubsection}{0}
\setcounter{paragraph}{0}
\setcounter{subparagraph}{0}
\setcounter{figure}{9}
\setcounter{table}{13}
\setcounter{@pps}{0}
\setcounter{@ppsavesec}{0}
\setcounter{@ppsaveapp}{0}
\setcounter{NAT@ctr}{0}
\setcounter{Item}{126}
\setcounter{Hfootnote}{36}
\setcounter{bookmark@seq@number}{96}
\setcounter{AM@survey}{0}
\setcounter{caption@flags}{2}
\setcounter{continuedfloat}{0}
\setcounter{subfigure}{0}
\setcounter{subtable}{0}
\setcounter{parentequation}{0}
\setcounter{LT@tables}{0}
\setcounter{LT@chunks}{0}
\setcounter{section@level}{0}
}
