\relax 
\providecommand\hyper@newdestlabel[2]{}
\citation{lenz2016peer,omarini2018peer,ajayitrading}
\citation{ajayitrading}
\citation{ajayitrading}
\citation{Guo2016417}
\citation{babaei2020multi}
\citation{Guo2016417}
\citation{babaei2020multi}
\@writefile{toc}{\contentsline {chapter}{\numberline {7}Conclusions and future work}{149}{chapter.7}\protected@file@percent }
\@writefile{lof}{\addvspace {10\p@ }}
\@writefile{lot}{\addvspace {10\p@ }}
\newlabel{Conclusions}{{7}{149}{Conclusions and future work}{chapter.7}{}}
\acronymused{P2PL}
\@writefile{toc}{\contentsline {section}{\numberline {7.1}Integration and validity}{149}{section.7.1}\protected@file@percent }
\newlabel{Conclusionvalidity}{{7.1}{149}{Integration and validity}{section.7.1}{}}
\acronymused{P2PL}
\acronymused{P2PL}
\acronymused{P2PL}
\acronymused{P2PL}
\acronymused{P2PL}
\acronymused{P2PL}
\citation{liu2019platform}
\citation{anresnani2018modelling}
\@writefile{lof}{\contentsline {figure}{\numberline {7.1}{\ignorespaces The architecture of a commercial \ac {P2PL} platform. Reproduced from\nobreakspace  {}\cite  {ajayitrading}.\relax }}{150}{figure.caption.132}\protected@file@percent }
\acronymused{P2PL}
\newlabel{fig:arch}{{7.1}{150}{The architecture of a commercial \ac {P2PL} platform. Reproduced from~\cite {ajayitrading}.\relax }{figure.caption.132}{}}
\acronymused{P2PL}
\acronymused{P2PL}
\acronymused{P2PL}
\acronymused{P2PL}
\acronymused{P2PL}
\acronymused{P2PL}
\citation{malekipirbazari2015risk}
\acronymused{P2PL}
\@writefile{toc}{\contentsline {section}{\numberline {7.2}Conclusions}{152}{section.7.2}\protected@file@percent }
\newlabel{ConclusionConclusion}{{7.2}{152}{Conclusions}{section.7.2}{}}
\acronymused{P2PL}
\acronymused{P2PL}
\acronymused{P2PL}
\acronymused{P2PL}
\acronymused{P2PL}
\acronymused{P2PL}
\acronymused{P2PL}
\acronymused{P2PL}
\acronymused{P2PL}
\acronymused{P2PL}
\acronymused{P2PL}
\citation{Guo2016417}
\citation{ren2019investment}
\citation{ceyhan2011dynamics}
\acronymused{P2PL}
\acronymused{P2PL}
\acronymused{P2PL}
\acronymused{P2PL}
\citation{li2016prepayment}
\@writefile{toc}{\contentsline {section}{\numberline {7.3}Research direction}{154}{section.7.3}\protected@file@percent }
\newlabel{ConclusionFutureWork}{{7.3}{154}{Research direction}{section.7.3}{}}
\acronymused{P2PL}
\acronymused{P2PL}
\acronymused{P2PL}
\acronymused{P2PL}
\acronymused{P2PL}
\acronymused{P2PL}
\acronymused{P2PL}
\acronymused{P2PL}
\citation{ceyhan2011dynamics}
\acronymused{P2PL}
\acronymused{P2PL}
\acronymused{P2PL}
\acronymused{P2PL}
\acronymused{P2PL}
\acronymused{P2PL}
\acronymused{P2PL}
\acronymused{P2PL}
\acronymused{P2PL}
\acronymused{P2PL}
\@setckpt{Chapters/Conclusions/Conclusions}{
\setcounter{page}{157}
\setcounter{equation}{0}
\setcounter{enumi}{4}
\setcounter{enumii}{0}
\setcounter{enumiii}{0}
\setcounter{enumiv}{0}
\setcounter{footnote}{1}
\setcounter{mpfootnote}{0}
\setcounter{part}{0}
\setcounter{chapter}{7}
\setcounter{section}{3}
\setcounter{subsection}{0}
\setcounter{subsubsection}{0}
\setcounter{paragraph}{0}
\setcounter{subparagraph}{0}
\setcounter{figure}{1}
\setcounter{table}{0}
\setcounter{@pps}{0}
\setcounter{@ppsavesec}{0}
\setcounter{@ppsaveapp}{0}
\setcounter{NAT@ctr}{0}
\setcounter{Item}{136}
\setcounter{Hfootnote}{37}
\setcounter{bookmark@seq@number}{100}
\setcounter{AM@survey}{0}
\setcounter{caption@flags}{2}
\setcounter{continuedfloat}{0}
\setcounter{subfigure}{0}
\setcounter{subtable}{0}
\setcounter{parentequation}{0}
\setcounter{LT@tables}{0}
\setcounter{LT@chunks}{0}
\setcounter{section@level}{0}
}
