\relax 
\providecommand\hyper@newdestlabel[2]{}
\providecommand\HyperFirstAtBeginDocument{\AtBeginDocument}
\HyperFirstAtBeginDocument{\ifx\hyper@anchor\@undefined
\global\let\oldcontentsline\contentsline
\gdef\contentsline#1#2#3#4{\oldcontentsline{#1}{#2}{#3}}
\global\let\oldnewlabel\newlabel
\gdef\newlabel#1#2{\newlabelxx{#1}#2}
\gdef\newlabelxx#1#2#3#4#5#6{\oldnewlabel{#1}{{#2}{#3}}}
\AtEndDocument{\ifx\hyper@anchor\@undefined
\let\contentsline\oldcontentsline
\let\newlabel\oldnewlabel
\fi}
\fi}
\global\let\hyper@last\relax 
\gdef\HyperFirstAtBeginDocument#1{#1}
\providecommand\HyField@AuxAddToFields[1]{}
\providecommand\HyField@AuxAddToCoFields[2]{}
\AC@reset@newl@bel
\newacro{P2PL}[P2PL]{Peer to Peer Lending}
\newacro{ARR}[ARR]{Annualized Rate of Return}
\newacro{LOGIT}[LOGIT]{Logistic Regression}
\newacro{MLOGIT}[MLOGIT]{Multinomial Logistic Regression}
\newacro{SVM}[SVM]{Support Vector Machine}
\newacro{RF}[RF]{Random Forest}
\newacro{FICO}[FICO]{Fair, Isaac, and Company}
\newacro{H3LC}[H3LC]{Hierarchical Three Label Classification}
\newacro{MSE}[MSE]{Mean Square Error}
\newacro{RMSE}[RMSE]{Root Mean Square Error}
\newacro{RBF}[RBF]{Gaussian Radial Basis Kernel Function}
\newacro{EDM}[EDM]{Exponential Distance Method}
\newacro{CV}[CV]{Cross Validation}
\newacro{MLP}[MLP]{Multilayer Perceptron}
\@writefile{toc}{\contentsline {section}{\numberline {1}Appendix}{1}{section.1}}
\newlabel{sec:appd}{{1}{1}{Appendix}{section.1}{}}
\@writefile{toc}{\contentsline {subsection}{\numberline {1.1}Feature description and selection}{1}{subsection.1.1}}
\newlabel{sec:feat}{{1.1}{1}{Feature description and selection}{subsection.1.1}{}}
\@writefile{lot}{\contentsline {table}{\numberline {1}{\ignorespaces Features and response variable description}}{1}{table.1}}
\newlabel{table:fe}{{1}{1}{Features and response variable description}{table.1}{}}
\@writefile{lot}{\contentsline {table}{\numberline {2}{\ignorespaces Single Monte Carlo result for overall accuracy of three-label classification (in \%) with different feature selection techniques on test datasets.}}{2}{table.2}}
\newlabel{tab:fs}{{2}{2}{Single Monte Carlo result for overall accuracy of three-label classification (in \%) with different feature selection techniques on test datasets}{table.2}{}}
\AC@undonewlabel{acro:MLOGIT}
\newlabel{acro:MLOGIT}{{2}{2}{Single Monte Carlo result for overall accuracy of three-label classification (in \%) with different feature selection techniques on test datasets}{section*.1}{}}
\acronymused{MLOGIT}
\AC@undonewlabel{acro:RF}
\newlabel{acro:RF}{{2}{2}{Single Monte Carlo result for overall accuracy of three-label classification (in \%) with different feature selection techniques on test datasets}{section*.2}{}}
\acronymused{RF}
\AC@undonewlabel{acro:H3LC}
\newlabel{acro:H3LC}{{2}{2}{Single Monte Carlo result for overall accuracy of three-label classification (in \%) with different feature selection techniques on test datasets}{section*.3}{}}
\acronymused{H3LC}
\acronymused{RF}
\acronymused{H3LC}
\AC@undonewlabel{acro:LOGIT}
\newlabel{acro:LOGIT}{{2}{2}{Single Monte Carlo result for overall accuracy of three-label classification (in \%) with different feature selection techniques on test datasets}{section*.4}{}}
\acronymused{LOGIT}
\@writefile{toc}{\contentsline {subsection}{\numberline {1.2}Mahalanobis distance method}{3}{subsection.1.2}}
\@writefile{lot}{\contentsline {table}{\numberline {3}{\ignorespaces Root mean square error between the predicted \ac {ARR} and the real \ac {ARR} with five Monte Carlo CV.}}{3}{table.3}}
\acronymused{ARR}
\acronymused{ARR}
\newlabel{fig:maha}{{3}{3}{Root mean square error between the predicted \ac {ARR} and the real \ac {ARR} with five Monte Carlo CV}{table.3}{}}
\@writefile{lot}{\contentsline {table}{\numberline {4}{\ignorespaces Root mean square error between the predicted standard deviation and the real standard deviation with five Monte Carlo CV.}}{4}{table.4}}
\newlabel{fig:mahs}{{4}{4}{Root mean square error between the predicted standard deviation and the real standard deviation with five Monte Carlo CV}{table.4}{}}
\@writefile{lot}{\contentsline {table}{\numberline {5}{\ignorespaces Error between the predicted portfolio \ac {ARR} and the real portfolio \ac {ARR} with five Monte Carlo CV }}{4}{table.5}}
\acronymused{ARR}
\acronymused{ARR}
\newlabel{fig:mport_ARR}{{5}{4}{Error between the predicted portfolio \ac {ARR} and the real portfolio \ac {ARR} with five Monte Carlo CV}{table.5}{}}
\@writefile{lot}{\contentsline {table}{\numberline {6}{\ignorespaces Error between the predicted portfolio standard deviation and the real portfolio standard deviation with five Monte Carlo CV. }}{4}{table.6}}
\newlabel{fig:mport_std}{{6}{4}{Error between the predicted portfolio standard deviation and the real portfolio standard deviation with five Monte Carlo CV}{table.6}{}}
\acronymused{ARR}
\acronymused{H3LC}
\acronymused{LOGIT}
\acronymused{H3LC}
\acronymused{RF}
\acronymused{H3LC}
\acronymused{RF}
\acronymused{ARR}
\acronymused{H3LC}
\acronymused{RF}
\acronymused{ARR}
\acronymused{H3LC}
\acronymused{RF}
\acronymused{H3LC}
\acronymused{LOGIT}
\@writefile{toc}{\contentsline {subsection}{\numberline {1.3}Efficiency frontiers}{5}{subsection.1.3}}
\@writefile{lof}{\contentsline {figure}{\numberline {1}{\ignorespaces \textbf  {The efficiency frontiers with respect to different technique on Prosper dataset}\nobreakspace  {}.}}{6}{figure.1}}
\newlabel{fig:front_pros}{{1}{6}{\textbf {The efficiency frontiers with respect to different technique on Prosper dataset}~}{figure.1}{}}
