\relax 
\providecommand\hyper@newdestlabel[2]{}
\providecommand\HyperFirstAtBeginDocument{\AtBeginDocument}
\HyperFirstAtBeginDocument{\ifx\hyper@anchor\@undefined
\global\let\oldcontentsline\contentsline
\gdef\contentsline#1#2#3#4{\oldcontentsline{#1}{#2}{#3}}
\global\let\oldnewlabel\newlabel
\gdef\newlabel#1#2{\newlabelxx{#1}#2}
\gdef\newlabelxx#1#2#3#4#5#6{\oldnewlabel{#1}{{#2}{#3}}}
\AtEndDocument{\ifx\hyper@anchor\@undefined
\let\contentsline\oldcontentsline
\let\newlabel\oldnewlabel
\fi}
\fi}
\global\let\hyper@last\relax 
\gdef\HyperFirstAtBeginDocument#1{#1}
\providecommand\HyField@AuxAddToFields[1]{}
\providecommand\HyField@AuxAddToCoFields[2]{}
\AC@reset@newl@bel
\citation{morduch1999microfinance,conlin1999249}
\citation{funk2015online}
\citation{Roth20121115}
\newacro{P2PL}[P2PL]{Peer to Peer Lending}
\newacro{ARR}[ARR]{Annualized Rate of Return}
\newacro{LOGIT}[LOGIT]{Logistic Regression}
\newacro{MLOGIT}[MLOGIT]{Multinomial Logistic Regression}
\newacro{SVM}[SVM]{Support Vector Machine}
\newacro{RF}[RF]{Random Forest}
\newacro{FICO}[FICO]{Fair, Isaac, and Company}
\newacro{H3LC}[H3LC]{Hierarchical Three Label Classification}
\newacro{MSE}[MSE]{Mean Square Error}
\newacro{RMSE}[RMSE]{Root Mean Square Error}
\newacro{RBF}[RBF]{Gaussian Radial Basis Kernel Function}
\newacro{EDM}[EDM]{Exponential Distance Method}
\newacro{CV}[CV]{Cross Validation}
\newacro{MLP}[MLP]{Multilayer Perceptron}
\@writefile{toc}{\contentsline {section}{Abstract}{1}{section*.1}}
\AC@undonewlabel{acro:P2PL}
\newlabel{acro:P2PL}{{}{1}{}{section*.2}{}}
\acronymused{P2PL}
\acronymused{P2PL}
\AC@undonewlabel{acro:H3LC}
\newlabel{acro:H3LC}{{}{1}{}{section*.3}{}}
\acronymused{H3LC}
\AC@undonewlabel{acro:EDM}
\newlabel{acro:EDM}{{}{1}{}{section*.4}{}}
\acronymused{EDM}
\AC@undonewlabel{acro:ARR}
\newlabel{acro:ARR}{{}{1}{}{section*.5}{}}
\acronymused{ARR}
\acronymused{H3LC}
\acronymused{EDM}
\@writefile{toc}{\contentsline {section}{\numberline {1}Introduction}{1}{section.1}}
\newlabel{sec:introduction}{{1}{1}{Introduction}{section.1}{}}
\acronymused{P2PL}
\acronymused{P2PL}
\acronymused{P2PL}
\acronymused{P2PL}
\citation{LCW}
\citation{Guo2016417}
\citation{li2016prepayment}
\citation{malekipirbazari2015risk}
\citation{markowitz1991foundations,boyd2004convex}
\citation{Guo2016417}
\citation{markowitz1991foundations}
\acronymused{P2PL}
\acronymused{P2PL}
\acronymused{P2PL}
\acronymused{P2PL}
\acronymused{P2PL}
\acronymused{P2PL}
\acronymused{ARR}
\acronymused{ARR}
\acronymused{ARR}
\acronymused{ARR}
\acronymused{P2PL}
\@writefile{lof}{\contentsline {figure}{\numberline {1}{\ignorespaces Overall proposed methodology\relax }}{3}{figure.caption.6}}
\providecommand*\caption@xref[2]{\@setref\relax\@undefined{#1}}
\newlabel{fig:overall}{{1}{3}{Overall proposed methodology\relax }{figure.caption.6}{}}
\acronymused{ARR}
\acronymused{ARR}
\acronymused{ARR}
\acronymused{ARR}
\@writefile{toc}{\contentsline {section}{\numberline {2}Related work}{3}{section.2}}
\newlabel{sec:related-works}{{2}{3}{Related work}{section.2}{}}
\citation{Herzenstein201111}
\citation{Duarte01082012}
\citation{Herzenstein2008}
\citation{Lyer200908}
\citation{Klafft20080714}
\citation{malekipirbazari2015risk}
\citation{friedman2001elements}
\citation{suykens1999least}
\citation{breiman2001random}
\citation{li2016prepayment}
\citation{friedman2001elements}
\citation{li2016prepayment}
\citation{Guo2016417}
\citation{Guo2016417}
\citation{Guo2016417}
\acronymused{ARR}
\acronymused{P2PL}
\AC@undonewlabel{acro:LOGIT}
\newlabel{acro:LOGIT}{{2}{4}{Related work}{section*.7}{}}
\acronymused{LOGIT}
\AC@undonewlabel{acro:SVM}
\newlabel{acro:SVM}{{2}{4}{Related work}{section*.8}{}}
\acronymused{SVM}
\AC@undonewlabel{acro:RF}
\newlabel{acro:RF}{{2}{4}{Related work}{section*.9}{}}
\acronymused{RF}
\acronymused{RF}
\AC@undonewlabel{acro:MLOGIT}
\newlabel{acro:MLOGIT}{{2}{4}{Related work}{section*.10}{}}
\acronymused{MLOGIT}
\acronymused{H3LC}
\acronymused{MLOGIT}
\acronymused{EDM}
\acronymused{ARR}
\acronymused{ARR}
\acronymused{ARR}
\@writefile{toc}{\contentsline {section}{\numberline {3}Data description and feature selection}{4}{section.3}}
\newlabel{sec:data-description}{{3}{4}{Data description and feature selection}{section.3}{}}
\acronymused{P2PL}
\citation{Udacity}
\citation{malekipirbazari2015risk}
\citation{guyon2002gene}
\citation{Appendix}
\citation{friedman2001elements}
\citation{breiman2001random}
\citation{malekipirbazari2015risk}
\citation{Guo2016417}
\citation{li2016prepayment}
\citation{friedman2001elements}
\acronymused{P2PL}
\@writefile{toc}{\contentsline {subsection}{\numberline {3.1}Feature selection}{5}{subsection.3.1}}
\newlabel{sec:feature-selection}{{3.1}{5}{Feature selection}{subsection.3.1}{}}
\@writefile{toc}{\contentsline {section}{\numberline {4}Classification methods}{5}{section.4}}
\newlabel{sec:class-meth}{{4}{5}{Classification methods}{section.4}{}}
\acronymused{H3LC}
\acronymused{LOGIT}
\acronymused{RF}
\acronymused{P2PL}
\acronymused{RF}
\acronymused{LOGIT}
\acronymused{MLOGIT}
\citation{wiginton1980note}
\citation{friedman2001elements}
\acronymused{H3LC}
\acronymused{LOGIT}
\@writefile{toc}{\contentsline {subsection}{\numberline {4.1}\acf {LOGIT}}{6}{subsection.4.1}}
\newlabel{sec:acflogit}{{4.1}{6}{\acf {LOGIT}}{subsection.4.1}{}}
\acronymused{LOGIT}
\acronymused{P2PL}
\acronymused{MLOGIT}
\@writefile{toc}{\contentsline {subsection}{\numberline {4.2}\acf {MLOGIT}}{6}{subsection.4.2}}
\newlabel{sec:acfmlogit}{{4.2}{6}{\acf {MLOGIT}}{subsection.4.2}{}}
\acronymused{MLOGIT}
\acronymused{LOGIT}
\acronymused{MLOGIT}
\acronymused{MLOGIT}
\citation{malekipirbazari2015risk}
\citation{breiman2001random}
\citation{friedman2001elements}
\citation{breiman2001random}
\acronymused{RF}
\@writefile{toc}{\contentsline {subsection}{\numberline {4.3}\acf {RF}}{7}{subsection.4.3}}
\newlabel{sec:random-forest}{{4.3}{7}{\acf {RF}}{subsection.4.3}{}}
\acronymused{RF}
\acronymused{RF}
\acronymused{RF}
\acronymused{H3LC}
\acronymused{RF}
\acronymused{RF}
\acronymused{RF}
\acronymused{RF}
\acronymused{H3LC}
\@writefile{toc}{\contentsline {subsection}{\numberline {4.4}Proposed \acf {H3LC}}{7}{subsection.4.4}}
\newlabel{sec:acfh3lc}{{4.4}{7}{Proposed \acf {H3LC}}{subsection.4.4}{}}
\acronymused{H3LC}
\acronymused{MLOGIT}
\acronymused{RF}
\citation{Guo2016417}
\citation{alpaydin2014introduction}
\citation{Guo2016417}
\acronymused{ARR}
\acronymused{LOGIT}
\acronymused{RF}
\acronymused{H3LC}
\acronymused{ARR}
\@writefile{toc}{\contentsline {section}{\numberline {5}Instance-based model for predicting the \acf {ARR} and standard deviation (risk) of investment}{8}{section.5}}
\newlabel{sec:instance-based-model}{{5}{8}{Instance-based model for predicting the \acf {ARR} and standard deviation (risk) of investment}{section.5}{}}
\acronymused{ARR}
\acronymused{ARR}
\acronymused{ARR}
\acronymused{ARR}
\@writefile{toc}{\contentsline {subsection}{\numberline {5.1}Predicting the \acf {ARR} and the standard deviation for loans available for investment}{8}{subsection.5.1}}
\newlabel{sec:predicting-acfarr}{{5.1}{8}{Predicting the \acf {ARR} and the standard deviation for loans available for investment}{subsection.5.1}{}}
\acronymused{ARR}
\acronymused{ARR}
\newlabel{eq:1}{{1}{8}{Predicting the \acf {ARR} and the standard deviation for loans available for investment}{equation.5.1}{}}
\newlabel{eq:2}{{2}{8}{Predicting the \acf {ARR} and the standard deviation for loans available for investment}{equation.5.2}{}}
\newlabel{eq:3}{{3}{8}{Predicting the \acf {ARR} and the standard deviation for loans available for investment}{equation.5.3}{}}
\citation{Guo2016417}
\citation{friedman2001elements}
\citation{Appendix}
\@writefile{toc}{\contentsline {subsection}{\numberline {5.2}Computing the similarity metric}{9}{subsection.5.2}}
\newlabel{sec:comp-simil-metric}{{5.2}{9}{Computing the similarity metric}{subsection.5.2}{}}
\AC@undonewlabel{acro:RBF}
\newlabel{acro:RBF}{{5.2}{9}{Computing the similarity metric}{section*.11}{}}
\acronymused{RBF}
\acronymused{EDM}
\acronymused{RBF}
\acronymused{RBF}
\acronymused{EDM}
\newlabel{sec:acfrbf-comp-simil}{{5.2.1}{9}{\acf {RBF} for computing the similarity metric}{subsubsection.5.2.1}{}}
\acronymused{RBF}
\@writefile{toc}{\contentsline {subsubsection}{\numberline {5.2.1}\acf {RBF} for computing the similarity metric}{9}{subsubsection.5.2.1}}
\newlabel{eq:4}{{4}{9}{\acf {RBF} for computing the similarity metric}{equation.5.4}{}}
\newlabel{eq:5}{{5}{9}{\acf {RBF} for computing the similarity metric}{equation.5.5}{}}
\acronymused{ARR}
\acronymused{RBF}
\newlabel{sec:acfedm-comp-simil}{{5.2.2}{9}{\acf {EDM} for computing the similarity metric}{subsubsection.5.2.2}{}}
\acronymused{EDM}
\@writefile{toc}{\contentsline {subsubsection}{\numberline {5.2.2}\acf {EDM} for computing the similarity metric}{9}{subsubsection.5.2.2}}
\newlabel{eq:6}{{6}{9}{\acf {EDM} for computing the similarity metric}{equation.5.6}{}}
\acronymused{RBF}
\acronymused{RBF}
\acronymused{EDM}
\citation{boyd2004convex}
\citation{markowitz1991foundations}
\citation{sharpe1966mutual}
\citation{sharpe1966mutual}
\@writefile{toc}{\contentsline {section}{\numberline {6}Portfolio optimization model}{10}{section.6}}
\newlabel{sec:portf-optim-model}{{6}{10}{Portfolio optimization model}{section.6}{}}
\acronymused{ARR}
\acronymused{ARR}
\@writefile{toc}{\contentsline {subsection}{\numberline {6.1}Mean-variance optimization model}{10}{subsection.6.1}}
\newlabel{sec:mean-vari-optim}{{6.1}{10}{Mean-variance optimization model}{subsection.6.1}{}}
\acronymused{ARR}
\newlabel{eq:9}{{7}{10}{Mean-variance optimization model}{equation.6.7}{}}
\acronymused{ARR}
\@writefile{toc}{\contentsline {subsection}{\numberline {6.2}Sharpe ratio}{10}{subsection.6.2}}
\newlabel{sec:sharpe-ratio}{{6.2}{10}{Sharpe ratio}{subsection.6.2}{}}
\newlabel{eq:10}{{8}{10}{Sharpe ratio}{equation.6.8}{}}
\acronymused{ARR}
\acronymused{ARR}
\@writefile{toc}{\contentsline {section}{\numberline {7}Experimental evaluation and discussion}{10}{section.7}}
\newlabel{sec:exper-eval}{{7}{10}{Experimental evaluation and discussion}{section.7}{}}
\acronymused{ARR}
\citation{li2016prepayment}
\citation{malekipirbazari2015risk}
\citation{pedregosa2011scikit}
\acronymused{ARR}
\acronymused{ARR}
\@writefile{toc}{\contentsline {subsection}{\numberline {7.1}Experimental setup}{11}{subsection.7.1}}
\newlabel{sec:experimental-setup}{{7.1}{11}{Experimental setup}{subsection.7.1}{}}
\acronymused{MLOGIT}
\acronymused{RF}
\acronymused{P2PL}
\acronymused{H3LC}
\acronymused{RF}
\acronymused{MLOGIT}
\@writefile{toc}{\contentsline {subsection}{\numberline {7.2}Balancing the unbalanced dataset}{11}{subsection.7.2}}
\newlabel{sec:bal}{{7.2}{11}{Balancing the unbalanced dataset}{subsection.7.2}{}}
\acronymused{MLOGIT}
\acronymused{RF}
\acronymused{H3LC}
\acronymused{H3LC}
\acronymused{RF}
\citation{Appendix}
\@writefile{lot}{\contentsline {table}{\numberline {1}{\ignorespaces Results of accuracy for three-label loan status classification (in \%) with unbalanced dataset. FP: Full payment, PP: Prepayment, D: Default, O: Overall accuracy.\relax }}{12}{table.caption.12}}
\newlabel{tab:unbal}{{1}{12}{Results of accuracy for three-label loan status classification (in \%) with unbalanced dataset. FP: Full payment, PP: Prepayment, D: Default, O: Overall accuracy.\relax }{table.caption.12}{}}
\acronymused{MLOGIT}
\acronymused{RF}
\acronymused{H3LC}
\acronymused{RF}
\acronymused{H3LC}
\acronymused{LOGIT}
\acronymused{MLOGIT}
\acronymused{RF}
\@writefile{lot}{\contentsline {table}{\numberline {2}{\ignorespaces Results of accuracy for three-label loan status classification (in \%) with balanced dataset. FP: Full payment, PP: Prepayment, D: Default, O: Overall accuracy.\relax }}{12}{table.caption.13}}
\newlabel{tab:bal}{{2}{12}{Results of accuracy for three-label loan status classification (in \%) with balanced dataset. FP: Full payment, PP: Prepayment, D: Default, O: Overall accuracy.\relax }{table.caption.13}{}}
\acronymused{MLOGIT}
\acronymused{RF}
\acronymused{H3LC}
\acronymused{RF}
\acronymused{H3LC}
\acronymused{LOGIT}
\@writefile{toc}{\contentsline {subsection}{\numberline {7.3}Feature selection and comparison of accuracy of classification}{12}{subsection.7.3}}
\newlabel{sec:comp-accur-class}{{7.3}{12}{Feature selection and comparison of accuracy of classification}{subsection.7.3}{}}
\newlabel{sec:feature-selection-1}{{7.3.1}{12}{Feature selection}{subsubsection.7.3.1}{}}
\@writefile{toc}{\contentsline {subsubsection}{\numberline {7.3.1}Feature selection}{12}{subsubsection.7.3.1}}
\newlabel{sec:comparison}{{7.3.2}{12}{Comparison of classification algorithms}{subsubsection.7.3.2}{}}
\@writefile{toc}{\contentsline {subsubsection}{\numberline {7.3.2}Comparison of classification algorithms}{12}{subsubsection.7.3.2}}
\acronymused{MLOGIT}
\acronymused{RF}
\acronymused{H3LC}
\acronymused{H3LC}
\@writefile{lot}{\contentsline {table}{\numberline {3}{\ignorespaces The overall accuracy of three-label classification (in \%) on test dataset with and without feature selection.\relax }}{13}{table.caption.14}}
\newlabel{tab:afrf}{{3}{13}{The overall accuracy of three-label classification (in \%) on test dataset with and without feature selection.\relax }{table.caption.14}{}}
\acronymused{MLOGIT}
\acronymused{RF}
\acronymused{H3LC}
\acronymused{RF}
\acronymused{H3LC}
\acronymused{LOGIT}
\@writefile{lot}{\contentsline {table}{\numberline {4}{\ignorespaces Five Monte Carlo CV results for three-label loan status classification (in \%) on test datasets. FP: Full payment, PP: Prepayment, D: Default.\relax }}{13}{table.caption.15}}
\newlabel{fig:acccomp}{{4}{13}{Five Monte Carlo CV results for three-label loan status classification (in \%) on test datasets. FP: Full payment, PP: Prepayment, D: Default.\relax }{table.caption.15}{}}
\newlabel{fig:acccompp}{{4(a)}{13}{Subtable 4(a)}{subtable.4.1}{}}
\newlabel{sub@fig:acccompp}{{(a)}{13}{Subtable 4(a)\relax }{subtable.4.1}{}}
\acronymused{MLOGIT}
\acronymused{RF}
\acronymused{H3LC}
\acronymused{RF}
\acronymused{H3LC}
\acronymused{LOGIT}
\newlabel{fig:acclabp}{{4(b)}{13}{Subtable 4(b)}{subtable.4.2}{}}
\newlabel{sub@fig:acclabp}{{(b)}{13}{Subtable 4(b)\relax }{subtable.4.2}{}}
\acronymused{MLOGIT}
\acronymused{RF}
\acronymused{H3LC}
\acronymused{RF}
\acronymused{H3LC}
\acronymused{LOGIT}
\@writefile{lot}{\contentsline {subtable}{\numberline{(a)}{\ignorespaces {Prosper test dataset classification accuracy results}}}{13}{subtable.4.2}}
\@writefile{lot}{\contentsline {subtable}{\numberline{(b)}{\ignorespaces {The average accuracy scores for each of the three labels for Prosper dataset}}}{13}{subtable.4.2}}
\@writefile{lot}{\contentsline {table}{\numberline {5}{\ignorespaces Five Monte Carlo CV results for two-label loan status classification (in \%) on test datasets.\relax }}{13}{table.caption.16}}
\newlabel{fig:acccomp2}{{5}{13}{Five Monte Carlo CV results for two-label loan status classification (in \%) on test datasets.\relax }{table.caption.16}{}}
\newlabel{fig:acccompp2}{{5(a)}{13}{Subtable 5(a)}{subtable.5.1}{}}
\newlabel{sub@fig:acccompp2}{{(a)}{13}{Subtable 5(a)\relax }{subtable.5.1}{}}
\acronymused{LOGIT}
\acronymused{RF}
\newlabel{fig:twolabelaccdndp}{{5(b)}{13}{Subtable 5(b)}{subtable.5.2}{}}
\newlabel{sub@fig:twolabelaccdndp}{{(b)}{13}{Subtable 5(b)\relax }{subtable.5.2}{}}
\acronymused{LOGIT}
\acronymused{RF}
\@writefile{lot}{\contentsline {subtable}{\numberline{(a)}{\ignorespaces {Prosper test dataset classification accuracy results}}}{13}{subtable.5.2}}
\@writefile{lot}{\contentsline {subtable}{\numberline{(b)}{\ignorespaces {Average accuracy scores (in \%) for two-label classification of loan status for the test Prosper dataset. }}}{13}{subtable.5.2}}
\citation{Guo2016417}
\citation{Guo2016417}
\citation{Guo2016417}
\acronymused{H3LC}
\acronymused{RF}
\acronymused{H3LC}
\acronymused{RF}
\acronymused{H3LC}
\acronymused{RF}
\acronymused{H3LC}
\acronymused{RF}
\acronymused{RF}
\acronymused{H3LC}
\acronymused{LOGIT}
\acronymused{MLOGIT}
\acronymused{RF}
\acronymused{LOGIT}
\acronymused{LOGIT}
\acronymused{ARR}
\acronymused{ARR}
\@writefile{toc}{\contentsline {subsection}{\numberline {7.4}Comparison of accuracy of predicting \ac {ARR} and standard deviation}{14}{subsection.7.4}}
\newlabel{sec:comp-accur-pred}{{7.4}{14}{Comparison of accuracy of predicting \ac {ARR} and standard deviation}{subsection.7.4}{}}
\acronymused{ARR}
\acronymused{RBF}
\acronymused{EDM}
\acronymused{RBF}
\acronymused{LOGIT}
\acronymused{RF}
\acronymused{EDM}
\acronymused{H3LC}
\acronymused{LOGIT}
\acronymused{H3LC}
\acronymused{RF}
\@writefile{lot}{\contentsline {table}{\numberline {6}{\ignorespaces Root mean square error between the predicted \ac {ARR} and the real \ac {ARR} with five Monte Carlo CV.\relax }}{14}{table.caption.17}}
\acronymused{ARR}
\acronymused{ARR}
\newlabel{fig:arrer}{{6}{14}{Root mean square error between the predicted \ac {ARR} and the real \ac {ARR} with five Monte Carlo CV.\relax }{table.caption.17}{}}
\acronymused{ARR}
\acronymused{ARR}
\acronymused{RBF}
\acronymused{H3LC}
\acronymused{EDM}
\@writefile{lot}{\contentsline {table}{\numberline {7}{\ignorespaces Root mean square error between the predicted standard deviation and the real standard deviation with five Monte Carlo CV.\relax }}{14}{table.caption.18}}
\newlabel{fig:stddeve}{{7}{14}{Root mean square error between the predicted standard deviation and the real standard deviation with five Monte Carlo CV.\relax }{table.caption.18}{}}
\citation{Guo2016417}
\citation{Guo2016417}
\@writefile{lof}{\contentsline {figure}{\numberline {2}{\ignorespaces Execution time comparison of \ac {RBF} and \ac {EDM} techniques\nonbreakingspace \relax }}{15}{figure.caption.19}}
\acronymused{RBF}
\acronymused{EDM}
\newlabel{fig:exect}{{2}{15}{Execution time comparison of \ac {RBF} and \ac {EDM} techniques~\relax }{figure.caption.19}{}}
\acronymused{RBF}
\acronymused{EDM}
\acronymused{ARR}
\acronymused{RBF}
\acronymused{EDM}
\acronymused{EDM}
\acronymused{EDM}
\acronymused{RBF}
\acronymused{RBF}
\acronymused{EDM}
\acronymused{EDM}
\acronymused{RBF}
\@writefile{toc}{\contentsline {subsection}{\numberline {7.5}Mean-variance frontier generation and portfolio selection}{15}{subsection.7.5}}
\newlabel{sec:mean-vari-front}{{7.5}{15}{Mean-variance frontier generation and portfolio selection}{subsection.7.5}{}}
\@writefile{lot}{\contentsline {table}{\numberline {8}{\ignorespaces Error (difference) between the predicted portfolio \ac {ARR} and the real portfolio \ac {ARR} with five Monte Carlo CV \relax }}{15}{table.caption.20}}
\acronymused{ARR}
\acronymused{ARR}
\newlabel{fig:port_ARR}{{8}{15}{Error (difference) between the predicted portfolio \ac {ARR} and the real portfolio \ac {ARR} with five Monte Carlo CV \relax }{table.caption.20}{}}
\acronymused{ARR}
\citation{Appendix}
\@writefile{lot}{\contentsline {table}{\numberline {9}{\ignorespaces Error (difference) between the predicted portfolio standard deviation and the real portfolio standard deviation with five Monte Carlo CV. \relax }}{16}{table.caption.21}}
\newlabel{fig:port_std}{{9}{16}{Error (difference) between the predicted portfolio standard deviation and the real portfolio standard deviation with five Monte Carlo CV. \relax }{table.caption.21}{}}
\acronymused{H3LC}
\acronymused{RF}
\acronymused{H3LC}
\acronymused{LOGIT}
\acronymused{LOGIT}
\acronymused{RBF}
\acronymused{RF}
\acronymused{RBF}
\acronymused{ARR}
\newlabel{eq:11}{{9}{16}{Mean-variance frontier generation and portfolio selection}{equation.7.9}{}}
\newlabel{eq:12}{{10}{16}{Mean-variance frontier generation and portfolio selection}{equation.7.10}{}}
\acronymused{ARR}
\acronymused{H3LC}
\acronymused{EDM}
\acronymused{RBF}
\acronymused{RBF}
\acronymused{LOGIT}
\acronymused{RBF}
\acronymused{RF}
\acronymused{RBF}
\acronymused{H3LC}
\acronymused{EDM}
\acronymused{ARR}
\acronymused{H3LC}
\acronymused{LOGIT}
\acronymused{RF}
\acronymused{RBF}
\acronymused{H3LC}
\acronymused{RF}
\acronymused{H3LC}
\acronymused{LOGIT}
\acronymused{RF}
\acronymused{RBF}
\acronymused{ARR}
\@writefile{toc}{\contentsline {section}{\numberline {8}Conclusion}{16}{section.8}}
\newlabel{sec:conclusion}{{8}{16}{Conclusion}{section.8}{}}
\acronymused{P2PL}
\bibstyle{ACM-Reference-Format}
\bibdata{mybibfile}
\bibcite{alpaydin2014introduction}{{1}{2014}{{Alpaydin}}{{Alpaydin}}}
\bibcite{boyd2004convex}{{2}{2004}{{Boyd and Vandenberghe}}{{Boyd and Vandenberghe}}}
\bibcite{breiman2001random}{{3}{2001}{{Breiman}}{{Breiman}}}
\bibcite{conlin1999249}{{4}{1999}{{Conlin}}{{Conlin}}}
\bibcite{Duarte01082012}{{5}{2012}{{Duarte et~al\unhbox \voidb@x \hbox {.}}}{{Duarte, Siegel, and Young}}}
\bibcite{friedman2001elements}{{6}{2001}{{Friedman et~al\unhbox \voidb@x \hbox {.}}}{{Friedman, Hastie, and Tibshirani}}}
\bibcite{funk2015online}{{7}{2015}{{Funk et~al\unhbox \voidb@x \hbox {.}}}{{Funk, Bachmann, Becker, Buerckner, Hilker, Kock, Lehmann, and Tiburtius}}}
\bibcite{Guo2016417}{{8}{2016}{{Guo et~al\unhbox \voidb@x \hbox {.}}}{{Guo, Zhou, Luo, Liu, and Xiong}}}
\bibcite{guyon2002gene}{{9}{2002}{{Guyon et~al\unhbox \voidb@x \hbox {.}}}{{Guyon, Weston, Barnhill, and Vapnik}}}
\bibcite{Herzenstein2008}{{10}{2008}{{Herzenstein et~al\unhbox \voidb@x \hbox {.}}}{{Herzenstein, Andrews, Dholakia, and Lyandres}}}
\bibcite{Herzenstein201111}{{11}{2011}{{Herzenstein et~al\unhbox \voidb@x \hbox {.}}}{{Herzenstein, Sonenshein, and Dholakia}}}
\bibcite{Roth20121115}{{12}{2012}{{J.D.Roth}}{{J.D.Roth}}}
\bibcite{Lyer200908}{{13}{2009}{{Khwaja et~al\unhbox \voidb@x \hbox {.}}}{{Khwaja, Iyer, Luttmer, and Shue}}}
\bibcite{Klafft20080714}{{14}{2008}{{Klafft}}{{Klafft}}}
\bibcite{LCW}{{15}{2016}{{LendingClub}}{{LendingClub}}}
\bibcite{li2016prepayment}{{16}{2016}{{Li et~al\unhbox \voidb@x \hbox {.}}}{{Li, Yao, Wen, and Yang}}}
\bibcite{malekipirbazari2015risk}{{17}{2015}{{Malekipirbazari and Aksakalli}}{{Malekipirbazari and Aksakalli}}}
\acronymused{H3LC}
\acronymused{ARR}
\acronymused{EDM}
\acronymused{ARR}
\acronymused{P2PL}
\acronymused{ARR}
\acronymused{ARR}
\@writefile{toc}{\contentsline {section}{References}{17}{section*.23}}
\bibcite{markowitz1991foundations}{{18}{1991}{{Markowitz}}{{Markowitz}}}
\bibcite{morduch1999microfinance}{{19}{1999}{{Morduch}}{{Morduch}}}
\bibcite{pedregosa2011scikit}{{20}{2011}{{Pedregosa et~al\unhbox \voidb@x \hbox {.}}}{{Pedregosa, Varoquaux, Gramfort, Michel, Thirion, Grisel, Blondel, Prettenhofer, Weiss, Dubourg, et~al\unhbox \voidb@x \hbox {.}}}}
\bibcite{Appendix}{{21}{2019}{{Ren}}{{Ren}}}
\bibcite{sharpe1966mutual}{{22}{1966}{{Sharpe}}{{Sharpe}}}
\bibcite{suykens1999least}{{23}{1999}{{Suykens and Vandewalle}}{{Suykens and Vandewalle}}}
\bibcite{Udacity}{{24}{2016}{{Udacity}}{{Udacity}}}
\bibcite{wiginton1980note}{{25}{1980}{{Wiginton}}{{Wiginton}}}
\newlabel{tocindent-1}{0pt}
\newlabel{tocindent0}{0pt}
\newlabel{tocindent1}{4.65pt}
\newlabel{tocindent2}{11.49998pt}
\newlabel{tocindent3}{20.22pt}
\newlabel{TotPages}{{18}{18}{}{page.18}{}}
