%!PS-Adobe-3.0 EPSF-3.0
%%Title: overall.fig
%%Creator: fig2dev Version 3.2.6a
%%CreationDate: 2019-09-03 12:07:26
%%BoundingBox: 0 0 638 242
%Magnification: 1.0000
%%EndComments
%%BeginProlog
/$F2psDict 200 dict def
$F2psDict begin
$F2psDict /mtrx matrix put
/col-1 {0 setgray} bind def
/col0 {0.000 0.000 0.000 srgb} bind def
/col7 {1.000 1.000 1.000 srgb} bind def

end

/cp {closepath} bind def
/ef {eofill} bind def
/gr {grestore} bind def
/gs {gsave} bind def
/sa {save} bind def
/rs {restore} bind def
/l {lineto} bind def
/m {moveto} bind def
/rm {rmoveto} bind def
/n {newpath} bind def
/s {stroke} bind def
/sh {show} bind def
/slc {setlinecap} bind def
/slj {setlinejoin} bind def
/slw {setlinewidth} bind def
/srgb {setrgbcolor} bind def
/rot {rotate} bind def
/sc {scale} bind def
/sd {setdash} bind def
/ff {findfont} bind def
/sf {setfont} bind def
/scf {scalefont} bind def
/sw {stringwidth} bind def
/tr {translate} bind def
/tnt {dup dup currentrgbcolor
  4 -2 roll dup 1 exch sub 3 -1 roll mul add
  4 -2 roll dup 1 exch sub 3 -1 roll mul add
  4 -2 roll dup 1 exch sub 3 -1 roll mul add srgb}
  bind def
/shd {dup dup currentrgbcolor 4 -2 roll mul 4 -2 roll mul
  4 -2 roll mul srgb} bind def
/reencdict 12 dict def /ReEncode { reencdict begin
/newcodesandnames exch def /newfontname exch def /basefontname exch def
/basefontdict basefontname findfont def /newfont basefontdict maxlength dict def
basefontdict { exch dup /FID ne { dup /Encoding eq
{ exch dup length array copy newfont 3 1 roll put }
{ exch newfont 3 1 roll put } ifelse } { pop pop } ifelse } forall
newfont /FontName newfontname put newcodesandnames aload pop
128 1 255 { newfont /Encoding get exch /.notdef put } for
newcodesandnames length 2 idiv { newfont /Encoding get 3 1 roll put } repeat
newfontname newfont definefont pop end } def
/isovec [
8#055 /minus 8#200 /grave 8#201 /acute 8#202 /circumflex 8#203 /tilde
8#204 /macron 8#205 /breve 8#206 /dotaccent 8#207 /dieresis
8#210 /ring 8#211 /cedilla 8#212 /hungarumlaut 8#213 /ogonek 8#214 /caron
8#220 /dotlessi 8#230 /oe 8#231 /OE
8#240 /space 8#241 /exclamdown 8#242 /cent 8#243 /sterling
8#244 /currency 8#245 /yen 8#246 /brokenbar 8#247 /section 8#250 /dieresis
8#251 /copyright 8#252 /ordfeminine 8#253 /guillemotleft 8#254 /logicalnot
8#255 /hyphen 8#256 /registered 8#257 /macron 8#260 /degree 8#261 /plusminus
8#262 /twosuperior 8#263 /threesuperior 8#264 /acute 8#265 /mu 8#266 /paragraph
8#267 /periodcentered 8#270 /cedilla 8#271 /onesuperior 8#272 /ordmasculine
8#273 /guillemotright 8#274 /onequarter 8#275 /onehalf
8#276 /threequarters 8#277 /questiondown 8#300 /Agrave 8#301 /Aacute
8#302 /Acircumflex 8#303 /Atilde 8#304 /Adieresis 8#305 /Aring
8#306 /AE 8#307 /Ccedilla 8#310 /Egrave 8#311 /Eacute
8#312 /Ecircumflex 8#313 /Edieresis 8#314 /Igrave 8#315 /Iacute
8#316 /Icircumflex 8#317 /Idieresis 8#320 /Eth 8#321 /Ntilde 8#322 /Ograve
8#323 /Oacute 8#324 /Ocircumflex 8#325 /Otilde 8#326 /Odieresis 8#327 /multiply
8#330 /Oslash 8#331 /Ugrave 8#332 /Uacute 8#333 /Ucircumflex
8#334 /Udieresis 8#335 /Yacute 8#336 /Thorn 8#337 /germandbls 8#340 /agrave
8#341 /aacute 8#342 /acircumflex 8#343 /atilde 8#344 /adieresis 8#345 /aring
8#346 /ae 8#347 /ccedilla 8#350 /egrave 8#351 /eacute
8#352 /ecircumflex 8#353 /edieresis 8#354 /igrave 8#355 /iacute
8#356 /icircumflex 8#357 /idieresis 8#360 /eth 8#361 /ntilde 8#362 /ograve
8#363 /oacute 8#364 /ocircumflex 8#365 /otilde 8#366 /odieresis 8#367 /divide
8#370 /oslash 8#371 /ugrave 8#372 /uacute 8#373 /ucircumflex
8#374 /udieresis 8#375 /yacute 8#376 /thorn 8#377 /ydieresis] def
/Times-Bold /Times-Bold-iso isovec ReEncode
/$F2psBegin {$F2psDict begin /$F2psEnteredState save def} def
/$F2psEnd {$F2psEnteredState restore end} def

/pageheader {
save
newpath 0 242 moveto 0 0 lineto 638 0 lineto 638 242 lineto closepath clip newpath
-16.9 414.4 translate
1 -1 scale
$F2psBegin
10 setmiterlimit
0 slj 0 slc
 0.06000 0.06000 sc
} bind def
/pagefooter {
$F2psEnd
restore
} bind def
%%EndProlog
pageheader
%
% Fig objects follow
%
% 
% here starts figure with depth 50
% Polyline
0 slj
0 slc
30.000 slw
n 4830 5651 m 6675 5651 l 6675 6600 l 4830 6600 l
 cp gs col0 s gr 
% Polyline
n 315 3506 m 2115 3506 l 2115 4406 l 315 4406 l
 cp gs col0 s gr 
% Polyline
n 2805 3514 m 4858 3514 l 4858 4425 l 2805 4425 l
 cp gs col0 s gr 
% Polyline
gs  clippath
8506 3803 m 8506 3839 l 8298 3881 l 8298 3761 l cp
eoclip
n 7843 3821 m
 8488 3821 l gs col0 s gr gr

% arrowhead
60.000 slw
n 8298 3881 m 8418 3821 l 8298 3761 l 8298 3881 l  cp gs 0.00 setgray ef gr  col0 s
% Polyline
30.000 slw
gs  clippath
9421 5714 m 9385 5714 l 9343 5506 l 9463 5506 l cp
eoclip
n 9403 4691 m
 9403 5696 l gs col0 s gr gr

% arrowhead
60.000 slw
n 9343 5506 m 9403 5626 l 9463 5506 l 9343 5506 l  cp gs 0.00 setgray ef gr  col0 s
% Polyline
30.000 slw
n 5805 3525 m 7858 3525 l 7858 4436 l 5805 4436 l
 cp gs col0 s gr 
% Polyline
gs  clippath
6685 6243 m 6685 6207 l 6893 6165 l 6893 6285 l cp
eoclip
n 7573 6225 m
 6703 6225 l gs col0 s gr gr

% arrowhead
60.000 slw
n 6893 6165 m 6773 6225 l 6893 6285 l 6893 6165 l  cp gs 0.00 setgray ef gr  col0 s
% Polyline
30.000 slw
gs  clippath
2793 3882 m 2793 3918 l 2585 3960 l 2585 3840 l cp
eoclip
n 2113 3900 m
 2775 3900 l gs col0 s gr gr

% arrowhead
60.000 slw
n 2585 3960 m 2705 3900 l 2585 3840 l 2585 3960 l  cp gs 0.00 setgray ef gr  col0 s
% Polyline
30.000 slw
gs  clippath
5793 3882 m 5793 3918 l 5585 3960 l 5585 3840 l cp
eoclip
n 4888 3900 m
 5775 3900 l gs col0 s gr gr

% arrowhead
60.000 slw
n 5585 3960 m 5705 3900 l 5585 3840 l 5585 3960 l  cp gs 0.00 setgray ef gr  col0 s
% Polyline
30.000 slw
n 2700 2910 m 10575 2910 l 10575 5325 l 2700 5325 l
 cp gs col0 s gr 
% Polyline
n 8490 3240 m 10260 3240 l 10260 4710 l 8490 4710 l
 cp gs col0 s gr 
% Polyline
n 7590 5696 m 10875 5696 l 10875 6600 l 7590 6600 l
 cp gs col0 s gr 
/Times-Bold-iso ff 250.00 scf sf
5025 6000 m
gs 1 -1 sc (Mean-variance) col0 sh gr
/Times-Bold-iso ff 250.00 scf sf
5025 6225 m
gs 1 -1 sc (optimization) col0 sh gr
/Times-Bold-iso ff 250.00 scf sf
5250 6825 m
gs 1 -1 sc (Step-5) col0 sh gr
/Times-Bold-iso ff 250.00 scf sf
390 3896 m
gs 1 -1 sc (Historical loan) col0 sh gr
/Times-Bold-iso ff 250.00 scf sf
990 4151 m
gs 1 -1 sc (data) col0 sh gr
/Times-Bold-iso ff 250.00 scf sf
2925 4050 m
gs 1 -1 sc (Balancing dataset) col0 sh gr
/Times-Bold-iso ff 250.00 scf sf
6403 3416 m
gs 1 -1 sc (Step-2) col0 sh gr
/Times-Bold-iso ff 250.00 scf sf
8968 3146 m
gs 1 -1 sc (Step-3) col0 sh gr
/Times-Bold-iso ff 250.00 scf sf
5925 4020 m
gs 1 -1 sc (Feature selection) col0 sh gr
/Times-Bold-iso ff 250.00 scf sf
7768 6266 m
gs 1 -1 sc (weighted return and risk) col0 sh gr
/Times-Bold-iso ff 250.00 scf sf
7800 6000 m
gs 1 -1 sc (Supervised learning based) col0 sh gr
/Times-Bold-iso ff 250.00 scf sf
7800 6525 m
gs 1 -1 sc (computation) col0 sh gr
/Times-Bold-iso ff 250.00 scf sf
5550 5175 m
gs 1 -1 sc (3-label classification) col0 sh gr
/Times-Bold-iso ff 250.00 scf sf
8685 4380 m
gs 1 -1 sc (classification) col0 sh gr
/Times-Bold-iso ff 250.00 scf sf
9000 4125 m
gs 1 -1 sc (3 label) col0 sh gr
/Times-Bold-iso ff 250.00 scf sf
8775 3825 m
gs 1 -1 sc (hierarchical) col0 sh gr
/Times-Bold-iso ff 250.00 scf sf
3300 3375 m
gs 1 -1 sc (Step-1) col0 sh gr
/Times-Bold-iso ff 250.00 scf sf
8775 6825 m
gs 1 -1 sc (Step-4) col0 sh gr
% here ends figure;
pagefooter
showpage
%%Trailer
%EOF
