\relax 
\providecommand\hyper@newdestlabel[2]{}
\providecommand\HyperFirstAtBeginDocument{\AtBeginDocument}
\HyperFirstAtBeginDocument{\ifx\hyper@anchor\@undefined
\global\let\oldnewlabel\newlabel
\gdef\newlabel#1#2{\newlabelxx{#1}#2}
\gdef\newlabelxx#1#2#3#4#5#6{\oldnewlabel{#1}{{#2}{#3}}}
\AtEndDocument{\ifx\hyper@anchor\@undefined
\let\newlabel\oldnewlabel
\fi}
\fi}
\global\let\hyper@last\relax 
\gdef\HyperFirstAtBeginDocument#1{#1}
\providecommand\HyField@AuxAddToFields[1]{}
\providecommand\HyField@AuxAddToCoFields[2]{}
\AC@reset@newl@bel
\@writefile{toc}{\thispagestyle {empty}}
\newacro{P2PL}[P2PL]{Peer to Peer Lending}
\newacro{ARR}[ARR]{Annualised Rate of Return}
\newacro{LOGIT}[LOGIT]{Logistic Regression}
\newacro{MLOGIT}[MLOGIT]{Multi-nominal Logistic Regression}
\newacro{SVM}[SVM]{Support Vector Machine}
\newacro{SVR}[SVR]{Support Vector Regressor}
\newacro{RF}[RF]{Random Forest}
\newacro{FICO}[FICO]{Fair, Isaac, and Company}
\newacro{H3LC}[H3LC]{Hierarchical Three Label Classification}
\newacro{MSE}[MSE]{Mean Square Error}
\newacro{RMSE}[RMSE]{Root Mean Square Error}
\newacro{RBF}[RBF]{Gaussian Radial Basis Kernel Function}
\newacro{EDM}[EDM]{Exponential Distance Method}
\newacro{CV}[CV]{Cross Validation}
\newacro{NNs}[NNs]{Neural Networks}
\newacro{GP}[GP]{Gaussian Process}
\newacro{k-NN}[k-NN]{$k$-Nearest Neighbours}
\newacro{TPR}[TPR]{True Positive Rate}
\newacro{TNR}[TNR]{True Negative Rate}
\newacro{MCC}[MCC]{Matthews correlation coefficient}
\newacro{TP}[TP]{True Positive}
\newacro{TN}[TN]{True Negative}
\newacro{FP}[FP]{False Positive}
\newacro{FN}[FN]{False Negative}
\newacro{ILP}[ILP]{Integer Linear Programming}
\newacro{ARIMA}[ARIMA]{Autoregressive Integrated Moving Average}
\newacro{VADER}[VADER]{Valence Aware Dictionary and sEntiment Reasoner}
\newacro{H3LC}[H3LC]{Hierarchical Three Label Classification}
\@input{FrontMatters/acknowledgement.aux}
\@input{FrontMatters/abstract.aux}
\@input{Chapters/NonemClatureList/LOP.aux}
\@writefile{toc}{\contentsline {chapter}{\underline  {Table of Contents}}{xiii}{chapter*.5}\protected@file@percent }
\AC@undonewlabel{acro:LOGIT}
\newlabel{acro:LOGIT}{{}{xiii}{\contentsname }{section*.6}{}}
\acronymused{LOGIT}
\AC@undonewlabel{acro:RF}
\newlabel{acro:RF}{{}{xiii}{\contentsname }{section*.7}{}}
\acronymused{RF}
\AC@undonewlabel{acro:SVM}
\newlabel{acro:SVM}{{}{xiii}{\contentsname }{section*.8}{}}
\acronymused{SVM}
\AC@undonewlabel{acro:k-NN}
\newlabel{acro:k-NN}{{}{xiii}{\contentsname }{section*.9}{}}
\acronymused{k-NN}
\citation{WikipediaSVM}
\citation{Wikipediaknn}
\@writefile{toc}{\contentsline {chapter}{List of figures}{xvii}{chapter*.10}\protected@file@percent }
\acronymused{SVM}
\acronymused{k-NN}
\AC@undonewlabel{acro:TPR}
\newlabel{acro:TPR}{{}{xvii}{\listfigurename }{section*.11}{}}
\acronymused{TPR}
\AC@undonewlabel{acro:TNR}
\newlabel{acro:TNR}{{}{xvii}{\listfigurename }{section*.12}{}}
\acronymused{TNR}
\acronymused{LOGIT}
\acronymused{TPR}
\acronymused{TNR}
\acronymused{RF}
\acronymused{TPR}
\acronymused{TNR}
\acronymused{SVM}
\acronymused{TPR}
\acronymused{TNR}
\acronymused{k-NN}
\acronymused{RF}
\AC@undonewlabel{acro:SVR}
\newlabel{acro:SVR}{{}{xix}{\listfigurename }{section*.13}{}}
\acronymused{SVR}
\acronymused{k-NN}
\acronymused{RF}
\acronymused{SVR}
\acronymused{k-NN}
\citation{ajayitrading}
\acronymused{RF}
\acronymused{SVM}
\acronymused{k-NN}
\acronymused{P2PL}
\@writefile{toc}{\contentsline {chapter}{List of tables}{xxi}{chapter*.14}\protected@file@percent }
\acronymused{TPR}
\acronymused{TNR}
\AC@undonewlabel{acro:MCC}
\newlabel{acro:MCC}{{}{xxi}{\listtablename }{section*.15}{}}
\acronymused{MCC}
\acronymused{LOGIT}
\acronymused{RF}
\acronymused{SVM}
\acronymused{k-NN}
\acronymused{LOGIT}
\acronymused{RF}
\acronymused{k-NN}
\acronymused{RF}
\acronymused{LOGIT}
\citation{malekipirbazari2015risk}
\acronymused{k-NN}
\acronymused{RF}
\acronymused{TPR}
\acronymused{TNR}
\acronymused{TPR}
\acronymused{TNR}
\acronymused{RF}
\acronymused{LOGIT}
\acronymused{RF}
\acronymused{SVM}
\acronymused{k-NN}
\@input{Chapters/Introduction/Introduction.aux}
\@input{Chapters/Literature/Literature.aux}
\@input{Chapters/Chapter3/Chapter3.aux}
\@input{Chapters/Chapter4/Chapter4.aux}
\@input{Chapters/Chapter5/Chapter5.aux}
\@input{Chapters/Chapter6/Chapter6.aux}
\@input{Chapters/Conclusions/Conclusions.aux}
\@input{Chapters/NonemClatureList/NonemClatureList.aux}
\bibstyle{plainnat}
\bibdata{BackMatters/references}
\bibcite{agarwal2011sentiment}{{1}{2011}{{Agarwal et~al.}}{{Agarwal, Xie, Vovsha, Rambow, and Passonneau}}}
\bibcite{ajayitrading}{{2}{}{{Ajayi and Maluleke}}{{}}}
\bibcite{althoff2014ask}{{3}{2014}{{Althoff et~al.}}{{Althoff, Danescu-Niculescu-Mizil, and Jurafsky}}}
\bibcite{anresnani2018modelling}{{4}{2018}{{Anresnani et~al.}}{{Anresnani, Widodo, and Syairuddin}}}
\bibcite{babaei2020multi}{{5}{2020{}}{{Babaei and Bamdad}}{{}}}
\bibcite{babaei2020neural}{{6}{2020{}}{{Babaei and Bamdad}}{{}}}
\bibcite{barasinska2014crowdfunding}{{7}{2014}{{Barasinska and Sch{\"a}fer}}{{}}}
\bibcite{bastani2019wide}{{8}{2019}{{Bastani et~al.}}{{Bastani, Asgari, and Namavari}}}
\bibcite{berger2010emergence}{{9}{2010}{{Berger and Gleisner}}{{}}}
\bibcite{boyd2004convex}{{10}{2004}{{Boyd and Vandenberghe}}{{}}}
\bibcite{breiman2001random}{{11}{2001}{{Breiman}}{{}}}
\bibcite{byanjankar2021data}{{12}{2021}{{Byanjankar et~al.}}{{Byanjankar, Mezei, and Heikkil{\"a}}}}
\bibcite{ceyhan2011dynamics}{{13}{2011}{{Ceyhan et~al.}}{{Ceyhan, Shi, and Leskovec}}}
\@writefile{toc}{\contentsline {chapter}{References}{157}{chapter*.133}\protected@file@percent }
\bibcite{chatfield2016analysis}{{14}{2016}{{Chatfield}}{{}}}
\bibcite{chatterjee1970nonparametric}{{15}{1970}{{Chatterjee and Barcun}}{{}}}
\bibcite{chen2021predicting}{{16}{2021}{{Chen et~al.}}{{Chen, Leu, Huang, Wang, and Takada}}}
\bibcite{clark1975calibration}{{17}{1975}{{Clark}}{{}}}
\bibcite{Conlin1999249}{{18}{1999}{{Conlin}}{{}}}
\bibcite{cournot1897researches}{{19}{1897}{{Cournot}}{{}}}
\bibcite{cui2016p2p}{{20}{2016}{{Cui et~al.}}{{Cui, Bai, Wang, Bai, Zhang, and Hancock}}}
\bibcite{dattorro2010convex}{{21}{2010}{{Dattorro}}{{}}}
\bibcite{deb2001multi}{{22}{2001}{{Deb}}{{}}}
\bibcite{drucker1997support}{{23}{1997}{{Drucker et~al.}}{{Drucker, Burges, Kaufman, Smola, and Vapnik}}}
\bibcite{dudani1976distance}{{24}{1976}{{Dudani}}{{}}}
\bibcite{elahi2014mean}{{25}{2014}{{Elahi and Abd~Aziz}}{{}}}
\bibcite{feldman2005mortgage}{{26}{2005}{{Feldman and Gross}}{{}}}
\bibcite{feller2017information}{{27}{2017}{{Feller et~al.}}{{Feller, Gleasure, and Treacy}}}
\bibcite{friedman2001elements}{{28}{2001}{{Friedman et~al.}}{{Friedman, Hastie, and Tibshirani}}}
\bibcite{funk2015online}{{29}{2015}{{Funk et~al.}}{{Funk, Bachmann, Becker, Buerckner, Hilker, Kock, Lehmann, and Tiburtius}}}
\bibcite{garman2008person}{{30}{2008}{{Garman et~al.}}{{Garman, Hampshire, and Krishnan}}}
\bibcite{gidofalvi2001using}{{31}{2001}{{Gidofalvi and Elkan}}{{}}}
\bibcite{goldberg1989genetic}{{32}{1989}{{Goldberg}}{{}}}
\bibcite{guerard2009handbook}{{33}{2009}{{Guerard~Jr}}{{}}}
\bibcite{Guo2016417}{{34}{2016}{{Guo et~al.}}{{Guo, Zhou, Luo, Liu, and Xiong}}}
\bibcite{gurobi}{{35}{2019}{{Gurobi~Optimization}}{{}}}
\bibcite{guyon2002gene}{{36}{2002}{{Guyon et~al.}}{{Guyon, Weston, Barnhill, and Vapnik}}}
\bibcite{hall1998correlation}{{37}{1998}{{Hall}}{{}}}
\bibcite{harris2010digital}{{38}{2010}{{Harris and Harris}}{{}}}
\bibcite{hastings1970monte}{{39}{1970}{{Hastings}}{{}}}
\bibcite{herzenstein2008democratization}{{40}{2008}{{Herzenstein et~al.}}{{Herzenstein, Andrews, Dholakia, and Lyandres}}}
\bibcite{herzenstein2011tell}{{41}{2011}{{Herzenstein et~al.}}{{Herzenstein, Sonenshein, and Dholakia}}}
\bibcite{hutto2014vader}{{42}{2014}{{Hutto and Gilbert}}{{}}}
\bibcite{james2013introduction}{{43}{2013}{{James et~al.}}{{James, Witten, Hastie, and Tibshirani}}}
\bibcite{Roth20121115}{{44}{2012}{{J.D.Roth}}{{}}}
\bibcite{Lyer200908}{{45}{2009}{{Khwaja et~al.}}{{Khwaja, Iyer, Luttmer, and Shue}}}
\bibcite{kim2003financial}{{46}{2003}{{Kim}}{{}}}
\bibcite{Klafft20080714}{{47}{2008}{{Klafft}}{{}}}
\bibcite{LCW}{{48}{2016}{{LendingClub}}{{}}}
\bibcite{lenz2016peer}{{49}{2016}{{Lenz}}{{}}}
\bibcite{li2016prepayment}{{50}{2016}{{Li et~al.}}{{Li, Yao, Wen, and Yang}}}
\bibcite{liu2012sentiment}{{51}{2012}{{Liu}}{{}}}
\bibcite{liu2019platform}{{52}{2019}{{Liu et~al.}}{{Liu, Qiao, Wang, and Li}}}
\bibcite{liu2022modelling}{{53}{2022}{{Liu et~al.}}{{Liu, Ma, Jiang, and Li}}}
\bibcite{malekipirbazari2015risk}{{54}{2015}{{Malekipirbazari and Aksakalli}}{{}}}
\bibcite{marill1963effectiveness}{{55}{1963}{{Marill and Green}}{{}}}
\bibcite{markowitz1991foundations}{{56}{1991}{{Markowitz}}{{}}}
\bibcite{matthews1975comparison}{{57}{1975}{{Matthews}}{{}}}
\bibcite{mcelroy1967necessary}{{58}{1967}{{McElroy}}{{}}}
\bibcite{mezei2018credit}{{59}{2018}{{Mezei et~al.}}{{Mezei, Byanjankar, and Heikkil{\"a}}}}
\bibcite{micci2001preprocessing}{{60}{2001}{{Micci-Barreca}}{{}}}
\bibcite{montgomery2012introduction}{{61}{2012}{{Montgomery et~al.}}{{Montgomery, Peck, and Vining}}}
\bibcite{morduch1999microfinance}{{62}{1999}{{Morduch}}{{}}}
\bibcite{nadaraya1965non}{{63}{1965}{{Nadaraya}}{{}}}
\bibcite{neter1996applied}{{64}{1996}{{Neter et~al.}}{{Neter, Kutner, Nachtsheim, and Wasserman}}}
\bibcite{omarini2018peer}{{65}{2018}{{Omarini}}{{}}}
\bibcite{pai2005hybrid}{{66}{2005}{{Pai and Lin}}{{}}}
\bibcite{pang2008opinion}{{67}{2008}{{Pang et~al.}}{{Pang, Lee, et~al.}}}
\bibcite{pedregosa2011scikit}{{68}{2011}{{Pedregosa et~al.}}{{Pedregosa, Varoquaux, Gramfort, Michel, Thirion, Grisel, Blondel, Prettenhofer, Weiss, Dubourg, et~al.}}}
\bibcite{Prop}{{69}{2018}{{Prosper}}{{}}}
\bibcite{raileanu2004theoretical}{{70}{2004}{{Raileanu and Stoffel}}{{}}}
\bibcite{rasmussen2003gaussian}{{71}{2003}{{Rasmussen}}{{}}}
\bibcite{reilly2002investment}{{72}{1990}{{Reilly and Brown}}{{}}}
\bibcite{ren2019investment}{{73}{2019{}}{{Ren and Malik}}{{}}}
\bibcite{ren2019recommendation}{{74}{2019{}}{{Ren and Malik}}{{}}}
\bibcite{rui2012bayesian}{{75}{2012}{{Rui et~al.}}{{Rui, Liu, and Tan}}}
\bibcite{ryan2007fund}{{76}{2007}{{Ryan et~al.}}{{Ryan, Reuk, and Wang}}}
\bibcite{serrano2015determinants}{{77}{2015}{{Serrano-Cinca et~al.}}{{Serrano-Cinca, Guti{\'e}rrez-Nieto, and L{\'o}pez-Palacios}}}
\bibcite{sharpe1994sharpe}{{78}{1994}{{Sharpe}}{{}}}
\bibcite{sortino1994performance}{{79}{1994}{{Sortino and Price}}{{}}}
\bibcite{specht1991general}{{80}{1991}{{Specht et~al.}}{{}}}
\bibcite{stevens1946theory}{{81}{1946}{{Stevens et~al.}}{{}}}
\bibcite{suykens1999least}{{82}{1999}{{Suykens and Vandewalle}}{{}}}
\bibcite{tsai2014peer}{{83}{2014}{{Tsai et~al.}}{{Tsai, Ramiah, and Singh}}}
\bibcite{wiginton1980note}{{84}{1980}{{Wiginton}}{{}}}
\bibcite{WikipediaSVM}{{85}{2019{}}{{Wikipedia}}{{}}}
\bibcite{Wikipediaknn}{{86}{2019{}}{{Wikipedia}}{{}}}
\bibcite{wilson2005recognizing}{{87}{2005}{{Wilson et~al.}}{{Wilson, Wiebe, and Hoffmann}}}
\bibcite{wu2011decision}{{88}{2011}{{Wu and Xu}}{{}}}
\bibcite{Udacity}{{89}{2015}{{Xu}}{{}}}
\bibcite{yang2013multi}{{90}{2013}{{Yang et~al.}}{{Yang, Rubio, Scutari, and Palomar}}}
\bibcite{zhang2020personalized}{{91}{2020}{{Zhang et~al.}}{{Zhang, Wu, Zhao, Cheng, and Liu}}}
\bibcite{zhao2016portfolio}{{92}{2016}{{Zhao et~al.}}{{Zhao, Liu, Wang, Ge, and Chen}}}
\bibcite{zitzler1999multiobjective}{{93}{1999}{{Zitzler and Thiele}}{{}}}
\@input{BackMatters/BPSK_MRC6.aux}
\@input{BackMatters/FlatFading1.aux}
\gdef \@abspage@last{198}
