\relax 
\providecommand\hyper@newdestlabel[2]{}
\@writefile{toc}{\contentsline {chapter}{Appendix \numberline {A}}{165}{appendix.a.A}\protected@file@percent }
\@writefile{lof}{\addvspace {10\p@ }}
\@writefile{lot}{\addvspace {10\p@ }}
\newlabel{AppendixA}{{A}{165}{}{appendix.a.A}{}}
\acronymused{LOGIT}
\acronymused{RF}
\acronymused{SVM}
\acronymused{k-NN}
\acronymused{LOGIT}
\acronymused{RF}
\@writefile{lot}{\contentsline {table}{\numberline {A.1}{\ignorespaces Features selected by applying the recursive feature selection algorithms with \ac {LOGIT}, \ac {RF}, \ac {SVM} and \ac {k-NN}\relax }}{166}{table.caption.134}\protected@file@percent }
\acronymused{LOGIT}
\acronymused{RF}
\acronymused{SVM}
\acronymused{k-NN}
\newlabel{tab:ap:fse}{{A.1}{166}{Features selected by applying the recursive feature selection algorithms with \ac {LOGIT}, \ac {RF}, \ac {SVM} and \ac {k-NN}\relax }{table.caption.134}{}}
\@setckpt{BackMatters/BPSK_MRC6}{
\setcounter{page}{167}
\setcounter{equation}{0}
\setcounter{enumi}{4}
\setcounter{enumii}{0}
\setcounter{enumiii}{0}
\setcounter{enumiv}{0}
\setcounter{footnote}{0}
\setcounter{mpfootnote}{0}
\setcounter{part}{0}
\setcounter{chapter}{1}
\setcounter{section}{0}
\setcounter{subsection}{0}
\setcounter{subsubsection}{0}
\setcounter{paragraph}{0}
\setcounter{subparagraph}{0}
\setcounter{figure}{0}
\setcounter{table}{1}
\setcounter{@pps}{1}
\setcounter{@ppsavesec}{7}
\setcounter{@ppsaveapp}{0}
\setcounter{NAT@ctr}{93}
\setcounter{Item}{136}
\setcounter{Hfootnote}{37}
\setcounter{bookmark@seq@number}{102}
\setcounter{AM@survey}{0}
\setcounter{caption@flags}{2}
\setcounter{continuedfloat}{0}
\setcounter{subfigure}{0}
\setcounter{subtable}{0}
\setcounter{parentequation}{0}
\setcounter{LT@tables}{0}
\setcounter{LT@chunks}{0}
\setcounter{section@level}{0}
}
