\relax 
\providecommand\hyper@newdestlabel[2]{}
\citation{li2016prepayment}
\@writefile{toc}{\contentsline {chapter}{Appendix \numberline {B}Description and data analysis of three labels}{167}{appendix.a.B}\protected@file@percent }
\@writefile{lof}{\addvspace {10\p@ }}
\@writefile{lot}{\addvspace {10\p@ }}
\newlabel{AppendixB}{{B}{167}{Description and data analysis of three labels}{appendix.a.B}{}}
\acronymused{P2PL}
\@writefile{lot}{\contentsline {table}{\numberline {B.1}{\ignorespaces The resultant amount of money by investing in fully paid loan and prepaid loans\relax }}{167}{table.caption.135}\protected@file@percent }
\newlabel{tab: ap: profit}{{B.1}{167}{The resultant amount of money by investing in fully paid loan and prepaid loans\relax }{table.caption.135}{}}
\acronymused{ARR}
\newlabel{eq:ap:arr}{{B.1}{168}{Description and data analysis of three labels}{equation.a.B.0.1}{}}
\AC@undonewlabel{acro:MLOGIT}
\newlabel{acro:MLOGIT}{{B}{168}{Description and data analysis of three labels}{section*.136}{}}
\acronymused{MLOGIT}
\acronymused{RF}
\acronymused{RF}
\@writefile{lot}{\contentsline {table}{\numberline {B.2}{\ignorespaces The overall accuracy of three-label classification on test dataset with and without feature selection.\relax }}{168}{table.caption.137}\protected@file@percent }
\newlabel{tab:ap:afrf}{{B.2}{168}{The overall accuracy of three-label classification on test dataset with and without feature selection.\relax }{table.caption.137}{}}
\acronymused{MLOGIT}
\acronymused{RF}
\@writefile{lot}{\contentsline {table}{\numberline {B.3}{\ignorespaces  Accuracy of five Monte Carlo CV results for three-label borrower status classification\relax }}{168}{table.caption.138}\protected@file@percent }
\newlabel{tab:ap:5m}{{B.3}{168}{Accuracy of five Monte Carlo CV results for three-label borrower status classification\relax }{table.caption.138}{}}
\acronymused{MLOGIT}
\acronymused{RF}
\@writefile{lot}{\contentsline {table}{\numberline {B.4}{\ignorespaces The average accuracy scores for each of the three labels on test datasets. FP: Full payment, PP: Prepayment, D: Default.\relax }}{169}{table.caption.139}\protected@file@percent }
\newlabel{tab:ap:3labels}{{B.4}{169}{The average accuracy scores for each of the three labels on test datasets. FP: Full payment, PP: Prepayment, D: Default.\relax }{table.caption.139}{}}
\acronymused{MLOGIT}
\acronymused{RF}
\AC@undonewlabel{acro:H3LC}
\newlabel{acro:H3LC}{{B}{169}{Description and data analysis of three labels}{section*.140}{}}
\acronymused{H3LC}
\acronymused{H3LC}
\acronymused{RF}
\@writefile{lot}{\contentsline {table}{\numberline {B.5}{\ignorespaces The overall accuracy five Monte Carlo CV results of three-label classification.\relax }}{169}{table.caption.141}\protected@file@percent }
\newlabel{tab:ap:h3lc}{{B.5}{169}{The overall accuracy five Monte Carlo CV results of three-label classification.\relax }{table.caption.141}{}}
\acronymused{H3LC}
\acronymused{RF}
\acronymused{H3LC}
\acronymused{LOGIT}
\acronymused{ARR}
\@setckpt{BackMatters/FlatFading1}{
\setcounter{page}{170}
\setcounter{equation}{1}
\setcounter{enumi}{4}
\setcounter{enumii}{0}
\setcounter{enumiii}{0}
\setcounter{enumiv}{0}
\setcounter{footnote}{0}
\setcounter{mpfootnote}{0}
\setcounter{part}{0}
\setcounter{chapter}{2}
\setcounter{section}{0}
\setcounter{subsection}{0}
\setcounter{subsubsection}{0}
\setcounter{paragraph}{0}
\setcounter{subparagraph}{0}
\setcounter{figure}{0}
\setcounter{table}{5}
\setcounter{@pps}{1}
\setcounter{@ppsavesec}{7}
\setcounter{@ppsaveapp}{0}
\setcounter{NAT@ctr}{93}
\setcounter{Item}{136}
\setcounter{Hfootnote}{37}
\setcounter{bookmark@seq@number}{103}
\setcounter{AM@survey}{0}
\setcounter{caption@flags}{2}
\setcounter{continuedfloat}{0}
\setcounter{subfigure}{0}
\setcounter{subtable}{0}
\setcounter{parentequation}{0}
\setcounter{LT@tables}{0}
\setcounter{LT@chunks}{0}
\setcounter{section@level}{0}
}
