\relax 
\providecommand\hyper@newdestlabel[2]{}
\providecommand\HyperFirstAtBeginDocument{\AtBeginDocument}
\HyperFirstAtBeginDocument{\ifx\hyper@anchor\@undefined
\global\let\oldcontentsline\contentsline
\gdef\contentsline#1#2#3#4{\oldcontentsline{#1}{#2}{#3}}
\global\let\oldnewlabel\newlabel
\gdef\newlabel#1#2{\newlabelxx{#1}#2}
\gdef\newlabelxx#1#2#3#4#5#6{\oldnewlabel{#1}{{#2}{#3}}}
\AtEndDocument{\ifx\hyper@anchor\@undefined
\let\contentsline\oldcontentsline
\let\newlabel\oldnewlabel
\fi}
\fi}
\global\let\hyper@last\relax 
\gdef\HyperFirstAtBeginDocument#1{#1}
\providecommand\HyField@AuxAddToFields[1]{}
\providecommand\HyField@AuxAddToCoFields[2]{}
\AC@reset@newl@bel
\newacro{P2PL}[P2PL]{Peer to Peer Lending}
\newacro{ARR}[ARR]{Annualized Rate of Return}
\newacro{LOGIT}[LOGIT]{Logistic Regression}
\newacro{MLOGIT}[MLOGIT]{Multi-nominal Logistic Regression}
\newacro{SVM}[SVM]{Support Vector Machine}
\newacro{RF}[RF]{Random Forest}
\newacro{FICO}[FICO]{Fair, Isaac, and Company}
\newacro{H3LC}[H3LC]{Hierarchical Three Label Classification}
\newacro{MSE}[MSE]{Mean Square Error}
\newacro{RMSE}[RMSE]{Root Mean Square Error}
\newacro{RBF}[RBF]{Gaussian Radial Basis Kernel Function}
\newacro{EDM}[EDM]{Exponential Distance Method}
\newacro{CV}[CV]{Cross Validation}
\AC@undonewlabel{acro:P2PL}
\newlabel{acro:P2PL}{{}{1}{}{section*.1}{}}
\acronymused{P2PL}
\acronymused{P2PL}
\AC@undonewlabel{acro:H3LC}
\newlabel{acro:H3LC}{{}{1}{}{section*.2}{}}
\acronymused{H3LC}
\AC@undonewlabel{acro:EDM}
\newlabel{acro:EDM}{{}{1}{}{section*.3}{}}
\acronymused{EDM}
\AC@undonewlabel{acro:ARR}
\newlabel{acro:ARR}{{}{1}{}{section*.4}{}}
\acronymused{ARR}
\acronymused{H3LC}
\acronymused{EDM}
\citation{morduch1999microfinance,conlin1999249}
\citation{funk2015online}
\citation{Roth20121115}
\citation{LCW}
\@writefile{toc}{\contentsline {section}{\numberline {1}Introduction}{2}{section.0.1}}
\newlabel{sec:introduction}{{1}{2}{Introduction}{section.0.1}{}}
\acronymused{P2PL}
\acronymused{P2PL}
\acronymused{P2PL}
\acronymused{P2PL}
\acronymused{P2PL}
\acronymused{P2PL}
\acronymused{P2PL}
\acronymused{P2PL}
\acronymused{P2PL}
\acronymused{P2PL}
\citation{Guo2016417}
\citation{li2016prepayment}
\citation{markowitz1991foundations,boyd2004convex}
\citation{Guo2016417}
\citation{markowitz1991foundations}
\acronymused{ARR}
\acronymused{ARR}
\acronymused{ARR}
\acronymused{ARR}
\acronymused{ARR}
\acronymused{ARR}
\@writefile{lof}{\contentsline {figure}{\numberline {1}{\ignorespaces Overall proposed methodology}}{4}{figure.0.1}}
\newlabel{fig:overall}{{1}{4}{Overall proposed methodology}{figure.0.1}{}}
\acronymused{ARR}
\acronymused{ARR}
\acronymused{ARR}
\citation{Herzenstein201111}
\citation{Duarte01082012}
\citation{Herzenstein2008}
\citation{Lyer200908}
\citation{Klafft20080714}
\@writefile{toc}{\contentsline {section}{\numberline {2}Related work}{5}{section.0.2}}
\newlabel{sec:related-works}{{2}{5}{Related work}{section.0.2}{}}
\acronymused{ARR}
\citation{wiginton1980note}
\citation{rosenberg1994quantitative}
\citation{chatterjee1970nonparametric}
\citation{feldman2005mortgage}
\citation{frydman1985testing,so2011modelling}
\citation{andreeva2007modelling,stepanova2002survival}
\citation{mangasarian1965linear}
\citation{kim2010support}
\citation{malhotra2002differentiating}
\citation{malekipirbazari2015risk}
\citation{friedman2001elements}
\citation{suykens1999least}
\citation{breiman2001random}
\citation{li2016prepayment}
\citation{friedman2001elements}
\citation{li2016prepayment}
\citation{Guo2016417}
\citation{Guo2016417}
\citation{Guo2016417}
\acronymused{P2PL}
\AC@undonewlabel{acro:LOGIT}
\newlabel{acro:LOGIT}{{2}{6}{Related work}{section*.5}{}}
\acronymused{LOGIT}
\AC@undonewlabel{acro:SVM}
\newlabel{acro:SVM}{{2}{6}{Related work}{section*.6}{}}
\acronymused{SVM}
\acronymused{P2PL}
\acronymused{LOGIT}
\acronymused{SVM}
\AC@undonewlabel{acro:RF}
\newlabel{acro:RF}{{2}{6}{Related work}{section*.7}{}}
\acronymused{RF}
\acronymused{RF}
\AC@undonewlabel{acro:MLOGIT}
\newlabel{acro:MLOGIT}{{2}{6}{Related work}{section*.8}{}}
\acronymused{MLOGIT}
\acronymused{H3LC}
\acronymused{H3LC}
\acronymused{MLOGIT}
\citation{Udacity}
\citation{malekipirbazari2015risk,li2016prepayment,Lyer200908}
\acronymused{EDM}
\acronymused{ARR}
\acronymused{ARR}
\acronymused{ARR}
\@writefile{toc}{\contentsline {section}{\numberline {3}Data description and feature selection}{7}{section.0.3}}
\newlabel{sec:data-description}{{3}{7}{Data description and feature selection}{section.0.3}{}}
\acronymused{P2PL}
\acronymused{P2PL}
\@writefile{toc}{\contentsline {subsection}{\numberline {3.1}Feature selection}{7}{subsection.0.3.1}}
\newlabel{sec:feature-selection}{{3.1}{7}{Feature selection}{subsection.0.3.1}{}}
\acronymused{P2PL}
\acronymused{P2PL}
\citation{Udacity}
\acronymused{FICO}
\AC@undonewlabel{acro:FICO}
\newlabel{acro:FICO}{{3.1}{8}{Feature selection}{section*.9}{}}
\acronymused{FICO}
\@writefile{toc}{\contentsline {subsection}{\numberline {3.2}Prosper dataset}{8}{subsection.0.3.2}}
\newlabel{sec:prosper-data}{{3.2}{8}{Prosper dataset}{subsection.0.3.2}{}}
\citation{LCW}
\@writefile{lof}{\contentsline {figure}{\numberline {2}{\ignorespaces \textbf  {The distributions of loans against the eight predictor variables for the Prosper dataset}\nobreakspace  {}}}{9}{figure.0.2}}
\newlabel{fig:pls}{{2}{9}{\textbf {The distributions of loans against the eight predictor variables for the Prosper dataset}~}{figure.0.2}{}}
\@writefile{toc}{\contentsline {subsection}{\numberline {3.3}Lending Club dataset}{9}{subsection.0.3.3}}
\newlabel{sec:lending-club-data}{{3.3}{9}{Lending Club dataset}{subsection.0.3.3}{}}
\citation{friedman2001elements}
\citation{breiman2001random}
\citation{malekipirbazari2015risk}
\citation{Guo2016417}
\citation{li2016prepayment}
\citation{friedman2001elements}
\@writefile{lof}{\contentsline {figure}{\numberline {3}{\ignorespaces \textbf  {The distributions of loans against the eight predictor variables for Lending Club dataset}\nobreakspace  {}}}{10}{figure.0.3}}
\newlabel{fig:lcls}{{3}{10}{\textbf {The distributions of loans against the eight predictor variables for Lending Club dataset}~}{figure.0.3}{}}
\@writefile{toc}{\contentsline {section}{\numberline {4}Classification methods}{11}{section.0.4}}
\newlabel{sec:class-meth}{{4}{11}{Classification methods}{section.0.4}{}}
\acronymused{H3LC}
\acronymused{LOGIT}
\acronymused{RF}
\acronymused{P2PL}
\acronymused{RF}
\acronymused{LOGIT}
\acronymused{MLOGIT}
\acronymused{H3LC}
\acronymused{LOGIT}
\@writefile{toc}{\contentsline {subsection}{\numberline {4.1}\acf {LOGIT}}{11}{subsection.0.4.1}}
\newlabel{sec:acflogit}{{4.1}{11}{\acf {LOGIT}}{subsection.0.4.1}{}}
\acronymused{LOGIT}
\acronymused{P2PL}
\citation{malekipirbazari2015risk}
\citation{breiman2001random}
\citation{friedman2001elements}
\acronymused{MLOGIT}
\@writefile{toc}{\contentsline {subsection}{\numberline {4.2}\acf {MLOGIT}}{12}{subsection.0.4.2}}
\newlabel{sec:acfmlogit}{{4.2}{12}{\acf {MLOGIT}}{subsection.0.4.2}{}}
\acronymused{MLOGIT}
\acronymused{LOGIT}
\acronymused{MLOGIT}
\acronymused{RF}
\@writefile{toc}{\contentsline {subsection}{\numberline {4.3}\acf {RF}}{12}{subsection.0.4.3}}
\newlabel{sec:random-forest}{{4.3}{12}{\acf {RF}}{subsection.0.4.3}{}}
\acronymused{RF}
\acronymused{RF}
\acronymused{RF}
\acronymused{H3LC}
\acronymused{RF}
\acronymused{RF}
\acronymused{RF}
\citation{breiman2001random}
\acronymused{RF}
\acronymused{H3LC}
\@writefile{toc}{\contentsline {subsection}{\numberline {4.4}\acf {H3LC}}{13}{subsection.0.4.4}}
\newlabel{sec:acfh3lc}{{4.4}{13}{\acf {H3LC}}{subsection.0.4.4}{}}
\acronymused{H3LC}
\acronymused{MLOGIT}
\acronymused{RF}
\acronymused{ARR}
\acronymused{LOGIT}
\acronymused{RF}
\acronymused{ARR}
\@writefile{toc}{\contentsline {section}{\numberline {5}Instance-based model for predicting the \acf {ARR} and standard deviation (risk) of investment}{14}{section.0.5}}
\newlabel{sec:instance-based-model}{{5}{14}{Instance-based model for predicting the \acf {ARR} and standard deviation (risk) of investment}{section.0.5}{}}
\acronymused{ARR}
\acronymused{ARR}
\acronymused{ARR}
\citation{Guo2016417}
\citation{alpaydin2014introduction}
\citation{Guo2016417}
\citation{Guo2016417}
\citation{friedman2001elements}
\acronymused{ARR}
\@writefile{toc}{\contentsline {subsection}{\numberline {5.1}Predicting the \acf {ARR} and the standard deviation for loans available for investment}{15}{subsection.0.5.1}}
\newlabel{sec:predicting-acfarr}{{5.1}{15}{Predicting the \acf {ARR} and the standard deviation for loans available for investment}{subsection.0.5.1}{}}
\acronymused{ARR}
\acronymused{ARR}
\newlabel{eq:1}{{1}{15}{Predicting the \acf {ARR} and the standard deviation for loans available for investment}{equation.0.5.1}{}}
\newlabel{eq:2}{{2}{15}{Predicting the \acf {ARR} and the standard deviation for loans available for investment}{equation.0.5.2}{}}
\newlabel{eq:3}{{3}{15}{Predicting the \acf {ARR} and the standard deviation for loans available for investment}{equation.0.5.3}{}}
\@writefile{toc}{\contentsline {subsection}{\numberline {5.2}Computing the similarity metric}{15}{subsection.0.5.2}}
\newlabel{sec:comp-simil-metric}{{5.2}{15}{Computing the similarity metric}{subsection.0.5.2}{}}
\AC@undonewlabel{acro:RBF}
\newlabel{acro:RBF}{{5.2}{15}{Computing the similarity metric}{section*.10}{}}
\acronymused{RBF}
\acronymused{EDM}
\acronymused{RBF}
\acronymused{RBF}
\acronymused{EDM}
\newlabel{sec:acfrbf-comp-simil}{{5.2.1}{16}{\acf {RBF} for computing the similarity metric}{subsubsection.0.5.2.1}{}}
\acronymused{RBF}
\@writefile{toc}{\contentsline {subsubsection}{\numberline {5.2.1}\acf {RBF} for computing the similarity metric}{16}{subsubsection.0.5.2.1}}
\newlabel{eq:4}{{4}{16}{\acf {RBF} for computing the similarity metric}{equation.0.5.4}{}}
\newlabel{eq:5}{{5}{16}{\acf {RBF} for computing the similarity metric}{equation.0.5.5}{}}
\acronymused{ARR}
\acronymused{RBF}
\newlabel{sec:acfedm-comp-simil}{{5.2.2}{16}{\acf {EDM} for computing the similarity metric}{subsubsection.0.5.2.2}{}}
\acronymused{EDM}
\@writefile{toc}{\contentsline {subsubsection}{\numberline {5.2.2}\acf {EDM} for computing the similarity metric}{16}{subsubsection.0.5.2.2}}
\newlabel{eq:6}{{6}{16}{\acf {EDM} for computing the similarity metric}{equation.0.5.6}{}}
\citation{boyd2004convex}
\citation{markowitz1991foundations}
\citation{sharpe1966mutual}
\acronymused{RBF}
\acronymused{RBF}
\acronymused{EDM}
\acronymused{EDM}
\acronymused{RBF}
\acronymused{ARR}
\@writefile{toc}{\contentsline {section}{\numberline {6}Portfolio optimization model}{17}{section.0.6}}
\newlabel{sec:portf-optim-model}{{6}{17}{Portfolio optimization model}{section.0.6}{}}
\acronymused{ARR}
\acronymused{ARR}
\@writefile{toc}{\contentsline {subsection}{\numberline {6.1}Mean-variance optimization model}{17}{subsection.0.6.1}}
\newlabel{sec:mean-vari-optim}{{6.1}{17}{Mean-variance optimization model}{subsection.0.6.1}{}}
\acronymused{ARR}
\newlabel{eq:9}{{7}{17}{Mean-variance optimization model}{equation.0.6.7}{}}
\citation{sharpe1966mutual}
\citation{pedregosa2011scikit}
\acronymused{ARR}
\@writefile{toc}{\contentsline {subsection}{\numberline {6.2}Sharpe ratio}{18}{subsection.0.6.2}}
\newlabel{sec:sharpe-ratio}{{6.2}{18}{Sharpe ratio}{subsection.0.6.2}{}}
\newlabel{eq:10}{{8}{18}{Sharpe ratio}{equation.0.6.8}{}}
\acronymused{ARR}
\acronymused{ARR}
\@writefile{toc}{\contentsline {section}{\numberline {7}Experimental evaluation and discussion}{18}{section.0.7}}
\newlabel{sec:exper-eval}{{7}{18}{Experimental evaluation and discussion}{section.0.7}{}}
\acronymused{ARR}
\acronymused{ARR}
\citation{li2016prepayment}
\citation{malekipirbazari2015risk}
\@writefile{toc}{\contentsline {subsection}{\numberline {7.1}Experimental setup}{19}{subsection.0.7.1}}
\newlabel{sec:experimental-setup}{{7.1}{19}{Experimental setup}{subsection.0.7.1}{}}
\AC@undonewlabel{acro:CV}
\newlabel{acro:CV}{{7.1}{19}{Experimental setup}{section*.11}{}}
\acronymused{CV}
\@writefile{toc}{\contentsline {subsection}{\numberline {7.2}Comparison of accuracy of classification}{19}{subsection.0.7.2}}
\newlabel{sec:comp-accur-class}{{7.2}{19}{Comparison of accuracy of classification}{subsection.0.7.2}{}}
\acronymused{MLOGIT}
\acronymused{RF}
\acronymused{H3LC}
\acronymused{MLOGIT}
\acronymused{RF}
\acronymused{P2PL}
\acronymused{H3LC}
\acronymused{RF}
\acronymused{MLOGIT}
\newlabel{sec:5-fold-cv}{{7.2.1}{19}{Results of 5-fold CV on the training dataset}{subsubsection.0.7.2.1}{}}
\@writefile{toc}{\contentsline {subsubsection}{\numberline {7.2.1}Results of 5-fold CV on the training dataset}{19}{figure.0.4}}
\acronymused{RF}
\acronymused{H3LC}
\acronymused{MLOGIT}
\acronymused{RF}
\acronymused{H3LC}
\acronymused{RF}
\acronymused{H3LC}
\acronymused{RF}
\citation{Guo2016417}
\acronymused{MLOGIT}
\acronymused{RF}
\acronymused{H3LC}
\acronymused{RF}
\acronymused{H3LC}
\acronymused{LOGIT}
\newlabel{fig:5foldcvp}{{4(a)}{20}{Subfigure 0 4(a)}{subfigure.0.4.1}{}}
\newlabel{sub@fig:5foldcvp}{{(a)}{20}{Subfigure 0 4(a)\relax }{subfigure.0.4.1}{}}
\acronymused{MLOGIT}
\acronymused{RF}
\acronymused{H3LC}
\acronymused{RF}
\acronymused{H3LC}
\acronymused{LOGIT}
\newlabel{fig:5foldcvlc}{{4(b)}{20}{Subfigure 0 4(b)}{subfigure.0.4.2}{}}
\newlabel{sub@fig:5foldcvlc}{{(b)}{20}{Subfigure 0 4(b)\relax }{subfigure.0.4.2}{}}
\acronymused{MLOGIT}
\acronymused{RF}
\acronymused{H3LC}
\acronymused{RF}
\acronymused{H3LC}
\acronymused{LOGIT}
\newlabel{fig:5foldacclabp}{{4(c)}{20}{Subfigure 0 4(c)}{subfigure.0.4.3}{}}
\newlabel{sub@fig:5foldacclabp}{{(c)}{20}{Subfigure 0 4(c)\relax }{subfigure.0.4.3}{}}
\acronymused{MLOGIT}
\acronymused{RF}
\acronymused{H3LC}
\acronymused{RF}
\acronymused{H3LC}
\acronymused{LOGIT}
\newlabel{fig:5foldacclablc}{{4(d)}{20}{Subfigure 0 4(d)}{subfigure.0.4.4}{}}
\newlabel{sub@fig:5foldacclablc}{{(d)}{20}{Subfigure 0 4(d)\relax }{subfigure.0.4.4}{}}
\@writefile{lof}{\contentsline {figure}{\numberline {4}{\ignorespaces Classification accuracy results (in \%) on 5-fold CV of training dataset. FP: Full payment, PP: Prepayment, D: Default}}{20}{figure.0.4}}
\@writefile{lof}{\contentsline {subfigure}{\numberline{(a)}{\ignorespaces {Prosper dataset accuracy results\nobreakspace {}}}}{20}{figure.0.4}}
\@writefile{lof}{\contentsline {subfigure}{\numberline{(b)}{\ignorespaces {Lending Club dataset accuracy results\nobreakspace {}}}}{20}{figure.0.4}}
\@writefile{lof}{\contentsline {subfigure}{\numberline{(c)}{\ignorespaces {Prosper dataset average accuracy scores for each of the three labels\nobreakspace {}}}}{20}{figure.0.4}}
\@writefile{lof}{\contentsline {subfigure}{\numberline{(d)}{\ignorespaces {Lending Club dataset average accuracy scores for each of the three labels\nobreakspace {}}}}{20}{figure.0.4}}
\newlabel{fig:5foldcv}{{4}{20}{Classification accuracy results (in \%) on 5-fold CV of training dataset. FP: Full payment, PP: Prepayment, D: Default}{figure.0.4}{}}
\acronymused{H3LC}
\acronymused{RF}
\acronymused{H3LC}
\acronymused{RF}
\acronymused{RF}
\acronymused{H3LC}
\acronymused{LOGIT}
\acronymused{MLOGIT}
\newlabel{sec:test-results}{{7.2.2}{20}{Results for the five test dataset}{subsubsection.0.7.2.2}{}}
\@writefile{toc}{\contentsline {subsubsection}{\numberline {7.2.2}Results for the five test dataset}{20}{subsubsection.0.7.2.2}}
\acronymused{H3LC}
\acronymused{RF}
\citation{Guo2016417}
\acronymused{MLOGIT}
\acronymused{RF}
\acronymused{H3LC}
\acronymused{RF}
\acronymused{H3LC}
\acronymused{LOGIT}
\newlabel{fig:acccompp}{{5(a)}{21}{Subfigure 0 5(a)}{subfigure.0.5.1}{}}
\newlabel{sub@fig:acccompp}{{(a)}{21}{Subfigure 0 5(a)\relax }{subfigure.0.5.1}{}}
\acronymused{MLOGIT}
\acronymused{RF}
\acronymused{H3LC}
\acronymused{RF}
\acronymused{H3LC}
\acronymused{LOGIT}
\newlabel{fig:acccomplc}{{5(b)}{21}{Subfigure 0 5(b)}{subfigure.0.5.2}{}}
\newlabel{sub@fig:acccomplc}{{(b)}{21}{Subfigure 0 5(b)\relax }{subfigure.0.5.2}{}}
\acronymused{MLOGIT}
\acronymused{RF}
\acronymused{H3LC}
\acronymused{RF}
\acronymused{H3LC}
\acronymused{LOGIT}
\newlabel{fig:acclabp}{{5(c)}{21}{Subfigure 0 5(c)}{subfigure.0.5.3}{}}
\newlabel{sub@fig:acclabp}{{(c)}{21}{Subfigure 0 5(c)\relax }{subfigure.0.5.3}{}}
\acronymused{MLOGIT}
\acronymused{RF}
\acronymused{H3LC}
\acronymused{RF}
\acronymused{H3LC}
\acronymused{LOGIT}
\newlabel{fig:acclablc}{{5(d)}{21}{Subfigure 0 5(d)}{subfigure.0.5.4}{}}
\newlabel{sub@fig:acclablc}{{(d)}{21}{Subfigure 0 5(d)\relax }{subfigure.0.5.4}{}}
\@writefile{lof}{\contentsline {figure}{\numberline {5}{\ignorespaces Accuracy results for three-label loan status classification (in \%) on test datasets. FP: Full payment, PP: Prepayment, D: Default.}}{21}{figure.0.5}}
\@writefile{lof}{\contentsline {subfigure}{\numberline{(a)}{\ignorespaces {Prosper test dataset classification accuracy results}}}{21}{figure.0.5}}
\@writefile{lof}{\contentsline {subfigure}{\numberline{(b)}{\ignorespaces {Lending Club test dataset classification accuracy results}}}{21}{figure.0.5}}
\@writefile{lof}{\contentsline {subfigure}{\numberline{(c)}{\ignorespaces {The average accuracy scores for each of the three labels for Prosper dataset}}}{21}{figure.0.5}}
\@writefile{lof}{\contentsline {subfigure}{\numberline{(d)}{\ignorespaces {The average accuracy scores for each of the three labels for Lending Club dataset}}}{21}{figure.0.5}}
\newlabel{fig:acccomp}{{5}{21}{Accuracy results for three-label loan status classification (in \%) on test datasets. FP: Full payment, PP: Prepayment, D: Default}{figure.0.5}{}}
\acronymused{LOGIT}
\acronymused{RF}
\newlabel{fig:twolabelaccdndp}{{6(a)}{21}{Subfigure 0 6(a)}{subfigure.0.6.1}{}}
\newlabel{sub@fig:twolabelaccdndp}{{(a)}{21}{Subfigure 0 6(a)\relax }{subfigure.0.6.1}{}}
\acronymused{LOGIT}
\acronymused{RF}
\newlabel{fig:twolabelaccdndlc}{{6(b)}{21}{Subfigure 0 6(b)}{subfigure.0.6.2}{}}
\newlabel{sub@fig:twolabelaccdndlc}{{(b)}{21}{Subfigure 0 6(b)\relax }{subfigure.0.6.2}{}}
\@writefile{lof}{\contentsline {figure}{\numberline {6}{\ignorespaces Average accuracy scores (in \%) for two-label classification of loan status for the test dataset}}{21}{figure.0.6}}
\@writefile{lof}{\contentsline {subfigure}{\numberline{(a)}{\ignorespaces {Prosper average accuracy scores for default/non-default two-label classification\nobreakspace {}}}}{21}{figure.0.6}}
\@writefile{lof}{\contentsline {subfigure}{\numberline{(b)}{\ignorespaces {Lending Club average accuracy scores for default/non-default two-label classification\nobreakspace {}}}}{21}{figure.0.6}}
\newlabel{fig:twolabelacc}{{6}{21}{Average accuracy scores (in \%) for two-label classification of loan status for the test dataset}{figure.0.6}{}}
\acronymused{H3LC}
\acronymused{LOGIT}
\acronymused{ARR}
\acronymused{ARR}
\@writefile{toc}{\contentsline {subsection}{\numberline {7.3}Comparison of accuracy of predicting \ac {ARR} and standard deviation}{21}{subsection.0.7.3}}
\newlabel{sec:comp-accur-pred}{{7.3}{21}{Comparison of accuracy of predicting \ac {ARR} and standard deviation}{subsection.0.7.3}{}}
\acronymused{ARR}
\acronymused{RBF}
\acronymused{EDM}
\acronymused{RBF}
\acronymused{LOGIT}
\acronymused{RF}
\citation{Guo2016417}
\citation{Guo2016417}
\acronymused{EDM}
\acronymused{H3LC}
\acronymused{LOGIT}
\acronymused{H3LC}
\acronymused{RF}
\newlabel{sec:results-5-fold}{{7.3.1}{22}{Results of 5-fold CV on training dataset}{subsubsection.0.7.3.1}{}}
\acronymused{ARR}
\acronymused{ARR}
\acronymused{ARR}
\newlabel{fig:arrep}{{7(a)}{22}{Subfigure 0 7(a)}{subfigure.0.7.1}{}}
\newlabel{sub@fig:arrep}{{(a)}{22}{Subfigure 0 7(a)\relax }{subfigure.0.7.1}{}}
\acronymused{ARR}
\acronymused{ARR}
\acronymused{ARR}
\acronymused{ARR}
\newlabel{fig:arrelc}{{7(b)}{22}{Subfigure 0 7(b)}{subfigure.0.7.2}{}}
\newlabel{sub@fig:arrelc}{{(b)}{22}{Subfigure 0 7(b)\relax }{subfigure.0.7.2}{}}
\@writefile{lof}{\contentsline {figure}{\numberline {7}{\ignorespaces 5-fold CV results for predicted \ac {ARR} for loans under consideration vis-a-vis real \ac {ARR}.}}{22}{figure.0.7}}
\acronymused{ARR}
\acronymused{ARR}
\@writefile{lof}{\contentsline {subfigure}{\numberline{(a)}{\ignorespaces {5-fold CV real \ac {ARR} Vs predicted \ac {ARR} (in \%) for Prosper dataset\nobreakspace {}}}}{22}{figure.0.7}}
\@writefile{lof}{\contentsline {subfigure}{\numberline{(b)}{\ignorespaces {5-fold CV real \ac {ARR} Vs predicted \ac {ARR} (in \%) for Lending Club dataset\nobreakspace {}}}}{22}{figure.0.7}}
\newlabel{fig:arrer}{{7}{22}{5-fold CV results for predicted \ac {ARR} for loans under consideration vis-a-vis real \ac {ARR}}{figure.0.7}{}}
\@writefile{toc}{\contentsline {subsubsection}{\numberline {7.3.1}Results of 5-fold CV on training dataset}{22}{figure.0.8}}
\acronymused{ARR}
\acronymused{ARR}
\acronymused{RBF}
\acronymused{ARR}
\acronymused{H3LC}
\acronymused{EDM}
\acronymused{ARR}
\acronymused{ARR}
\acronymused{RBF}
\acronymused{ARR}
\acronymused{H3LC}
\acronymused{EDM}
\acronymused{ARR}
\acronymused{RBF}
\acronymused{RBF}
\acronymused{EDM}
\newlabel{fig:stddevp}{{8(a)}{23}{Subfigure 0 8(a)}{subfigure.0.8.1}{}}
\newlabel{sub@fig:stddevp}{{(a)}{23}{Subfigure 0 8(a)\relax }{subfigure.0.8.1}{}}
\newlabel{fig:stddevlc}{{8(b)}{23}{Subfigure 0 8(b)}{subfigure.0.8.2}{}}
\newlabel{sub@fig:stddevlc}{{(b)}{23}{Subfigure 0 8(b)\relax }{subfigure.0.8.2}{}}
\@writefile{lof}{\contentsline {figure}{\numberline {8}{\ignorespaces 5-fold CV results for predicted standard deviation for loans under consideration vis-a-vis real standard deviation.}}{23}{figure.0.8}}
\@writefile{lof}{\contentsline {subfigure}{\numberline{(a)}{\ignorespaces {5-fold CV real standard deviation Vs predicted standard deviation for Prosper dataset\nobreakspace {}}}}{23}{figure.0.8}}
\@writefile{lof}{\contentsline {subfigure}{\numberline{(b)}{\ignorespaces {5-fold CV real standard deviation Vs predicted standard deviation for Lending Club dataset\nobreakspace {}}}}{23}{figure.0.8}}
\newlabel{fig:stddeve}{{8}{23}{5-fold CV results for predicted standard deviation for loans under consideration vis-a-vis real standard deviation}{figure.0.8}{}}
\acronymused{ARR}
\acronymused{RBF}
\acronymused{EDM}
\acronymused{EDM}
\acronymused{EDM}
\acronymused{RBF}
\acronymused{RBF}
\acronymused{EDM}
\acronymused{EDM}
\acronymused{RBF}
\newlabel{sec:results-test-dataset}{{7.3.2}{23}{Results for the five test dataset}{subsubsection.0.7.3.2}{}}
\@writefile{lof}{\contentsline {figure}{\numberline {9}{\ignorespaces Execution time comparison of \ac {RBF} and \ac {EDM} techniques\nobreakspace  {}}}{24}{figure.0.9}}
\acronymused{RBF}
\acronymused{EDM}
\newlabel{fig:exect}{{9}{24}{Execution time comparison of \ac {RBF} and \ac {EDM} techniques~}{figure.0.9}{}}
\acronymused{ARR}
\acronymused{ARR}
\newlabel{fig:arrep_t}{{10(a)}{24}{Subfigure 0 10(a)}{subfigure.0.10.1}{}}
\newlabel{sub@fig:arrep_t}{{(a)}{24}{Subfigure 0 10(a)\relax }{subfigure.0.10.1}{}}
\acronymused{ARR}
\acronymused{ARR}
\newlabel{fig:arrelc_t}{{10(b)}{24}{Subfigure 0 10(b)}{subfigure.0.10.2}{}}
\newlabel{sub@fig:arrelc_t}{{(b)}{24}{Subfigure 0 10(b)\relax }{subfigure.0.10.2}{}}
\@writefile{lof}{\contentsline {figure}{\numberline {10}{\ignorespaces Results for predicted \ac {ARR} for the five test datasets vis-a-vis real \ac {ARR}.}}{24}{figure.0.10}}
\acronymused{ARR}
\acronymused{ARR}
\@writefile{lof}{\contentsline {subfigure}{\numberline{(a)}{\ignorespaces {5-test real \ac {ARR} Vs predicted \ac {ARR}(in \%) for Prosper dataset\nobreakspace {}}}}{24}{figure.0.10}}
\@writefile{lof}{\contentsline {subfigure}{\numberline{(b)}{\ignorespaces {5-test real \ac {ARR} Vs predicted \ac {ARR} (in \%) for Lending Club dataset\nobreakspace {}}}}{24}{figure.0.10}}
\newlabel{fig:arrer_t}{{10}{24}{Results for predicted \ac {ARR} for the five test datasets vis-a-vis real \ac {ARR}}{figure.0.10}{}}
\@writefile{toc}{\contentsline {subsubsection}{\numberline {7.3.2}Results for the five test dataset}{24}{figure.0.11}}
\acronymused{ARR}
\acronymused{ARR}
\acronymused{H3LC}
\acronymused{EDM}
\acronymused{ARR}
\acronymused{H3LC}
\acronymused{EDM}
\acronymused{ARR}
\acronymused{RBF}
\acronymused{ARR}
\acronymused{RF}
\acronymused{RBF}
\newlabel{fig:stddevp_t}{{11(a)}{25}{Subfigure 0 11(a)}{subfigure.0.11.1}{}}
\newlabel{sub@fig:stddevp_t}{{(a)}{25}{Subfigure 0 11(a)\relax }{subfigure.0.11.1}{}}
\newlabel{fig:stddevlc_t}{{11(b)}{25}{Subfigure 0 11(b)}{subfigure.0.11.2}{}}
\newlabel{sub@fig:stddevlc_t}{{(b)}{25}{Subfigure 0 11(b)\relax }{subfigure.0.11.2}{}}
\@writefile{lof}{\contentsline {figure}{\numberline {11}{\ignorespaces Test results for predicted standard deviation for loans vis-a-vis real standard deviation.}}{25}{figure.0.11}}
\@writefile{lof}{\contentsline {subfigure}{\numberline{(a)}{\ignorespaces {5-test real std-deviation Vs predicted standard deviation for Prosper dataset\nobreakspace {}}}}{25}{figure.0.11}}
\@writefile{lof}{\contentsline {subfigure}{\numberline{(b)}{\ignorespaces {5-test real standard deviation Vs predicted standard deviation for Lending Club dataset\nobreakspace {}}}}{25}{figure.0.11}}
\newlabel{fig:stddeve_t}{{11}{25}{Test results for predicted standard deviation for loans vis-a-vis real standard deviation}{figure.0.11}{}}
\acronymused{RF}
\acronymused{RBF}
\@writefile{toc}{\contentsline {subsection}{\numberline {7.4}Mean-variance frontier generation and portfolio selection}{25}{subsection.0.7.4}}
\newlabel{sec:mean-vari-front}{{7.4}{25}{Mean-variance frontier generation and portfolio selection}{subsection.0.7.4}{}}
\acronymused{ARR}
\acronymused{H3LC}
\acronymused{RF}
\acronymused{H3LC}
\acronymused{LOGIT}
\acronymused{LOGIT}
\acronymused{RBF}
\acronymused{RF}
\acronymused{RBF}
\acronymused{ARR}
\acronymused{ARR}
\acronymused{ARR}
\newlabel{fig:port_pros_ARR}{{12(a)}{26}{Subfigure 0 12(a)}{subfigure.0.12.1}{}}
\newlabel{sub@fig:port_pros_ARR}{{(a)}{26}{Subfigure 0 12(a)\relax }{subfigure.0.12.1}{}}
\acronymused{ARR}
\acronymused{ARR}
\newlabel{fig:port_lend_ARR}{{12(b)}{26}{Subfigure 0 12(b)}{subfigure.0.12.2}{}}
\newlabel{sub@fig:port_lend_ARR}{{(b)}{26}{Subfigure 0 12(b)\relax }{subfigure.0.12.2}{}}
\@writefile{lof}{\contentsline {figure}{\numberline {12}{\ignorespaces 5-test results for predicted portfolio \ac {ARR} vis-a-vis real portfolio \ac {ARR} }}{26}{figure.0.12}}
\acronymused{ARR}
\acronymused{ARR}
\@writefile{lof}{\contentsline {subfigure}{\numberline{(a)}{\ignorespaces {Real portfolio \ac {ARR} Vs predicted portfolio \ac {ARR} for Prosper dataset }}}{26}{figure.0.12}}
\@writefile{lof}{\contentsline {subfigure}{\numberline{(b)}{\ignorespaces {Real portfolio \ac {ARR} Vs predicted portfolio \ac {ARR} for Lending Club dataset}}}{26}{figure.0.12}}
\newlabel{fig:port_ARR}{{12}{26}{5-test results for predicted portfolio \ac {ARR} vis-a-vis real portfolio \ac {ARR}}{figure.0.12}{}}
\newlabel{fig:port_pros_std}{{13(a)}{26}{Subfigure 0 13(a)}{subfigure.0.13.1}{}}
\newlabel{sub@fig:port_pros_std}{{(a)}{26}{Subfigure 0 13(a)\relax }{subfigure.0.13.1}{}}
\newlabel{fig:port_lend_std}{{13(b)}{26}{Subfigure 0 13(b)}{subfigure.0.13.2}{}}
\newlabel{sub@fig:port_lend_std}{{(b)}{26}{Subfigure 0 13(b)\relax }{subfigure.0.13.2}{}}
\@writefile{lof}{\contentsline {figure}{\numberline {13}{\ignorespaces 5-test results for predicted portfolio standard deviation vis-a-vis real portfolio standard deviation }}{26}{figure.0.13}}
\@writefile{lof}{\contentsline {subfigure}{\numberline{(a)}{\ignorespaces {Real portfolio standard deviation Vs predicted portfolio standard deviation for Prosper dataset }}}{26}{figure.0.13}}
\@writefile{lof}{\contentsline {subfigure}{\numberline{(b)}{\ignorespaces {Real portfolio standard deviation Vs predicted portfolio standard deviation for Lending Club dataset}}}{26}{figure.0.13}}
\newlabel{fig:port_std}{{13}{26}{5-test results for predicted portfolio standard deviation vis-a-vis real portfolio standard deviation}{figure.0.13}{}}
\newlabel{eq:11}{{9}{27}{Mean-variance frontier generation and portfolio selection}{equation.0.7.9}{}}
\newlabel{eq:12}{{10}{27}{Mean-variance frontier generation and portfolio selection}{equation.0.7.10}{}}
\acronymused{ARR}
\acronymused{H3LC}
\acronymused{EDM}
\acronymused{RBF}
\acronymused{RBF}
\acronymused{LOGIT}
\acronymused{RBF}
\acronymused{RF}
\acronymused{RBF}
\acronymused{H3LC}
\acronymused{EDM}
\acronymused{ARR}
\acronymused{H3LC}
\acronymused{LOGIT}
\acronymused{ARR}
\acronymused{H3LC}
\acronymused{EDM}
\acronymused{RBF}
\acronymused{H3LC}
\acronymused{RF}
\acronymused{ARR}
\acronymused{H3LC}
\acronymused{RF}
\acronymused{ARR}
\acronymused{ARR}
\acronymused{ARR}
\acronymused{RF}
\acronymused{RBF}
\acronymused{RF}
\acronymused{RBF}
\acronymused{RF}
\acronymused{RBF}
\acronymused{RF}
\acronymused{RBF}
\acronymused{H3LC}
\acronymused{RF}
\acronymused{H3LC}
\acronymused{EDM}
\acronymused{RBF}
\@writefile{toc}{\contentsline {section}{\numberline {8}Conclusion}{28}{section.0.8}}
\newlabel{sec:conclusion}{{8}{28}{Conclusion}{section.0.8}{}}
\acronymused{P2PL}
\acronymused{H3LC}
\acronymused{ARR}
\acronymused{EDM}
\acronymused{ARR}
\acronymused{P2PL}
\acronymused{ARR}
\bibstyle{informs2014}
\bibdata{mybibfile}
\bibcite{alpaydin2014introduction}{{1}{2014}{{Alpaydin}}{{}}}
\bibcite{andreeva2007modelling}{{2}{2007}{{Andreeva et~al.}}{{Andreeva, Ansell, \BIBand {} Crook}}}
\bibcite{boyd2004convex}{{3}{2004}{{Boyd \BIBand {} Vandenberghe}}{{}}}
\bibcite{breiman2001random}{{4}{2001}{{Breiman}}{{}}}
\bibcite{chatterjee1970nonparametric}{{5}{1970}{{Chatterjee \BIBand {} Barcun}}{{}}}
\bibcite{conlin1999249}{{6}{1999}{{Conlin}}{{}}}
\bibcite{Duarte01082012}{{7}{2012}{{Duarte et~al.}}{{Duarte, Siegel, \BIBand {} Young}}}
\bibcite{feldman2005mortgage}{{8}{2005}{{Feldman \BIBand {} Gross}}{{}}}
\bibcite{friedman2001elements}{{9}{2001}{{Friedman et~al.}}{{Friedman, Hastie, \BIBand {} Tibshirani}}}
\bibcite{frydman1985testing}{{10}{1985}{{Frydman et~al.}}{{Frydman, Kallberg, \BIBand {} Kao}}}
\acronymused{ARR}
\bibcite{funk2015online}{{11}{2015}{{Funk et~al.}}{{Funk, Bachmann, Becker, Buerckner, Hilker, Kock, Lehmann, \BIBand {} Tiburtius}}}
\bibcite{Guo2016417}{{12}{2016}{{Guo et~al.}}{{Guo, Zhou, Luo, Liu, \BIBand {} Xiong}}}
\bibcite{Herzenstein2008}{{13}{2008}{{Herzenstein et~al.}}{{Herzenstein, Andrews, Dholakia, \BIBand {} Lyandres}}}
\bibcite{Herzenstein201111}{{14}{2011}{{Herzenstein et~al.}}{{Herzenstein, Sonenshein, \BIBand {} Dholakia}}}
\bibcite{Roth20121115}{{15}{2012}{{J.D.Roth}}{{}}}
\bibcite{Lyer200908}{{16}{2009}{{Khwaja et~al.}}{{Khwaja, Iyer, Luttmer, \BIBand {} Shue}}}
\bibcite{kim2010support}{{17}{2010}{{Kim \BIBand {} Sohn}}{{}}}
\bibcite{Klafft20080714}{{18}{2008}{{Klafft}}{{}}}
\bibcite{LCW}{{19}{2016}{{LendingClub}}{{}}}
\bibcite{li2016prepayment}{{20}{2016}{{Li et~al.}}{{Li, Yao, Wen, \BIBand {} Yang}}}
\bibcite{malekipirbazari2015risk}{{21}{2015}{{Malekipirbazari \BIBand {} Aksakalli}}{{}}}
\bibcite{malhotra2002differentiating}{{22}{2002}{{Malhotra \BIBand {} Malhotra}}{{}}}
\bibcite{mangasarian1965linear}{{23}{1965}{{Mangasarian}}{{}}}
\bibcite{markowitz1991foundations}{{24}{1991}{{Markowitz}}{{}}}
\bibcite{morduch1999microfinance}{{25}{1999}{{Morduch}}{{}}}
\bibcite{pedregosa2011scikit}{{26}{2011}{{Pedregosa et~al.}}{{Pedregosa, Varoquaux, Gramfort, Michel, Thirion, Grisel, Blondel, Prettenhofer, Weiss, Dubourg et~al.}}}
\bibcite{rosenberg1994quantitative}{{27}{1994}{{Rosenberg \BIBand {} Gleit}}{{}}}
\bibcite{sharpe1966mutual}{{28}{1966}{{Sharpe}}{{}}}
\bibcite{so2011modelling}{{29}{2011}{{So \BIBand {} Thomas}}{{}}}
\bibcite{stepanova2002survival}{{30}{2002}{{Stepanova \BIBand {} Thomas}}{{}}}
\bibcite{suykens1999least}{{31}{1999}{{Suykens \BIBand {} Vandewalle}}{{}}}
\bibcite{Udacity}{{32}{2016}{{Udacity}}{{}}}
\bibcite{wiginton1980note}{{33}{1980}{{Wiginton}}{{}}}
\acronymused{LOGIT}
\acronymused{RBF}
\acronymused{RF}
\acronymused{RBF}
\acronymused{H3LC}
\acronymused{RF}
\acronymused{EDM}
\acronymused{H3LC}
\acronymused{LOGIT}
\acronymused{EDM}
\@writefile{lof}{\contentsline {figure}{\numberline {14}{\ignorespaces Predicted Sharpe ratios for Figure \ref  {fig:ef8}}}{32}{figure.0.14}}
\newlabel{fig:sharpe}{{14}{32}{Predicted Sharpe ratios for Figure \ref {fig:ef8}}{figure.0.14}{}}
\acronymused{RF}
\acronymused{RBF}
\newlabel{fig:PRF_RBF}{{15(a)}{32}{Subfigure 0 15(a)}{subfigure.0.15.1}{}}
\newlabel{sub@fig:PRF_RBF}{{(a)}{32}{Subfigure 0 15(a)\relax }{subfigure.0.15.1}{}}
\acronymused{LOGIT}
\acronymused{RBF}
\newlabel{fig:PLOGIT_RBF}{{15(b)}{32}{Subfigure 0 15(b)}{subfigure.0.15.2}{}}
\newlabel{sub@fig:PLOGIT_RBF}{{(b)}{32}{Subfigure 0 15(b)\relax }{subfigure.0.15.2}{}}
\acronymused{H3LC}
\acronymused{RF}
\newlabel{fig:PH3LC_RF_EDM}{{15(c)}{32}{Subfigure 0 15(c)}{subfigure.0.15.3}{}}
\newlabel{sub@fig:PH3LC_RF_EDM}{{(c)}{32}{Subfigure 0 15(c)\relax }{subfigure.0.15.3}{}}
\acronymused{H3LC}
\acronymused{LOGIT}
\newlabel{fig:PH3LC_LOGIT_EDM}{{15(d)}{32}{Subfigure 0 15(d)}{subfigure.0.15.4}{}}
\newlabel{sub@fig:PH3LC_LOGIT_EDM}{{(d)}{32}{Subfigure 0 15(d)\relax }{subfigure.0.15.4}{}}
\acronymused{RF}
\acronymused{RBF}
\newlabel{fig:LRF_RBF}{{15(e)}{32}{Subfigure 0 15(e)}{subfigure.0.15.5}{}}
\newlabel{sub@fig:LRF_RBF}{{(e)}{32}{Subfigure 0 15(e)\relax }{subfigure.0.15.5}{}}
\acronymused{LOGIT}
\acronymused{RBF}
\newlabel{fig:LLOGIT_RBF}{{15(f)}{32}{Subfigure 0 15(f)}{subfigure.0.15.6}{}}
\newlabel{sub@fig:LLOGIT_RBF}{{(f)}{32}{Subfigure 0 15(f)\relax }{subfigure.0.15.6}{}}
\acronymused{H3LC}
\acronymused{RF}
\newlabel{fig:LH3LC_RF_EDM}{{15(g)}{32}{Subfigure 0 15(g)}{subfigure.0.15.7}{}}
\newlabel{sub@fig:LH3LC_RF_EDM}{{(g)}{32}{Subfigure 0 15(g)\relax }{subfigure.0.15.7}{}}
\acronymused{H3LC}
\acronymused{LOGIT}
\newlabel{fig:LH3LC_LOGIT_EDM}{{15(h)}{32}{Subfigure 0 15(h)}{subfigure.0.15.8}{}}
\newlabel{sub@fig:LH3LC_LOGIT_EDM}{{(h)}{32}{Subfigure 0 15(h)\relax }{subfigure.0.15.8}{}}
\@writefile{lof}{\contentsline {figure}{\numberline {15}{\ignorespaces Efficiency frontiers with different methods for Prosper and Lending Club. The tangent line shows the point of maximum returns with minimum risk. }}{32}{figure.0.15}}
\newlabel{fig:ef8}{{15}{32}{Efficiency frontiers with different methods for Prosper and Lending Club. The tangent line shows the point of maximum returns with minimum risk}{figure.0.15}{}}
\@writefile{lof}{\contentsline {subfigure}{\numberline{(a)}{\ignorespaces {Prosper \ac {RF}\_\ac {RBF}}}}{32}{figure.0.15}}
\@writefile{lof}{\contentsline {subfigure}{\numberline{(b)}{\ignorespaces {Prosper \ac {LOGIT}\_\ac {RBF}}}}{32}{figure.0.15}}
\@writefile{lof}{\contentsline {subfigure}{\numberline{(c)}{\ignorespaces {Prosper \ac {H3LC}\_\ac {RF}\_{EDM}}}}{32}{figure.0.15}}
\@writefile{lof}{\contentsline {subfigure}{\numberline{(d)}{\ignorespaces {Prosper \ac {H3LC}\_\ac {LOGIT}\_{EDM}}}}{32}{figure.0.15}}
\@writefile{lof}{\contentsline {subfigure}{\numberline{(e)}{\ignorespaces {Lending Club \ac {RF}\_\ac {RBF}}}}{32}{figure.0.15}}
\@writefile{lof}{\contentsline {subfigure}{\numberline{(f)}{\ignorespaces {Lending Club \ac {LOGIT}\_\ac {RBF}}}}{32}{figure.0.15}}
\@writefile{lof}{\contentsline {subfigure}{\numberline{(g)}{\ignorespaces {Lending Club \ac {H3LC}\_\ac {RF}\_{EDM}}}}{32}{figure.0.15}}
\@writefile{lof}{\contentsline {subfigure}{\numberline{(h)}{\ignorespaces {Lending Club \ac {H3LC}\_\ac {LOGIT}\_{EDM}}}}{32}{figure.0.15}}
