%!PS-Adobe-3.0 EPSF-3.0
%%Title: overall.fig
%%Creator: fig2dev Version 3.2 Patchlevel 5d
%%CreationDate: Sun Nov  6 10:37:33 2016
%%For: amal029@AVINASHs-MacBook-Pro.local (AVINASH MALIK)
%%BoundingBox: 0 0 480 249
%Magnification: 1.0000
%%EndComments
%%BeginProlog
/$F2psDict 200 dict def
$F2psDict begin
$F2psDict /mtrx matrix put
/col-1 {0 setgray} bind def
/col0 {0.000 0.000 0.000 srgb} bind def
/col1 {0.000 0.000 1.000 srgb} bind def
/col2 {0.000 1.000 0.000 srgb} bind def
/col3 {0.000 1.000 1.000 srgb} bind def
/col4 {1.000 0.000 0.000 srgb} bind def
/col5 {1.000 0.000 1.000 srgb} bind def
/col6 {1.000 1.000 0.000 srgb} bind def
/col7 {1.000 1.000 1.000 srgb} bind def
/col8 {0.000 0.000 0.560 srgb} bind def
/col9 {0.000 0.000 0.690 srgb} bind def
/col10 {0.000 0.000 0.820 srgb} bind def
/col11 {0.530 0.810 1.000 srgb} bind def
/col12 {0.000 0.560 0.000 srgb} bind def
/col13 {0.000 0.690 0.000 srgb} bind def
/col14 {0.000 0.820 0.000 srgb} bind def
/col15 {0.000 0.560 0.560 srgb} bind def
/col16 {0.000 0.690 0.690 srgb} bind def
/col17 {0.000 0.820 0.820 srgb} bind def
/col18 {0.560 0.000 0.000 srgb} bind def
/col19 {0.690 0.000 0.000 srgb} bind def
/col20 {0.820 0.000 0.000 srgb} bind def
/col21 {0.560 0.000 0.560 srgb} bind def
/col22 {0.690 0.000 0.690 srgb} bind def
/col23 {0.820 0.000 0.820 srgb} bind def
/col24 {0.500 0.190 0.000 srgb} bind def
/col25 {0.630 0.250 0.000 srgb} bind def
/col26 {0.750 0.380 0.000 srgb} bind def
/col27 {1.000 0.500 0.500 srgb} bind def
/col28 {1.000 0.630 0.630 srgb} bind def
/col29 {1.000 0.750 0.750 srgb} bind def
/col30 {1.000 0.880 0.880 srgb} bind def
/col31 {1.000 0.840 0.000 srgb} bind def

end

/cp {closepath} bind def
/ef {eofill} bind def
/gr {grestore} bind def
/gs {gsave} bind def
/sa {save} bind def
/rs {restore} bind def
/l {lineto} bind def
/m {moveto} bind def
/rm {rmoveto} bind def
/n {newpath} bind def
/s {stroke} bind def
/sh {show} bind def
/slc {setlinecap} bind def
/slj {setlinejoin} bind def
/slw {setlinewidth} bind def
/srgb {setrgbcolor} bind def
/rot {rotate} bind def
/sc {scale} bind def
/sd {setdash} bind def
/ff {findfont} bind def
/sf {setfont} bind def
/scf {scalefont} bind def
/sw {stringwidth} bind def
/tr {translate} bind def
/tnt {dup dup currentrgbcolor
  4 -2 roll dup 1 exch sub 3 -1 roll mul add
  4 -2 roll dup 1 exch sub 3 -1 roll mul add
  4 -2 roll dup 1 exch sub 3 -1 roll mul add srgb}
  bind def
/shd {dup dup currentrgbcolor 4 -2 roll mul 4 -2 roll mul
  4 -2 roll mul srgb} bind def
/reencdict 12 dict def /ReEncode { reencdict begin
/newcodesandnames exch def /newfontname exch def /basefontname exch def
/basefontdict basefontname findfont def /newfont basefontdict maxlength dict def
basefontdict { exch dup /FID ne { dup /Encoding eq
{ exch dup length array copy newfont 3 1 roll put }
{ exch newfont 3 1 roll put } ifelse } { pop pop } ifelse } forall
newfont /FontName newfontname put newcodesandnames aload pop
128 1 255 { newfont /Encoding get exch /.notdef put } for
newcodesandnames length 2 idiv { newfont /Encoding get 3 1 roll put } repeat
newfontname newfont definefont pop end } def
/isovec [
8#055 /minus 8#200 /grave 8#201 /acute 8#202 /circumflex 8#203 /tilde
8#204 /macron 8#205 /breve 8#206 /dotaccent 8#207 /dieresis
8#210 /ring 8#211 /cedilla 8#212 /hungarumlaut 8#213 /ogonek 8#214 /caron
8#220 /dotlessi 8#230 /oe 8#231 /OE
8#240 /space 8#241 /exclamdown 8#242 /cent 8#243 /sterling
8#244 /currency 8#245 /yen 8#246 /brokenbar 8#247 /section 8#250 /dieresis
8#251 /copyright 8#252 /ordfeminine 8#253 /guillemotleft 8#254 /logicalnot
8#255 /hyphen 8#256 /registered 8#257 /macron 8#260 /degree 8#261 /plusminus
8#262 /twosuperior 8#263 /threesuperior 8#264 /acute 8#265 /mu 8#266 /paragraph
8#267 /periodcentered 8#270 /cedilla 8#271 /onesuperior 8#272 /ordmasculine
8#273 /guillemotright 8#274 /onequarter 8#275 /onehalf
8#276 /threequarters 8#277 /questiondown 8#300 /Agrave 8#301 /Aacute
8#302 /Acircumflex 8#303 /Atilde 8#304 /Adieresis 8#305 /Aring
8#306 /AE 8#307 /Ccedilla 8#310 /Egrave 8#311 /Eacute
8#312 /Ecircumflex 8#313 /Edieresis 8#314 /Igrave 8#315 /Iacute
8#316 /Icircumflex 8#317 /Idieresis 8#320 /Eth 8#321 /Ntilde 8#322 /Ograve
8#323 /Oacute 8#324 /Ocircumflex 8#325 /Otilde 8#326 /Odieresis 8#327 /multiply
8#330 /Oslash 8#331 /Ugrave 8#332 /Uacute 8#333 /Ucircumflex
8#334 /Udieresis 8#335 /Yacute 8#336 /Thorn 8#337 /germandbls 8#340 /agrave
8#341 /aacute 8#342 /acircumflex 8#343 /atilde 8#344 /adieresis 8#345 /aring
8#346 /ae 8#347 /ccedilla 8#350 /egrave 8#351 /eacute
8#352 /ecircumflex 8#353 /edieresis 8#354 /igrave 8#355 /iacute
8#356 /icircumflex 8#357 /idieresis 8#360 /eth 8#361 /ntilde 8#362 /ograve
8#363 /oacute 8#364 /ocircumflex 8#365 /otilde 8#366 /odieresis 8#367 /divide
8#370 /oslash 8#371 /ugrave 8#372 /uacute 8#373 /ucircumflex
8#374 /udieresis 8#375 /yacute 8#376 /thorn 8#377 /ydieresis] def
/Times-Bold /Times-Bold-iso isovec ReEncode
/$F2psBegin {$F2psDict begin /$F2psEnteredState save def} def
/$F2psEnd {$F2psEnteredState restore end} def

/pageheader {
save
newpath 0 249 moveto 0 0 lineto 480 0 lineto 480 249 lineto closepath clip newpath
-106.9 425.9 translate
1 -1 scale
$F2psBegin
10 setmiterlimit
0 slj 0 slc
 0.06000 0.06000 sc
} bind def
/pagefooter {
$F2psEnd
restore
} bind def
%%EndProlog
pageheader
%
% Fig objects follow
%
% 
% here starts figure with depth 50
/Times-Bold-iso ff 250.00 scf sf
4425 6975 m
gs 1 -1 sc (Step-4) col0 sh gr
/Times-Bold-iso ff 250.00 scf sf
7770 4125 m
gs 1 -1 sc (hierarchical) col0 sh gr
/Times-Bold-iso ff 250.00 scf sf
7965 3840 m
gs 1 -1 sc (3 label) col0 sh gr
% Polyline
0 slj
0 slc
30.000 slw
n 7515 3315 m 9285 3315 l 9285 4785 l 7515 4785 l
 cp gs col0 s gr 
% Polyline
n 1815 3506 m 3615 3506 l 3615 4406 l 1815 4406 l
 cp gs col0 s gr 
/Times-Bold-iso ff 250.00 scf sf
1890 3896 m
gs 1 -1 sc (Historical loan) col0 sh gr
/Times-Bold-iso ff 250.00 scf sf
2490 4151 m
gs 1 -1 sc (data) col0 sh gr
% Polyline
n 6615 5771 m 9748 5771 l 9748 6761 l 6615 6761 l
 cp gs col0 s gr 
/Times-Bold-iso ff 250.00 scf sf
7858 7016 m
gs 1 -1 sc (Step-3) col0 sh gr
/Times-Bold-iso ff 250.00 scf sf
6793 6341 m
gs 1 -1 sc (weighted return and risk) col0 sh gr
/Times-Bold-iso ff 250.00 scf sf
6825 6075 m
gs 1 -1 sc (Supervised learning based) col0 sh gr
/Times-Bold-iso ff 250.00 scf sf
6825 6600 m
gs 1 -1 sc (computation) col0 sh gr
% Polyline
gs  clippath
4638 3986 m 4843 3986 l 4843 3866 l 4638 3866 l 4638 3866 l 4758 3926 l 4638 3986 l cp
eoclip
n 3613 3926 m
 4828 3926 l gs col0 s gr gr

% arrowhead
60.000 slw
n 4638 3986 m 4758 3926 l 4638 3866 l 4638 3986 l  cp gs 0.00 setgray ef gr  col0 s
% Polyline
30.000 slw
gs  clippath
7323 3956 m 7528 3956 l 7528 3836 l 7323 3836 l 7323 3836 l 7443 3896 l 7323 3956 l cp
eoclip
n 6868 3896 m
 7513 3896 l gs col0 s gr gr

% arrowhead
60.000 slw
n 7323 3956 m 7443 3896 l 7323 3836 l 7323 3956 l  cp gs 0.00 setgray ef gr  col0 s
% Polyline
30.000 slw
gs  clippath
8368 5581 m 8368 5786 l 8488 5786 l 8488 5581 l 8488 5581 l 8428 5701 l 8368 5581 l cp
eoclip
n 8428 4766 m
 8428 5771 l gs col0 s gr gr

% arrowhead
60.000 slw
n 8368 5581 m 8428 5701 l 8488 5581 l 8368 5581 l  cp gs 0.00 setgray ef gr  col0 s
% Polyline
30.000 slw
n 4395 2985 m 9600 2985 l 9600 5385 l 4395 5385 l
 cp gs col0 s gr 
% Polyline
n 4830 3600 m 6883 3600 l 6883 4511 l 4830 4511 l
 cp gs col0 s gr 
% Polyline
n 3930 5801 m 5775 5801 l 5775 6750 l 3930 6750 l
 cp gs col0 s gr 
% Polyline
gs  clippath
5918 6240 m 5713 6240 l 5713 6360 l 5918 6360 l 5918 6360 l 5798 6300 l 5918 6240 l cp
eoclip
n 6598 6300 m
 5728 6300 l gs col0 s gr gr

% arrowhead
60.000 slw
n 5918 6240 m 5798 6300 l 5918 6360 l 5918 6240 l  cp gs 0.00 setgray ef gr  col0 s
/Times-Bold-iso ff 250.00 scf sf
5428 3491 m
gs 1 -1 sc (Step-1) col0 sh gr
/Times-Bold-iso ff 250.00 scf sf
7993 3221 m
gs 1 -1 sc (Step-2) col0 sh gr
/Times-Bold-iso ff 250.00 scf sf
4950 4095 m
gs 1 -1 sc (Feature selection) col0 sh gr
/Times-Bold-iso ff 250.00 scf sf
5865 5280 m
gs 1 -1 sc (3-label classification) col0 sh gr
/Times-Bold-iso ff 250.00 scf sf
4050 6225 m
gs 1 -1 sc (Mean-variance) col0 sh gr
/Times-Bold-iso ff 250.00 scf sf
4050 6450 m
gs 1 -1 sc (optimization) col0 sh gr
/Times-Bold-iso ff 250.00 scf sf
7710 4455 m
gs 1 -1 sc (classification) col0 sh gr
% here ends figure;
pagefooter
showpage
%%Trailer
%EOF
