\relax 
\providecommand\hyper@newdestlabel[2]{}
\citation{Guo2016417,babaei2020multi,byanjankar2021data}
\citation{ceyhan2011dynamics}
\@writefile{toc}{\contentsline {chapter}{\numberline {2}Literature review}{15}{chapter.2}\protected@file@percent }
\@writefile{lof}{\addvspace {10\p@ }}
\@writefile{lot}{\addvspace {10\p@ }}
\newlabel{Ch2:Literature}{{2}{15}{Literature review}{chapter.2}{}}
\acronymused{P2PL}
\acronymused{P2PL}
\acronymused{P2PL}
\acronymused{P2PL}
\citation{malekipirbazari2015risk}
\citation{malekipirbazari2015risk}
\citation{friedman2001elements}
\citation{suykens1999least}
\citation{breiman2001random}
\citation{montgomery2012introduction}
\citation{wiginton1980note}
\citation{feldman2005mortgage}
\citation{suykens1999least}
\citation{dudani1976distance}
\citation{mcelroy1967necessary}
\@writefile{toc}{\contentsline {section}{\numberline {2.1}Machine learning techniques}{16}{section.2.1}\protected@file@percent }
\newlabel{Ch2:Machine}{{2.1}{16}{Machine learning techniques}{section.2.1}{}}
\acronymused{LOGIT}
\acronymused{SVM}
\acronymused{RF}
\acronymused{RF}
\acronymused{LOGIT}
\acronymused{RF}
\acronymused{SVM}
\acronymused{k-NN}
\@writefile{toc}{\contentsline {subsection}{\numberline {2.1.1}Linear regression}{16}{subsection.2.1.1}\protected@file@percent }
\newlabel{Ch2:Linear}{{2.1.1}{16}{Linear regression}{subsection.2.1.1}{}}
\newlabel{eq: linear regression}{{2.1}{16}{Linear regression}{equation.2.1.1}{}}
\citation{Guo2016417,malekipirbazari2015risk,serrano2015determinants}
\citation{malekipirbazari2015risk}
\acronymused{LOGIT}
\@writefile{toc}{\contentsline {subsection}{\numberline {2.1.2}\acf {LOGIT}}{17}{subsection.2.1.2}\protected@file@percent }
\newlabel{Ch2: Logit}{{2.1.2}{17}{\acf {LOGIT}}{subsection.2.1.2}{}}
\acronymused{LOGIT}
\acronymused{P2PL}
\acronymused{LOGIT}
\newlabel{eq:logit}{{2.2}{17}{\acf {LOGIT}}{equation.2.1.2}{}}
\acronymused{LOGIT}
\acronymused{LOGIT}
\acronymused{LOGIT}
\acronymused{RF}
\@writefile{toc}{\contentsline {subsection}{\numberline {2.1.3}\acf {RF}}{17}{subsection.2.1.3}\protected@file@percent }
\newlabel{Ch2: Random-forest}{{2.1.3}{17}{\acf {RF}}{subsection.2.1.3}{}}
\acronymused{RF}
\acronymused{RF}
\citation{friedman2001elements}
\acronymused{RF}
\acronymused{RF}
\@writefile{lof}{\contentsline {figure}{\numberline {2.1}{\ignorespaces An example of a decision tree as applied to classify borrowers as defaulting or non-defaulting\nobreakspace  {}.\relax }}{18}{figure.caption.22}\protected@file@percent }
\newlabel{fig:tree}{{2.1}{18}{An example of a decision tree as applied to classify borrowers as defaulting or non-defaulting~.\relax }{figure.caption.22}{}}
\citation{breiman2001random}
\citation{friedman2001elements}
\acronymused{RF}
\acronymused{RF}
\acronymused{RF}
\acronymused{P2PL}
\acronymused{RF}
\citation{raileanu2004theoretical}
\acronymused{RF}
\newlabel{eq:gini}{{2.3}{20}{}{equation.2.1.3}{}}
\acronymused{SVM}
\@writefile{toc}{\contentsline {subsection}{\numberline {2.1.4}\acf {SVM}}{20}{subsection.2.1.4}\protected@file@percent }
\newlabel{Ch2:SVM}{{2.1.4}{20}{\acf {SVM}}{subsection.2.1.4}{}}
\acronymused{SVM}
\acronymused{SVM}
\acronymused{SVR}
\acronymused{SVM}
\citation{WikipediaSVM}
\citation{WikipediaSVM}
\citation{Wikipediaknn}
\citation{Wikipediaknn}
\citation{mezei2018credit,rui2012bayesian}
\@writefile{lof}{\contentsline {figure}{\numberline {2.2}{\ignorespaces Hyperplanes of \ac {SVM} for separating surfaces for data from two classes in the linear case. The black dots and circles represent two different classes.\nobreakspace  {}. Reproduced from\nobreakspace  {}\cite  {WikipediaSVM}.\relax }}{21}{figure.caption.23}\protected@file@percent }
\acronymused{SVM}
\newlabel{fig:svm}{{2.2}{21}{Hyperplanes of \ac {SVM} for separating surfaces for data from two classes in the linear case. The black dots and circles represent two different classes.~. Reproduced from~\cite {WikipediaSVM}.\relax }{figure.caption.23}{}}
\acronymused{SVM}
\acronymused{SVM}
\acronymused{SVM}
\acronymused{SVM}
\acronymused{k-NN}
\@writefile{toc}{\contentsline {subsection}{\numberline {2.1.5}\acf {k-NN}}{21}{subsection.2.1.5}\protected@file@percent }
\newlabel{Ch2:k-NN}{{2.1.5}{21}{\acf {k-NN}}{subsection.2.1.5}{}}
\acronymused{k-NN}
\acronymused{P2PL}
\acronymused{k-NN}
\acronymused{k-NN}
\acronymused{k-NN}
\acronymused{k-NN}
\acronymused{k-NN}
\@writefile{lof}{\contentsline {figure}{\numberline {2.3}{\ignorespaces Example for \ac {k-NN} classification\nobreakspace  {}. Blue squares and red triangles represents two different classes (e.g. defaulting and non-defaulting). Green dot is the test point (or new borrower) that needs to be classified. Reproduced from\nobreakspace  {}\cite  {Wikipediaknn}.\relax }}{22}{figure.caption.24}\protected@file@percent }
\acronymused{k-NN}
\newlabel{fig:knn}{{2.3}{22}{Example for \ac {k-NN} classification~. Blue squares and red triangles represents two different classes (e.g. defaulting and non-defaulting). Green dot is the test point (or new borrower) that needs to be classified. Reproduced from~\cite {Wikipediaknn}.\relax }{figure.caption.24}{}}
\acronymused{k-NN}
\acronymused{k-NN}
\acronymused{k-NN}
\acronymused{k-NN}
\acronymused{k-NN}
\acronymused{k-NN}
\citation{james2013introduction}
\citation{tsai2014peer}
\@writefile{toc}{\contentsline {section}{\numberline {2.2}Feature selection}{23}{section.2.2}\protected@file@percent }
\newlabel{Ch2: Feature selection}{{2.2}{23}{Feature selection}{section.2.2}{}}
\acronymused{P2PL}
\acronymused{P2PL}
\newlabel{eq:ig}{{2.4}{23}{Feature selection}{Item.35}{}}
\newlabel{eq:entro}{{2.5}{23}{Feature selection}{Item.36}{}}
\citation{hall1998correlation}
\citation{goldberg1989genetic}
\citation{cui2016p2p}
\citation{serrano2015determinants}
\citation{friedman2001elements}
\citation{marill1963effectiveness}
\citation{guyon2002gene}
\citation{friedman2001elements}
\citation{friedman2001elements}
\newlabel{eq:entro_con}{{2.6}{24}{Feature selection}{Item.37}{}}
\acronymused{LOGIT}
\citation{guyon2002gene}
\citation{Guo2016417,ren2019investment,babaei2020multi}
\citation{markowitz1991foundations}
\@writefile{toc}{\contentsline {section}{\numberline {2.3}Optimisation models for helping lenders obtain a prudent investment portfolio}{25}{section.2.3}\protected@file@percent }
\newlabel{Ch2: Optimisation model}{{2.3}{25}{Optimisation models for helping lenders obtain a prudent investment portfolio}{section.2.3}{}}
\acronymused{P2PL}
\newlabel{model:mv}{{2.7}{25}{Optimisation models for helping lenders obtain a prudent investment portfolio}{equation.2.3.7}{}}
\acronymused{P2PL}
\acronymused{P2PL}
\acronymused{P2PL}
\citation{Guo2016417}
\citation{nadaraya1965non}
\citation{clark1975calibration}
\@writefile{toc}{\contentsline {subsection}{\numberline {2.3.1}Instance-based optimisation model}{26}{subsection.2.3.1}\protected@file@percent }
\newlabel{Ch2: Instance-based}{{2.3.1}{26}{Instance-based optimisation model}{subsection.2.3.1}{}}
\acronymused{P2PL}
\newlabel{eq: return_instance}{{2.8}{26}{Instance-based optimisation model}{equation.2.3.8}{}}
\newlabel{eq: risk_instance}{{2.9}{26}{Instance-based optimisation model}{equation.2.3.9}{}}
\newlabel{eq:kernel}{{2.10}{26}{Instance-based optimisation model}{equation.2.3.10}{}}
\newlabel{eq:weight}{{2.11}{26}{Instance-based optimisation model}{equation.2.3.11}{}}
\citation{ren2019investment}
\newlabel{model:mib}{{2.12}{27}{Instance-based optimisation model}{equation.2.3.12}{}}
\@writefile{toc}{\contentsline {subsection}{\numberline {2.3.2}The return-default trade-off optimisation model}{27}{subsection.2.3.2}\protected@file@percent }
\newlabel{Ch2: return-risk}{{2.3.2}{27}{The return-default trade-off optimisation model}{subsection.2.3.2}{}}
\@writefile{lot}{\contentsline {table}{\numberline {2.1}{\ignorespaces Average return rate and probability of default for each loan grade\relax }}{27}{table.caption.25}\protected@file@percent }
\newlabel{tab:return default}{{2.1}{27}{Average return rate and probability of default for each loan grade\relax }{table.caption.25}{}}
\citation{zitzler1999multiobjective}
\citation{sharpe1994sharpe}
\newlabel{model:return risk}{{2.13}{28}{The return-default trade-off optimisation model}{equation.2.3.13}{}}
\newlabel{eq:sharpe}{{2.14}{28}{The return-default trade-off optimisation model}{equation.2.3.14}{}}
\newlabel{eq:port_ret}{{2.15}{28}{The return-default trade-off optimisation model}{equation.2.3.15}{}}
\newlabel{eq:port_risk}{{2.16}{28}{The return-default trade-off optimisation model}{equation.2.3.16}{}}
\citation{rasmussen2003gaussian}
\citation{specht1991general}
\citation{tsai2014peer,cui2016p2p,serrano2015determinants}
\citation{Roth20121115}
\@writefile{toc}{\contentsline {section}{\numberline {2.4}Discussion}{29}{section.2.4}\protected@file@percent }
\newlabel{Ch2: Discussion}{{2.4}{29}{Discussion}{section.2.4}{}}
\acronymused{P2PL}
\acronymused{P2PL}
\acronymused{P2PL}
\acronymused{P2PL}
\acronymused{P2PL}
\acronymused{P2PL}
\citation{althoff2014ask,herzenstein2011tell}
\acronymused{P2PL}
\acronymused{P2PL}
\acronymused{P2PL}
\acronymused{P2PL}
\@setckpt{Chapters/Literature/Literature}{
\setcounter{page}{31}
\setcounter{equation}{16}
\setcounter{enumi}{0}
\setcounter{enumii}{0}
\setcounter{enumiii}{0}
\setcounter{enumiv}{0}
\setcounter{footnote}{5}
\setcounter{mpfootnote}{0}
\setcounter{part}{0}
\setcounter{chapter}{2}
\setcounter{section}{4}
\setcounter{subsection}{0}
\setcounter{subsubsection}{0}
\setcounter{paragraph}{0}
\setcounter{subparagraph}{0}
\setcounter{figure}{3}
\setcounter{table}{1}
\setcounter{@pps}{0}
\setcounter{@ppsavesec}{0}
\setcounter{@ppsaveapp}{0}
\setcounter{NAT@ctr}{0}
\setcounter{Item}{37}
\setcounter{Hfootnote}{12}
\setcounter{bookmark@seq@number}{26}
\setcounter{AM@survey}{0}
\setcounter{caption@flags}{2}
\setcounter{continuedfloat}{0}
\setcounter{subfigure}{0}
\setcounter{subtable}{0}
\setcounter{parentequation}{0}
\setcounter{LT@tables}{0}
\setcounter{LT@chunks}{0}
\setcounter{section@level}{0}
}
