\relax 
\providecommand\hyper@newdestlabel[2]{}
\citation{Guo2016417}
\citation{Roth20121115}
\@writefile{toc}{\contentsline {chapter}{\numberline {4}Recommendation system for low-liquidity P2PL system}{59}{chapter.4}\protected@file@percent }
\@writefile{lof}{\addvspace {10\p@ }}
\@writefile{lot}{\addvspace {10\p@ }}
\newlabel{Ch4}{{4}{59}{Recommendation system for low-liquidity P2PL system}{chapter.4}{}}
\acronymused{P2PL}
\acronymused{P2PL}
\acronymused{P2PL}
\acronymused{P2PL}
\@writefile{toc}{\contentsline {section}{\numberline {4.1}Introduction}{59}{section.4.1}\protected@file@percent }
\newlabel{Ch4:intro}{{4.1}{59}{Introduction}{section.4.1}{}}
\citation{gidofalvi2001using,kim2003financial,pai2005hybrid}
\citation{gidofalvi2001using}
\citation{kim2003financial}
\citation{pai2005hybrid}
\citation{chatfield2016analysis}
\acronymused{P2PL}
\acronymused{P2PL}
\acronymused{SVM}
\AC@undonewlabel{acro:ARIMA}
\newlabel{acro:ARIMA}{{4.1}{60}{Introduction}{section*.55}{}}
\acronymused{ARIMA}
\acronymused{SVM}
\acronymused{P2PL}
\acronymused{P2PL}
\acronymused{P2PL}
\@writefile{lof}{\contentsline {figure}{\numberline {4.1}{\ignorespaces The overall proposed methodology\relax }}{61}{figure.caption.56}\protected@file@percent }
\newlabel{fig:ch4:overall}{{4.1}{61}{The overall proposed methodology\relax }{figure.caption.56}{}}
\@writefile{toc}{\contentsline {section}{\numberline {4.2}The overall proposed methodology and data analysis}{61}{section.4.2}\protected@file@percent }
\newlabel{Ch4:Overall}{{4.2}{61}{The overall proposed methodology and data analysis}{section.4.2}{}}
\acronymused{P2PL}
\@writefile{toc}{\contentsline {subsection}{\numberline {4.2.1}The overall proposed methodology}{61}{subsection.4.2.1}\protected@file@percent }
\newlabel{Ch4:proposed mehtod}{{4.2.1}{61}{The overall proposed methodology}{subsection.4.2.1}{}}
\citation{markowitz1991foundations}
\citation{sharpe1994sharpe}
\citation{zitzler1999multiobjective}
\citation{Udacity}
\@writefile{toc}{\contentsline {subsection}{\numberline {4.2.2}Data analysis}{62}{subsection.4.2.2}\protected@file@percent }
\newlabel{Ch4: data analysis}{{4.2.2}{62}{Data analysis}{subsection.4.2.2}{}}
\@writefile{lot}{\contentsline {table}{\numberline {4.1}{\ignorespaces Mean of return rates, standard deviation and probability of default for each loan grade\relax }}{62}{table.caption.57}\protected@file@percent }
\newlabel{tab:ch4:properties}{{4.1}{62}{Mean of return rates, standard deviation and probability of default for each loan grade\relax }{table.caption.57}{}}
\newlabel{eq:ch4:default}{{4.1}{63}{Data analysis}{equation.4.2.1}{}}
\@writefile{lof}{\contentsline {figure}{\numberline {4.2}{\ignorespaces Probability distribution for all loans\relax }}{63}{figure.caption.58}\protected@file@percent }
\newlabel{fig:ch4:All}{{4.2}{63}{Probability distribution for all loans\relax }{figure.caption.58}{}}
\@writefile{lof}{\contentsline {figure}{\numberline {4.3}{\ignorespaces Probability distribution for loans with grade AA\relax }}{64}{figure.caption.59}\protected@file@percent }
\newlabel{fig:ch4:AA}{{4.3}{64}{Probability distribution for loans with grade AA\relax }{figure.caption.59}{}}
\acronymused{P2PL}
\@writefile{toc}{\contentsline {section}{\numberline {4.3}Probability-based prediction model}{64}{section.4.3}\protected@file@percent }
\newlabel{Ch4:probability model}{{4.3}{64}{Probability-based prediction model}{section.4.3}{}}
\@writefile{lof}{\contentsline {figure}{\numberline {4.4}{\ignorespaces Probability distribution for loans with grades A and B\relax }}{65}{figure.caption.60}\protected@file@percent }
\newlabel{fig:ch4:A_B}{{4.4}{65}{Probability distribution for loans with grades A and B\relax }{figure.caption.60}{}}
\newlabel{eq:ch4:probability}{{4.2}{65}{Probability-based prediction model}{equation.4.3.2}{}}
\@writefile{lof}{\contentsline {figure}{\numberline {4.5}{\ignorespaces Probability distribution for loans with grades C and D\relax }}{66}{figure.caption.61}\protected@file@percent }
\newlabel{fig:ch4:C_D}{{4.5}{66}{Probability distribution for loans with grades C and D\relax }{figure.caption.61}{}}
\@writefile{lof}{\contentsline {figure}{\numberline {4.6}{\ignorespaces Probability distribution for loans with grades E and HR\relax }}{67}{figure.caption.62}\protected@file@percent }
\newlabel{fig:ch4:E_HR}{{4.6}{67}{Probability distribution for loans with grades E and HR\relax }{figure.caption.62}{}}
\@writefile{lot}{\contentsline {table}{\numberline {4.2}{\ignorespaces Probability of at least one loan, of any grade, appearing on each day of the week.\relax }}{68}{table.caption.63}\protected@file@percent }
\newlabel{tab:ch4:probability}{{4.2}{68}{Probability of at least one loan, of any grade, appearing on each day of the week.\relax }{table.caption.63}{}}
\acronymused{P2PL}
\@writefile{lot}{\contentsline {table}{\numberline {4.3}{\ignorespaces Expectation of a lender with the appearance probability and the maximum waiting days\relax }}{69}{table.caption.64}\protected@file@percent }
\newlabel{tab:ch4:demands}{{4.3}{69}{Expectation of a lender with the appearance probability and the maximum waiting days\relax }{table.caption.64}{}}
\@writefile{lot}{\contentsline {table}{\numberline {4.4}{\ignorespaces Probability of appearance of AA grade loans on weekdays and the weekday average.\relax }}{70}{table.caption.65}\protected@file@percent }
\newlabel{tab:ch4:paa}{{4.4}{70}{Probability of appearance of AA grade loans on weekdays and the weekday average.\relax }{table.caption.65}{}}
\newlabel{eq:ch4:h0}{{4.3}{70}{Probability-based prediction model}{equation.4.3.3}{}}
\citation{zitzler1999multiobjective}
\@writefile{lot}{\contentsline {table}{\numberline {4.5}{\ignorespaces P-values of t-test between the weekday average probability and the daily probability.\relax }}{71}{table.caption.66}\protected@file@percent }
\newlabel{tab:ch4:pvalue}{{4.5}{71}{P-values of t-test between the weekday average probability and the daily probability.\relax }{table.caption.66}{}}
\newlabel{eq:ch4:conv}{{4.4}{71}{Probability-based prediction model}{equation.4.3.4}{}}
\@writefile{lof}{\contentsline {figure}{\numberline {4.7}{\ignorespaces Probability distribution for AA grade loans over 5 days.\relax }}{72}{figure.caption.67}\protected@file@percent }
\newlabel{fig:ch4:pdf_aa}{{4.7}{72}{Probability distribution for AA grade loans over 5 days.\relax }{figure.caption.67}{}}
\@writefile{lot}{\contentsline {table}{\numberline {4.6}{\ignorespaces Number of loans appearing in $t_{wd} = 5$ days with $p_{apr}=0.9$ appearance probability, for each grade in the historical loan dataset.\relax }}{72}{table.caption.69}\protected@file@percent }
\newlabel{tab:ch4:loans}{{4.6}{72}{Number of loans appearing in $t_{wd} = 5$ days with $p_{apr}=0.9$ appearance probability, for each grade in the historical loan dataset.\relax }{table.caption.69}{}}
\citation{deb2001multi}
\citation{boyd2004convex}
\citation{markowitz1991foundations}
\@writefile{lof}{\contentsline {figure}{\numberline {4.8}{\ignorespaces Cumulative probability distribution for AA grade loans over 5 days. Red star with value (2.6, 0.1) indicates $P(n\geq 2.6) = 0.9$.\relax }}{73}{figure.caption.68}\protected@file@percent }
\newlabel{fig:ch4:cdf_aa}{{4.8}{73}{Cumulative probability distribution for AA grade loans over 5 days. Red star with value (2.6, 0.1) indicates $P(n\geq 2.6) = 0.9$.\relax }{figure.caption.68}{}}
\@writefile{toc}{\contentsline {section}{\numberline {4.4}Return-risk trade-off optimisation and bi-objective optimisation}{73}{section.4.4}\protected@file@percent }
\newlabel{Ch4:optimisation}{{4.4}{73}{Return-risk trade-off optimisation and bi-objective optimisation}{section.4.4}{}}
\citation{sharpe1994sharpe}
\@writefile{toc}{\contentsline {subsection}{\numberline {4.4.1}Return-risk trade-off optimisation}{74}{subsection.4.4.1}\protected@file@percent }
\newlabel{Ch4:return-risk}{{4.4.1}{74}{Return-risk trade-off optimisation}{subsection.4.4.1}{}}
\newlabel{eq:ch4:sp}{{4.5}{74}{Return-risk trade-off optimisation}{equation.4.4.5}{}}
\citation{zitzler1999multiobjective}
\@writefile{lof}{\contentsline {figure}{\numberline {4.9}{\ignorespaces Efficiency frontier for portfolio investment with loans predicted to appear in 5 days\relax }}{75}{figure.caption.70}\protected@file@percent }
\newlabel{fig:ch4:eff}{{4.9}{75}{Efficiency frontier for portfolio investment with loans predicted to appear in 5 days\relax }{figure.caption.70}{}}
\@writefile{lot}{\contentsline {table}{\numberline {4.7}{\ignorespaces Optimal investment portfolio with upcoming loans predicted in the next 5 days with 0.9 appearance probability for a single lender.\relax }}{76}{table.caption.71}\protected@file@percent }
\newlabel{tab:ch4:pid7}{{4.7}{76}{Optimal investment portfolio with upcoming loans predicted in the next 5 days with 0.9 appearance probability for a single lender.\relax }{table.caption.71}{}}
\@writefile{toc}{\contentsline {subsection}{\numberline {4.4.2}Appearance probability and waiting days optimisation}{76}{subsection.4.4.2}\protected@file@percent }
\newlabel{Ch4: biobjects}{{4.4.2}{76}{Appearance probability and waiting days optimisation}{subsection.4.4.2}{}}
\newlabel{model:ch4:bi-object}{{4.6}{76}{Appearance probability and waiting days optimisation}{equation.4.4.6}{}}
\citation{Guo2016417}
\@writefile{lof}{\contentsline {figure}{\numberline {4.10}{\ignorespaces The Pareto optimal solutions with targeted Sharpe ratio 3.0. The first value in the tuple indicates the number of waiting days $t_{wd}$, while the second value indicates the negative of the probability of appearance $-p_{apr}$.\relax }}{77}{figure.caption.72}\protected@file@percent }
\newlabel{fig:ch4:pareto}{{4.10}{77}{The Pareto optimal solutions with targeted Sharpe ratio 3.0. The first value in the tuple indicates the number of waiting days $t_{wd}$, while the second value indicates the negative of the probability of appearance $-p_{apr}$.\relax }{figure.caption.72}{}}
\newlabel{eq:ch4:ap_ratio}{{4.7}{77}{}{equation.4.4.7}{}}
\@writefile{lof}{\contentsline {figure}{\numberline {4.11}{\ignorespaces The probability distribution of the Sharpe ratio obtained by applying the instance-based technique. \relax }}{78}{figure.caption.73}\protected@file@percent }
\newlabel{fig:ch4:sharpe}{{4.11}{78}{The probability distribution of the Sharpe ratio obtained by applying the instance-based technique. \relax }{figure.caption.73}{}}
\citation{Guo2016417}
\citation{Guo2016417}
\citation{hastings1970monte}
\citation{Guo2016417}
\citation{Guo2016417}
\@writefile{lot}{\contentsline {table}{\numberline {4.8}{\ignorespaces Portfolio of investment, looking 4 days into the future, with 70\% appearance probability and Sharpe ratio 3.0.\relax }}{79}{table.caption.74}\protected@file@percent }
\newlabel{tab:ch4:port}{{4.8}{79}{Portfolio of investment, looking 4 days into the future, with 70\% appearance probability and Sharpe ratio 3.0.\relax }{table.caption.74}{}}
\@writefile{toc}{\contentsline {section}{\numberline {4.5}Experimental results}{79}{section.4.5}\protected@file@percent }
\newlabel{Ch4:experimental result}{{4.5}{79}{Experimental results}{section.4.5}{}}
\@writefile{toc}{\contentsline {subsection}{\numberline {4.5.1}Investing by using the current state-of-the-art model}{79}{subsection.4.5.1}\protected@file@percent }
\newlabel{Ch4:result current}{{4.5.1}{79}{Investing by using the current state-of-the-art model}{subsection.4.5.1}{}}
\acronymused{P2PL}
\citation{Guo2016417}
\@writefile{lot}{\contentsline {table}{\numberline {4.9}{\ignorespaces Sharpe ratio of the worst case, best case, and general case within the test dataset, obtained by applying the instance-based portfolio optimisation technique.\relax }}{80}{table.caption.75}\protected@file@percent }
\newlabel{tab:ch4:cases}{{4.9}{80}{Sharpe ratio of the worst case, best case, and general case within the test dataset, obtained by applying the instance-based portfolio optimisation technique.\relax }{table.caption.75}{}}
\@writefile{toc}{\contentsline {subsection}{\numberline {4.5.2}Investing by applying the proposed model}{80}{subsection.4.5.2}\protected@file@percent }
\newlabel{Ch4:result proposed}{{4.5.2}{80}{Investing by applying the proposed model}{subsection.4.5.2}{}}
\@writefile{lot}{\contentsline {table}{\numberline {4.10}{\ignorespaces The appearance probability and waiting days that are obtained by applying the proposed method and the instance-based method to achieve a Sharpe ratio of least 3.0.\relax }}{81}{table.caption.76}\protected@file@percent }
\newlabel{tab:ch4:best}{{4.10}{81}{The appearance probability and waiting days that are obtained by applying the proposed method and the instance-based method to achieve a Sharpe ratio of least 3.0.\relax }{table.caption.76}{}}
\@writefile{lot}{\contentsline {table}{\numberline {4.11}{\ignorespaces The appearance probability and waiting days that are obtained by applying the proposed method and the instance-based method to achieve the Sharpe ratio of at least 1.0.\relax }}{81}{table.caption.77}\protected@file@percent }
\newlabel{tab:ch4:general}{{4.11}{81}{The appearance probability and waiting days that are obtained by applying the proposed method and the instance-based method to achieve the Sharpe ratio of at least 1.0.\relax }{table.caption.77}{}}
\@writefile{lof}{\contentsline {figure}{\numberline {4.12}{\ignorespaces The Sharpe ratio obtained corresponding to the number of waiting days by applying the proposed model with 0.9 appearance probability.\relax }}{81}{figure.caption.78}\protected@file@percent }
\newlabel{fig:ch4:day_sharpe}{{4.12}{81}{The Sharpe ratio obtained corresponding to the number of waiting days by applying the proposed model with 0.9 appearance probability.\relax }{figure.caption.78}{}}
\@writefile{toc}{\contentsline {subsection}{\numberline {4.5.3}Comparison with historical data}{82}{subsection.4.5.3}\protected@file@percent }
\newlabel{Ch4: comp}{{4.5.3}{82}{Comparison with historical data}{subsection.4.5.3}{}}
\AC@undonewlabel{acro:ARR}
\newlabel{acro:ARR}{{4.5.3}{82}{Comparison with historical data}{section*.79}{}}
\acronymused{ARR}
\acronymused{ARR}
\AC@undonewlabel{acro:RMSE}
\newlabel{acro:RMSE}{{4.5.3}{82}{Comparison with historical data}{section*.80}{}}
\acronymused{RMSE}
\newlabel{eq:ch4:rmse}{{4.8}{82}{Comparison with historical data}{equation.4.5.8}{}}
\acronymused{ARR}
\acronymused{ARR}
\acronymused{RMSE}
\acronymused{ARR}
\acronymused{ARR}
\acronymused{RMSE}
\@writefile{lot}{\contentsline {table}{\numberline {4.12}{\ignorespaces The average annualised return rates (ARR) and their root mean square (RMSE) errors compared to the historical ARR.\relax }}{83}{table.caption.81}\protected@file@percent }
\newlabel{tab:ch4:historical}{{4.12}{83}{The average annualised return rates (ARR) and their root mean square (RMSE) errors compared to the historical ARR.\relax }{table.caption.81}{}}
\acronymused{RMSE}
\acronymused{ARR}
\@writefile{lot}{\contentsline {table}{\numberline {4.13}{\ignorespaces T-test between the results (the annualised return rate and RMSE) by applying the proposed method and the instanced-based method with null hypothesis that they have the same mean value\relax }}{83}{table.caption.82}\protected@file@percent }
\newlabel{tab:ttest}{{4.13}{83}{T-test between the results (the annualised return rate and RMSE) by applying the proposed method and the instanced-based method with null hypothesis that they have the same mean value\relax }{table.caption.82}{}}
\@writefile{toc}{\contentsline {section}{\numberline {4.6}Discussion}{83}{section.4.6}\protected@file@percent }
\newlabel{Ch4:discusssion}{{4.6}{83}{Discussion}{section.4.6}{}}
\acronymused{P2PL}
\acronymused{P2PL}
\@setckpt{Chapters/Chapter4/Chapter4}{
\setcounter{page}{85}
\setcounter{equation}{8}
\setcounter{enumi}{3}
\setcounter{enumii}{0}
\setcounter{enumiii}{0}
\setcounter{enumiv}{0}
\setcounter{footnote}{5}
\setcounter{mpfootnote}{0}
\setcounter{part}{0}
\setcounter{chapter}{4}
\setcounter{section}{6}
\setcounter{subsection}{0}
\setcounter{subsubsection}{0}
\setcounter{paragraph}{0}
\setcounter{subparagraph}{0}
\setcounter{figure}{12}
\setcounter{table}{13}
\setcounter{@pps}{0}
\setcounter{@ppsavesec}{0}
\setcounter{@ppsaveapp}{0}
\setcounter{NAT@ctr}{0}
\setcounter{Item}{68}
\setcounter{Hfootnote}{23}
\setcounter{bookmark@seq@number}{60}
\setcounter{AM@survey}{0}
\setcounter{caption@flags}{2}
\setcounter{continuedfloat}{0}
\setcounter{subfigure}{0}
\setcounter{subtable}{0}
\setcounter{parentequation}{0}
\setcounter{LT@tables}{0}
\setcounter{LT@chunks}{0}
\setcounter{section@level}{0}
}
