\relax 
\providecommand\hyper@newdestlabel[2]{}
\citation{morduch1999microfinance,Conlin1999249}
\citation{malekipirbazari2015risk,serrano2015determinants,tsai2014peer,cui2016p2p}
\citation{Guo2016417,ren2019investment,zhao2016portfolio,zhang2020personalized}
\citation{Guo2016417,ren2019investment}
\@writefile{toc}{\contentsline {chapter}{\numberline {5}Recommendation system for multiple lenders}{85}{chapter.5}\protected@file@percent }
\@writefile{lof}{\addvspace {10\p@ }}
\@writefile{lot}{\addvspace {10\p@ }}
\newlabel{Ch5}{{5}{85}{Recommendation system for multiple lenders}{chapter.5}{}}
\acronymused{P2PL}
\acronymused{P2PL}
\acronymused{P2PL}
\citation{Klafft20080714}
\citation{Guo2016417,ren2019investment}
\citation{elahi2014mean}
\citation{markowitz1991foundations}
\citation{yang2013multi}
\citation{cournot1897researches}
\citation{markowitz1991foundations}
\citation{babaei2020multi}
\citation{babaei2020neural}
\citation{zhao2016portfolio}
\citation{zhang2020personalized}
\citation{zhang2020personalized}
\citation{zhao2016portfolio,zhang2020personalized}
\@writefile{toc}{\contentsline {section}{\numberline {5.1}Introduction}{86}{section.5.1}\protected@file@percent }
\newlabel{Ch5:Introduction}{{5.1}{86}{Introduction}{section.5.1}{}}
\acronymused{P2PL}
\acronymused{P2PL}
\citation{markowitz1991foundations}
\citation{guerard2009handbook,elahi2014mean}
\acronymused{P2PL}
\acronymused{P2PL}
\acronymused{P2PL}
\acronymused{P2PL}
\@writefile{toc}{\contentsline {section}{\numberline {5.2}Modern portfolio models}{87}{section.5.2}\protected@file@percent }
\newlabel{Ch5: Modern portfolio models}{{5.2}{87}{Modern portfolio models}{section.5.2}{}}
\citation{markowitz1991foundations}
\newlabel{model:mmv}{{5.1}{88}{Modern portfolio models}{equation.5.2.1}{}}
\acronymused{P2PL}
\acronymused{P2PL}
\citation{malekipirbazari2015risk,Lyer200908}
\citation{sharpe1994sharpe}
\@writefile{lof}{\contentsline {figure}{\numberline {5.1}{\ignorespaces The overall proposed methodology.\relax }}{89}{figure.caption.83}\protected@file@percent }
\newlabel{fig: Ch5: overall}{{5.1}{89}{The overall proposed methodology.\relax }{figure.caption.83}{}}
\acronymused{P2PL}
\acronymused{P2PL}
\acronymused{P2PL}
\acronymused{RF}
\acronymused{LOGIT}
\acronymused{P2PL}
\acronymused{P2PL}
\citation{ren2019recommendation}
\@writefile{toc}{\contentsline {section}{\numberline {5.3}Data analysis and predictive model selection}{90}{section.5.3}\protected@file@percent }
\newlabel{Ch5: Data and Model}{{5.3}{90}{Data analysis and predictive model selection}{section.5.3}{}}
\@writefile{toc}{\contentsline {subsection}{\numberline {5.3.1}Data analysis}{90}{subsection.5.3.1}\protected@file@percent }
\newlabel{Ch5: Data}{{5.3.1}{90}{Data analysis}{subsection.5.3.1}{}}
\@writefile{toc}{\contentsline {subsection}{\numberline {5.3.2}Predictive model selection}{90}{subsection.5.3.2}\protected@file@percent }
\newlabel{Ch5: predictive models}{{5.3.2}{90}{Predictive model selection}{subsection.5.3.2}{}}
\acronymused{RF}
\acronymused{LOGIT}
\@writefile{lot}{\contentsline {table}{\numberline {5.1}{\ignorespaces Features and response variable description\relax }}{91}{table.caption.84}\protected@file@percent }
\newlabel{table: Ch5: fe}{{5.1}{91}{Features and response variable description\relax }{table.caption.84}{}}
\acronymused{RF}
\acronymused{LOGIT}
\acronymused{LOGIT}
\acronymused{RF}
\acronymused{TPR}
\acronymused{TNR}
\@writefile{toc}{\contentsline {section}{\numberline {5.4}Weighted Multi-lender portfolio integer optimisation problems}{91}{section.5.4}\protected@file@percent }
\newlabel{Ch5: multi-portf-integ}{{5.4}{91}{Weighted Multi-lender portfolio integer optimisation problems}{section.5.4}{}}
\@writefile{toc}{\contentsline {subsection}{\numberline {5.4.1}The generic weighted optimisation model}{92}{subsection.5.4.1}\protected@file@percent }
\newlabel{Ch5: generic model}{{5.4.1}{92}{The generic weighted optimisation model}{subsection.5.4.1}{}}
\newlabel{Model:weight}{{5.2}{92}{The generic weighted optimisation model}{equation.5.4.2}{}}
\@writefile{lot}{\contentsline {table}{\numberline {5.2}{\ignorespaces Information about loans available to invest in the marketplace\relax }}{93}{table.caption.85}\protected@file@percent }
\newlabel{tab:ch5: loan}{{5.2}{93}{Information about loans available to invest in the marketplace\relax }{table.caption.85}{}}
\@writefile{lot}{\contentsline {table}{\numberline {5.3}{\ignorespaces Lenders' expectation on return rate, risk tolerance and amount of investment\relax }}{93}{table.caption.86}\protected@file@percent }
\newlabel{tab: ch5: lender}{{5.3}{93}{Lenders' expectation on return rate, risk tolerance and amount of investment\relax }{table.caption.86}{}}
\acronymused{P2PL}
\@writefile{toc}{\contentsline {subsection}{\numberline {5.4.2}Portfolio risk linearisation}{94}{subsection.5.4.2}\protected@file@percent }
\newlabel{Ch5: Risk linearisation}{{5.4.2}{94}{Portfolio risk linearisation}{subsection.5.4.2}{}}
\newlabel{eq:ch5:risk}{{5.3}{94}{Portfolio risk linearisation}{equation.5.4.3}{}}
\acronymused{LOGIT}
\acronymused{RF}
\newlabel{eq: ch5: linear1}{{5.4}{94}{Portfolio risk linearisation}{equation.5.4.4}{}}
\newlabel{eq: ch5: linear2}{{5.5}{95}{Portfolio risk linearisation}{equation.5.4.5}{}}
\@writefile{toc}{\contentsline {subsection}{\numberline {5.4.3}Individual and global constraints}{95}{subsection.5.4.3}\protected@file@percent }
\newlabel{Ch5: constraints}{{5.4.3}{95}{Individual and global constraints}{subsection.5.4.3}{}}
\acronymused{P2PL}
\acronymused{P2PL}
\acronymused{RF}
\acronymused{LOGIT}
\acronymused{P2PL}
\@writefile{toc}{\contentsline {subsection}{\numberline {5.4.4}Weighted multi-lender portfolio integer optimisation model}{97}{subsection.5.4.4}\protected@file@percent }
\newlabel{Ch5: completed model}{{5.4.4}{97}{Weighted multi-lender portfolio integer optimisation model}{subsection.5.4.4}{}}
\acronymused{P2PL}
\citation{sharpe1994sharpe}
\citation{sharpe1994sharpe}
\citation{sharpe1994sharpe}
\newlabel{Model:I}{{5.6}{98}{Weighted multi-lender portfolio integer optimisation model}{equation.5.4.6}{}}
\acronymused{P2PL}
\acronymused{P2PL}
\citation{sortino1994performance}
\citation{reilly2002investment}
\@writefile{lof}{\contentsline {figure}{\numberline {5.2}{\ignorespaces Pareto-optimal frontier of the investment portfolios obtained by solving model\nobreakspace  {}(\ref {Model:I}) where the portfolio return is computed by $\sum _{j \in J} \mu ^{T}w_{j}$ and the portfolio risk is computed by $\sum _{j \in J} r_{j}$.\relax }}{99}{figure.caption.87}\protected@file@percent }
\newlabel{fig:ch5:efff}{{5.2}{99}{Pareto-optimal frontier of the investment portfolios obtained by solving model~(\ref {Model:I}) where the portfolio return is computed by $\sum _{j \in J} \mu ^{T}w_{j}$ and the portfolio risk is computed by $\sum _{j \in J} r_{j}$.\relax }{figure.caption.87}{}}
\@writefile{toc}{\contentsline {subsection}{\numberline {5.4.5}Metric to identify a preferred investment portfolio}{99}{subsection.5.4.5}\protected@file@percent }
\newlabel{eq:ch5:sp}{{5.7}{99}{Metric to identify a preferred investment portfolio}{equation.5.4.7}{}}
\citation{zhao2016portfolio}
\citation{zhao2016portfolio}
\citation{zhao2016portfolio}
\citation{zhao2016portfolio}
\@writefile{lot}{\contentsline {table}{\numberline {5.4}{\ignorespaces Resultant investment portfolio together with portfolio return rate and risk obtained by solving the model\nobreakspace  {}(\ref {Model:I}) and equation\nobreakspace  {}(\ref {eq:ch5:sp})\relax }}{100}{table.caption.88}\protected@file@percent }
\newlabel{tab:ch5:out1p}{{5.4}{100}{Resultant investment portfolio together with portfolio return rate and risk obtained by solving the model~(\ref {Model:I}) and equation~(\ref {eq:ch5:sp})\relax }{table.caption.88}{}}
\@writefile{toc}{\contentsline {section}{\numberline {5.5}Comparison of building an investment portfolio for multiple lenders independently vis-a-vis simultaneously}{100}{section.5.5}\protected@file@percent }
\newlabel{Ch5: indVssim}{{5.5}{100}{Comparison of building an investment portfolio for multiple lenders independently vis-a-vis simultaneously}{section.5.5}{}}
\citation{zhao2016portfolio}
\citation{zhao2016portfolio}
\citation{zhao2016portfolio}
\@writefile{toc}{\contentsline {subsection}{\numberline {5.5.1}Model to build an investment portfolio for multiple lenders independently}{101}{subsection.5.5.1}\protected@file@percent }
\newlabel{sec:evpm}{{5.5.1}{101}{Model to build an investment portfolio for multiple lenders independently}{subsection.5.5.1}{}}
\newlabel{eq:ch5:indep}{{5.8}{101}{Model to build an investment portfolio for multiple lenders independently}{equation.5.5.8}{}}
\newlabel{Model:wmi}{{5.9}{102}{Model to build an investment portfolio for multiple lenders independently}{equation.5.5.9}{}}
\@writefile{toc}{\contentsline {subsection}{\numberline {5.5.2}A numerical example of finding investment portfolios for multiple lenders independently and simultaneously}{103}{subsection.5.5.2}\protected@file@percent }
\newlabel{sec:idvssm}{{5.5.2}{103}{A numerical example of finding investment portfolios for multiple lenders independently and simultaneously}{subsection.5.5.2}{}}
\acronymused{P2PL}
\@writefile{lot}{\contentsline {table}{\numberline {5.5}{\ignorespaces Information of two loans available to invest in the marketplace\relax }}{103}{table.caption.89}\protected@file@percent }
\newlabel{tab:ch5:loan2}{{5.5}{103}{Information of two loans available to invest in the marketplace\relax }{table.caption.89}{}}
\@writefile{lot}{\contentsline {table}{\numberline {5.6}{\ignorespaces Two lender's expectation on return rate, risk and amount of investment\relax }}{104}{table.caption.90}\protected@file@percent }
\newlabel{tab:ch5:lender2}{{5.6}{104}{Two lender's expectation on return rate, risk and amount of investment\relax }{table.caption.90}{}}
\acronymused{P2PL}
\@writefile{lot}{\contentsline {table}{\numberline {5.7}{\ignorespaces Preferred investment portfolio for Lender 1 obtained by solving the model\nobreakspace  {}(\ref {Model:wmi}) and equation\nobreakspace  {}(\ref {eq:ch5:sp})\relax }}{104}{table.caption.91}\protected@file@percent }
\newlabel{tab:ch5:out2}{{5.7}{104}{Preferred investment portfolio for Lender 1 obtained by solving the model~(\ref {Model:wmi}) and equation~(\ref {eq:ch5:sp})\relax }{table.caption.91}{}}
\citation{ren2019investment,Guo2016417}
\@writefile{lot}{\contentsline {table}{\numberline {5.8}{\ignorespaces Preferred investment portfolio for 2 lenders obtained by solving the model\nobreakspace  {}(\ref {Model:I}) and equation\nobreakspace  {}(\ref {eq:ch5:sp})\relax }}{105}{table.caption.92}\protected@file@percent }
\newlabel{tab:ch5:out3}{{5.8}{105}{Preferred investment portfolio for 2 lenders obtained by solving the model~(\ref {Model:I}) and equation~(\ref {eq:ch5:sp})\relax }{table.caption.92}{}}
\@writefile{toc}{\contentsline {section}{\numberline {5.6}Experimental Results}{105}{section.5.6}\protected@file@percent }
\newlabel{Ch5: Experiment}{{5.6}{105}{Experimental Results}{section.5.6}{}}
\acronymused{RF}
\acronymused{LOGIT}
\acronymused{P2PL}
\@writefile{toc}{\contentsline {subsection}{\numberline {5.6.1}Predictive models comparison}{105}{subsection.5.6.1}\protected@file@percent }
\newlabel{Ch5: model selection}{{5.6.1}{105}{Predictive models comparison}{subsection.5.6.1}{}}
\acronymused{LOGIT}
\acronymused{RF}
\acronymused{LOGIT}
\acronymused{RF}
\acronymused{TPR}
\acronymused{TNR}
\acronymused{LOGIT}
\acronymused{RF}
\acronymused{RF}
\acronymused{LOGIT}
\acronymused{RF}
\acronymused{LOGIT}
\citation{gurobi}
\@writefile{lot}{\contentsline {table}{\numberline {5.9}{\ignorespaces Results of LOGIT for five sample datasets with three measures: total accuracy, \acf {TPR} and \acf {TNR}\relax }}{106}{table.caption.93}\protected@file@percent }
\acronymused{TPR}
\acronymused{TNR}
\newlabel{tab:ch5:lg}{{5.9}{106}{Results of LOGIT for five sample datasets with three measures: total accuracy, \acf {TPR} and \acf {TNR}\relax }{table.caption.93}{}}
\@writefile{lot}{\contentsline {table}{\numberline {5.10}{\ignorespaces Results of RF for five sample datasets with three measures: total accuracy, \acf {TPR} and \acf {TNR}\relax }}{106}{table.caption.94}\protected@file@percent }
\acronymused{TPR}
\acronymused{TNR}
\newlabel{tab:ch5:RF}{{5.10}{106}{Results of RF for five sample datasets with three measures: total accuracy, \acf {TPR} and \acf {TNR}\relax }{table.caption.94}{}}
\acronymused{RF}
\acronymused{LOGIT}
\acronymused{LOGIT}
\acronymused{RF}
\acronymused{LOGIT}
\acronymused{RF}
\@writefile{toc}{\contentsline {subsection}{\numberline {5.6.2}Efficacy of the proposed technique}{106}{subsection.5.6.2}\protected@file@percent }
\newlabel{Ch5: Efficay technique}{{5.6.2}{106}{Efficacy of the proposed technique}{subsection.5.6.2}{}}
\AC@undonewlabel{acro:ILP}
\newlabel{acro:ILP}{{5.6.2}{106}{}{section*.95}{}}
\acronymused{ILP}
\acronymused{P2PL}
\@writefile{lof}{\contentsline {figure}{\numberline {5.3}{\ignorespaces Work-flow to obtain the average return rate and risk for portfolios obtained from different optimisation models\relax }}{107}{figure.caption.96}\protected@file@percent }
\newlabel{fig:ch5:setup}{{5.3}{107}{Work-flow to obtain the average return rate and risk for portfolios obtained from different optimisation models\relax }{figure.caption.96}{}}
\citation{Guo2016417}
\citation{ren2019investment}
\citation{markowitz1991foundations}
\citation{ren2019investment}
\acronymused{RF}
\newlabel{eq:ch5:port_R}{{5.10}{108}{}{equation.5.6.10}{}}
\newlabel{eq:ch5:port_rk}{{5.11}{108}{}{equation.5.6.11}{}}
\newlabel{eq:ch5:port_rk2}{{5.12}{108}{}{equation.5.6.12}{}}
\newlabel{Model:state-of-the-art}{{5.13}{109}{}{equation.5.6.13}{}}
\@writefile{lof}{\contentsline {figure}{\numberline {5.4}{\ignorespaces Execution time comparison between the proposed model (\ref {Model:I}) and the model (\ref {Model:state-of-the-art})\relax }}{110}{figure.caption.97}\protected@file@percent }
\newlabel{fig:ch5:time}{{5.4}{110}{Execution time comparison between the proposed model (\ref {Model:I}) and the model (\ref {Model:state-of-the-art})\relax }{figure.caption.97}{}}
\acronymused{P2PL}
\acronymused{P2PL}
\@writefile{lot}{\contentsline {table}{\numberline {5.11}{\ignorespaces Prediction time and solver used execution time in seconds of the proposed model (\ref {Model:I}) and the model (\ref {Model:state-of-the-art}) with three lenders\relax }}{111}{table.caption.98}\protected@file@percent }
\newlabel{tab:ch5:time1}{{5.11}{111}{Prediction time and solver used execution time in seconds of the proposed model (\ref {Model:I}) and the model (\ref {Model:state-of-the-art}) with three lenders\relax }{table.caption.98}{}}
\acronymused{P2PL}
\@writefile{lof}{\contentsline {figure}{\numberline {5.5}{\ignorespaces The average portfolio return rates achieved by solving the proposed model\nobreakspace  {}(\ref {Model:I}) and the model\nobreakspace  {}(\ref {Model:state-of-the-art}) with three lenders for 20 loans scenarios\relax }}{112}{figure.caption.99}\protected@file@percent }
\newlabel{fig:ch5:3ls}{{5.5}{112}{The average portfolio return rates achieved by solving the proposed model~(\ref {Model:I}) and the model~(\ref {Model:state-of-the-art}) with three lenders for 20 loans scenarios\relax }{figure.caption.99}{}}
\@writefile{lof}{\contentsline {figure}{\numberline {5.6}{\ignorespaces The average portfolio risk of default obtained by solving the proposed model\nobreakspace  {}(\ref {Model:I}) and the model\nobreakspace  {}(\ref {Model:state-of-the-art}) with three lenders\relax }}{113}{figure.caption.100}\protected@file@percent }
\newlabel{fig:ch5:3risk}{{5.6}{113}{The average portfolio risk of default obtained by solving the proposed model~(\ref {Model:I}) and the model~(\ref {Model:state-of-the-art}) with three lenders\relax }{figure.caption.100}{}}
\@writefile{lot}{\contentsline {table}{\numberline {5.12}{\ignorespaces T-test between the results (the average portfolio return rate, portfolio risk and portfolio variance) of 20 scenarios by applying the model\nobreakspace  {}(\ref {Model:I}) and the model\nobreakspace  {}(\ref {Model:state-of-the-art}) with null hypothesis that they have the same mean value\relax }}{113}{table.caption.102}\protected@file@percent }
\newlabel{tab:ttestmv}{{5.12}{113}{T-test between the results (the average portfolio return rate, portfolio risk and portfolio variance) of 20 scenarios by applying the model~(\ref {Model:I}) and the model~(\ref {Model:state-of-the-art}) with null hypothesis that they have the same mean value\relax }{table.caption.102}{}}
\citation{Guo2016417}
\@writefile{lof}{\contentsline {figure}{\numberline {5.7}{\ignorespaces The average portfolio variance obtained by solving the proposed model\nobreakspace  {}(\ref {Model:I}) and the model\nobreakspace  {}(\ref {Model:state-of-the-art}) with three lenders\relax }}{114}{figure.caption.101}\protected@file@percent }
\newlabel{fig:ch5:3riskv}{{5.7}{114}{The average portfolio variance obtained by solving the proposed model~(\ref {Model:I}) and the model~(\ref {Model:state-of-the-art}) with three lenders\relax }{figure.caption.101}{}}
\citation{Guo2016417}
\citation{Guo2016417}
\newlabel{Model:state-of-art2}{{5.14}{115}{}{equation.5.6.14}{}}
\@writefile{lof}{\contentsline {figure}{\numberline {5.8}{\ignorespaces Execution time (in seconds) comparison between the proposed model (\ref {Model:I}) and the model (\ref {Model:state-of-art2})\relax }}{116}{figure.caption.103}\protected@file@percent }
\newlabel{fig:ch5:time2}{{5.8}{116}{Execution time (in seconds) comparison between the proposed model (\ref {Model:I}) and the model (\ref {Model:state-of-art2})\relax }{figure.caption.103}{}}
\acronymused{P2PL}
\@writefile{lot}{\contentsline {table}{\numberline {5.13}{\ignorespaces Prediction time and solver execution time in seconds of the proposed model (\ref {Model:I}) and model (\ref {Model:state-of-art2}) with 1,000 loans training data set.\relax }}{116}{table.caption.104}\protected@file@percent }
\newlabel{tab:ch5:time2}{{5.13}{116}{Prediction time and solver execution time in seconds of the proposed model (\ref {Model:I}) and model (\ref {Model:state-of-art2}) with 1,000 loans training data set.\relax }{table.caption.104}{}}
\@writefile{lof}{\contentsline {figure}{\numberline {5.9}{\ignorespaces The average portfolio return rates achieved by solving the proposed model\nobreakspace  {}(\ref {Model:I}) and the model\nobreakspace  {}(\ref {Model:state-of-art2}) with three lenders\relax }}{118}{figure.caption.105}\protected@file@percent }
\newlabel{fig:ch5:3rsm}{{5.9}{118}{The average portfolio return rates achieved by solving the proposed model~(\ref {Model:I}) and the model~(\ref {Model:state-of-art2}) with three lenders\relax }{figure.caption.105}{}}
\@writefile{lot}{\contentsline {table}{\numberline {5.14}{\ignorespaces T-test between the results (the average portfolio return rate, portfolio risk and portfolio variance) of 20 scenarios by applying the model\nobreakspace  {}(\ref {Model:I}) and the model\nobreakspace  {}(\ref {Model:state-of-art2}) with null hypothesis that they have the same mean value\relax }}{118}{table.caption.108}\protected@file@percent }
\newlabel{tab:ttestib}{{5.14}{118}{T-test between the results (the average portfolio return rate, portfolio risk and portfolio variance) of 20 scenarios by applying the model~(\ref {Model:I}) and the model~(\ref {Model:state-of-art2}) with null hypothesis that they have the same mean value\relax }{table.caption.108}{}}
\@writefile{lof}{\contentsline {figure}{\numberline {5.10}{\ignorespaces The average portfolio risk of default obtained by solving the model\nobreakspace  {}(\ref {Model:I}) and the model\nobreakspace  {}(\ref {Model:state-of-art2}) with three enders\relax }}{119}{figure.caption.106}\protected@file@percent }
\newlabel{fig:ch5:3risk2}{{5.10}{119}{The average portfolio risk of default obtained by solving the model~(\ref {Model:I}) and the model~(\ref {Model:state-of-art2}) with three enders\relax }{figure.caption.106}{}}
\@writefile{lof}{\contentsline {figure}{\numberline {5.11}{\ignorespaces The average portfolio variance obtained by solving the model\nobreakspace  {}(\ref {Model:I}) and the model\nobreakspace  {}(\ref {Model:state-of-art2}) with three enders\relax }}{120}{figure.caption.107}\protected@file@percent }
\newlabel{fig:ch5:3riskv2}{{5.11}{120}{The average portfolio variance obtained by solving the model~(\ref {Model:I}) and the model~(\ref {Model:state-of-art2}) with three enders\relax }{figure.caption.107}{}}
\@writefile{toc}{\contentsline {section}{\numberline {5.7}Discussion}{120}{section.5.7}\protected@file@percent }
\newlabel{Ch5: Discussion}{{5.7}{120}{Discussion}{section.5.7}{}}
\acronymused{P2PL}
\acronymused{P2PL}
\acronymused{RF}
\acronymused{RF}
\acronymused{LOGIT}
\acronymused{P2PL}
\acronymused{P2PL}
\acronymused{P2PL}
\@setckpt{Chapters/Chapter5/Chapter5}{
\setcounter{page}{122}
\setcounter{equation}{14}
\setcounter{enumi}{3}
\setcounter{enumii}{0}
\setcounter{enumiii}{0}
\setcounter{enumiv}{0}
\setcounter{footnote}{10}
\setcounter{mpfootnote}{0}
\setcounter{part}{0}
\setcounter{chapter}{5}
\setcounter{section}{7}
\setcounter{subsection}{0}
\setcounter{subsubsection}{0}
\setcounter{paragraph}{0}
\setcounter{subparagraph}{0}
\setcounter{figure}{11}
\setcounter{table}{14}
\setcounter{@pps}{0}
\setcounter{@ppsavesec}{0}
\setcounter{@ppsaveapp}{0}
\setcounter{NAT@ctr}{0}
\setcounter{Item}{99}
\setcounter{Hfootnote}{33}
\setcounter{bookmark@seq@number}{79}
\setcounter{AM@survey}{0}
\setcounter{caption@flags}{2}
\setcounter{continuedfloat}{0}
\setcounter{subfigure}{0}
\setcounter{subtable}{0}
\setcounter{parentequation}{0}
\setcounter{LT@tables}{0}
\setcounter{LT@chunks}{0}
\setcounter{section@level}{0}
}
