\relax 
\providecommand\hyper@newdestlabel[2]{}
\citation{Guo2016417,ren2019investment,babaei2020multi}
\citation{berger2010emergence}
\citation{tsai2014peer,cui2016p2p,serrano2015determinants}
\citation{malekipirbazari2015risk}
\@writefile{toc}{\contentsline {chapter}{\numberline {3}Feature selection and likelihood of default prediction}{31}{chapter.3}\protected@file@percent }
\@writefile{lof}{\addvspace {10\p@ }}
\@writefile{lot}{\addvspace {10\p@ }}
\newlabel{Ch3:Feature selection}{{3}{31}{Feature selection and likelihood of default prediction}{chapter.3}{}}
\acronymused{P2PL}
\@writefile{toc}{\contentsline {section}{\numberline {3.1}Introduction}{31}{section.3.1}\protected@file@percent }
\newlabel{Ch3: Introduction}{{3.1}{31}{Introduction}{section.3.1}{}}
\acronymused{P2PL}
\citation{malekipirbazari2015risk}
\citation{tsai2014peer}
\citation{berger2010emergence}
\citation{bastani2019wide}
\citation{babaei2020multi}
\citation{chen2021predicting}
\citation{chen2021predicting}
\acronymused{P2PL}
\citation{malekipirbazari2015risk}
\@writefile{toc}{\contentsline {section}{\numberline {3.2}Data distribution}{33}{section.3.2}\protected@file@percent }
\newlabel{Ch3: Data distribution}{{3.2}{33}{Data distribution}{section.3.2}{}}
\@writefile{lof}{\contentsline {figure}{\numberline {3.1}{\ignorespaces The probability distribution histograms\nobreakspace  {}\relax }}{34}{figure.caption.26}\protected@file@percent }
\newlabel{fig:hist_1}{{3.1}{34}{The probability distribution histograms~\relax }{figure.caption.26}{}}
\@writefile{lof}{\contentsline {figure}{\numberline {3.2}{\ignorespaces The probability distribution histograms cont.\nobreakspace  {}\relax }}{35}{figure.caption.27}\protected@file@percent }
\newlabel{fig:hist_2}{{3.2}{35}{The probability distribution histograms cont.~\relax }{figure.caption.27}{}}
\citation{harris2010digital}
\citation{stevens1946theory}
\citation{micci2001preprocessing}
\citation{harris2010digital}
\newlabel{eq:corr}{{3.1}{36}{Data distribution}{equation.3.2.1}{}}
\@writefile{toc}{\contentsline {section}{\numberline {3.3}Encoding of categorical features}{36}{section.3.3}\protected@file@percent }
\newlabel{Ch3: Encoding}{{3.3}{36}{Encoding of categorical features}{section.3.3}{}}
\@writefile{lof}{\contentsline {figure}{\numberline {3.3}{\ignorespaces The heat map of Pearson's correlations between each individual features (total 38 features) and the borrower status (defaulting or non-defaulting). The categorical features are transferred by using the ordinal encoding technique in this figure.\nobreakspace  {}\relax }}{37}{figure.caption.28}\protected@file@percent }
\newlabel{fig:heat}{{3.3}{37}{The heat map of Pearson's correlations between each individual features (total 38 features) and the borrower status (defaulting or non-defaulting). The categorical features are transferred by using the ordinal encoding technique in this figure.~\relax }{figure.caption.28}{}}
\@writefile{toc}{\contentsline {subsection}{\numberline {3.3.1}The one-hot encoding technique}{37}{subsection.3.3.1}\protected@file@percent }
\newlabel{Ch3: one-hot}{{3.3.1}{37}{The one-hot encoding technique}{subsection.3.3.1}{}}
\citation{malekipirbazari2015risk}
\citation{stevens1946theory}
\@writefile{lof}{\contentsline {figure}{\numberline {3.4}{\ignorespaces The information gain of 85 features (37 original features and 48 new dummy features that transferred from `Borrower State' by applying the one-hot encoding technique). The original features are noted as `1' and the new dummy features are noted as `0' in the figure.\nobreakspace  {}\relax }}{38}{figure.caption.29}\protected@file@percent }
\newlabel{fig:dummy}{{3.4}{38}{The information gain of 85 features (37 original features and 48 new dummy features that transferred from `Borrower State' by applying the one-hot encoding technique). The original features are noted as `1' and the new dummy features are noted as `0' in the figure.~\relax }{figure.caption.29}{}}
\citation{micci2001preprocessing}
\@writefile{toc}{\contentsline {subsection}{\numberline {3.3.2}The ordinal encoding technique}{39}{subsection.3.3.2}\protected@file@percent }
\newlabel{Ch3: Ordinal}{{3.3.2}{39}{The ordinal encoding technique}{subsection.3.3.2}{}}
\@writefile{toc}{\contentsline {subsection}{\numberline {3.3.3}Likelihood encoding}{39}{subsection.3.3.3}\protected@file@percent }
\newlabel{Ch3: likelihood encoding}{{3.3.3}{39}{Likelihood encoding}{subsection.3.3.3}{}}
\acronymused{P2PL}
\@writefile{toc}{\contentsline {subsection}{\numberline {3.3.4}Encode the categorical features by applying suitable encoding techniques}{40}{subsection.3.3.4}\protected@file@percent }
\newlabel{Ch3: Selection}{{3.3.4}{40}{Encode the categorical features by applying suitable encoding techniques}{subsection.3.3.4}{}}
\@writefile{lot}{\contentsline {table}{\numberline {3.1}{\ignorespaces Encoding techniques used for different categorical features\relax }}{40}{table.caption.30}\protected@file@percent }
\newlabel{tab: encoding selection}{{3.1}{40}{Encoding techniques used for different categorical features\relax }{table.caption.30}{}}
\citation{malekipirbazari2015risk}
\@writefile{toc}{\contentsline {section}{\numberline {3.4}Balancing the unbalanced dataset}{41}{section.3.4}\protected@file@percent }
\newlabel{Ch3: Balancing}{{3.4}{41}{Balancing the unbalanced dataset}{section.3.4}{}}
\acronymused{P2PL}
\acronymused{LOGIT}
\acronymused{RF}
\acronymused{SVM}
\acronymused{k-NN}
\acronymused{TNR}
\acronymused{TPR}
\newlabel{eq:total accuracy}{{3.2}{41}{Balancing the unbalanced dataset}{equation.3.4.2}{}}
\newlabel{eq:recall on d}{{3.3}{41}{Balancing the unbalanced dataset}{equation.3.4.3}{}}
\newlabel{eq:recall on nd}{{3.4}{41}{Balancing the unbalanced dataset}{equation.3.4.4}{}}
\AC@undonewlabel{acro:TN}
\newlabel{acro:TN}{{3.4}{41}{Balancing the unbalanced dataset}{section*.31}{}}
\acronymused{TN}
\AC@undonewlabel{acro:TP}
\newlabel{acro:TP}{{3.4}{41}{Balancing the unbalanced dataset}{section*.32}{}}
\acronymused{TP}
\AC@undonewlabel{acro:FN}
\newlabel{acro:FN}{{3.4}{41}{Balancing the unbalanced dataset}{section*.33}{}}
\acronymused{FN}
\AC@undonewlabel{acro:FP}
\newlabel{acro:FP}{{3.4}{41}{Balancing the unbalanced dataset}{section*.34}{}}
\acronymused{FP}
\acronymused{TPR}
\acronymused{TNR}
\acronymused{LOGIT}
\acronymused{RF}
\acronymused{SVM}
\acronymused{k-NN}
\acronymused{TPR}
\acronymused{TNR}
\acronymused{TNR}
\acronymused{LOGIT}
\acronymused{SVM}
\acronymused{k-NN}
\acronymused{RF}
\acronymused{TNR}
\acronymused{TNR}
\@writefile{lot}{\contentsline {table}{\numberline {3.2}{\ignorespaces The total accuracy, \acf {TPR} and \acf {TNR}, of applying four classification models on historical dataset with 38 features\relax }}{42}{table.caption.35}\protected@file@percent }
\acronymused{TPR}
\acronymused{TNR}
\newlabel{table: ch3: Auccracy with all}{{3.2}{42}{The total accuracy, \acf {TPR} and \acf {TNR}, of applying four classification models on historical dataset with 38 features\relax }{table.caption.35}{}}
\@writefile{lot}{\contentsline {table}{\numberline {3.3}{\ignorespaces Confusion matrices of the results by applying four classification models\relax }}{42}{table.caption.36}\protected@file@percent }
\newlabel{table: ch3: confusion}{{3.3}{42}{Confusion matrices of the results by applying four classification models\relax }{table.caption.36}{}}
\@writefile{toc}{\contentsline {subsection}{\numberline {3.4.1}Experimental setup}{42}{subsection.3.4.1}\protected@file@percent }
\newlabel{Ch3:balacing exp}{{3.4.1}{42}{Experimental setup}{subsection.3.4.1}{}}
\acronymused{P2PL}
\acronymused{P2PL}
\@writefile{toc}{\contentsline {subsection}{\numberline {3.4.2}Results of metrics on different models}{43}{subsection.3.4.2}\protected@file@percent }
\newlabel{Ch3: Results att}{{3.4.2}{43}{Results of metrics on different models}{subsection.3.4.2}{}}
\acronymused{LOGIT}
\acronymused{RF}
\acronymused{SVM}
\acronymused{k-NN}
\acronymused{SVM}
\acronymused{SVM}
\acronymused{LOGIT}
\acronymused{RF}
\acronymused{SVM}
\acronymused{k-NN}
\acronymused{LOGIT}
\acronymused{LOGIT}
\acronymused{LOGIT}
\citation{matthews1975comparison}
\@writefile{lof}{\contentsline {figure}{\numberline {3.5}{\ignorespaces The total accuracy, \acf {TPR} and \acf {TNR} scores for \acf {LOGIT} with different ratios of defaulting to non-defaulting borrowers.\nobreakspace  {}\relax }}{44}{figure.caption.37}\protected@file@percent }
\acronymused{TPR}
\acronymused{TNR}
\acronymused{LOGIT}
\newlabel{fig:ch3 LG}{{3.5}{44}{The total accuracy, \acf {TPR} and \acf {TNR} scores for \acf {LOGIT} with different ratios of defaulting to non-defaulting borrowers.~\relax }{figure.caption.37}{}}
\@writefile{toc}{\contentsline {subsection}{\numberline {3.4.3}Identifying the best balancing ratio}{44}{subsection.3.4.3}\protected@file@percent }
\newlabel{Ch3: metric}{{3.4.3}{44}{Identifying the best balancing ratio}{subsection.3.4.3}{}}
\acronymused{LOGIT}
\acronymused{LOGIT}
\acronymused{MCC}
\acronymused{MCC}
\acronymused{TP}
\acronymused{TN}
\acronymused{FP}
\acronymused{FN}
\acronymused{MCC}
\acronymused{MCC}
\@writefile{lof}{\contentsline {figure}{\numberline {3.6}{\ignorespaces The total accuracy, \acf {TPR} and \acf {TNR} scores for \acf {RF} with different ratios of defaulting to non-defaulting borrowers.\nobreakspace  {}\relax }}{45}{figure.caption.38}\protected@file@percent }
\acronymused{TPR}
\acronymused{TNR}
\acronymused{RF}
\newlabel{fig:ch3 RF}{{3.6}{45}{The total accuracy, \acf {TPR} and \acf {TNR} scores for \acf {RF} with different ratios of defaulting to non-defaulting borrowers.~\relax }{figure.caption.38}{}}
\@writefile{lof}{\contentsline {figure}{\numberline {3.7}{\ignorespaces The total accuracy, \acf {TPR} and \acf {TNR} scores for \acf {SVM} with different ratios of defaulting to non-defaulting borrowers.\nobreakspace  {}\relax }}{45}{figure.caption.39}\protected@file@percent }
\acronymused{TPR}
\acronymused{TNR}
\acronymused{SVM}
\newlabel{fig:ch3 SVM}{{3.7}{45}{The total accuracy, \acf {TPR} and \acf {TNR} scores for \acf {SVM} with different ratios of defaulting to non-defaulting borrowers.~\relax }{figure.caption.39}{}}
\@writefile{lof}{\contentsline {figure}{\numberline {3.8}{\ignorespaces The total accuracy, \acf {TPR} and \acf {TNR} scores for \acf {k-NN} with different ratios of defaulting to non-defaulting borrowers.\nobreakspace  {}\relax }}{46}{figure.caption.40}\protected@file@percent }
\acronymused{TPR}
\acronymused{TNR}
\acronymused{k-NN}
\newlabel{fig:ch3 KNN}{{3.8}{46}{The total accuracy, \acf {TPR} and \acf {TNR} scores for \acf {k-NN} with different ratios of defaulting to non-defaulting borrowers.~\relax }{figure.caption.40}{}}
\newlabel{eq: ch3 mcc}{{3.5}{46}{Identifying the best balancing ratio}{equation.3.4.5}{}}
\acronymused{MCC}
\acronymused{LOGIT}
\acronymused{RF}
\acronymused{SVM}
\acronymused{k-NN}
\acronymused{SVM}
\acronymused{MCC}
\acronymused{SVM}
\acronymused{SVM}
\@writefile{lot}{\contentsline {table}{\numberline {3.4}{\ignorespaces \acf {MCC} of \ac {LOGIT}, \ac {RF}, \ac {SVM} and \ac {k-NN} with dataset ratio of defaulting to non-defaulting borrowers ranging from 1:1 to 1:19\relax }}{47}{table.caption.41}\protected@file@percent }
\acronymused{MCC}
\acronymused{LOGIT}
\acronymused{RF}
\acronymused{SVM}
\acronymused{k-NN}
\newlabel{table: ch3: MCC}{{3.4}{47}{\acf {MCC} of \ac {LOGIT}, \ac {RF}, \ac {SVM} and \ac {k-NN} with dataset ratio of defaulting to non-defaulting borrowers ranging from 1:1 to 1:19\relax }{table.caption.41}{}}
\acronymused{LOGIT}
\acronymused{RF}
\acronymused{SVM}
\acronymused{k-NN}
\acronymused{LOGIT}
\acronymused{RF}
\acronymused{k-NN}
\acronymused{TNR}
\acronymused{MCC}
\acronymused{MCC}
\acronymused{LOGIT}
\citation{malekipirbazari2015risk,serrano2015determinants}
\citation{friedman2001elements}
\citation{marill1963effectiveness}
\citation{guyon2002gene}
\@writefile{toc}{\contentsline {section}{\numberline {3.5}Feature selection}{48}{section.3.5}\protected@file@percent }
\newlabel{Ch3:Feature}{{3.5}{48}{Feature selection}{section.3.5}{}}
\@writefile{toc}{\contentsline {subsection}{\numberline {3.5.1}Experimental setup}{48}{subsection.3.5.1}\protected@file@percent }
\newlabel{Ch3: setup2}{{3.5.1}{48}{Experimental setup}{subsection.3.5.1}{}}
\@writefile{lof}{\contentsline {figure}{\numberline {3.9}{\ignorespaces Schematic view of the process to find the best subset of features to accurately classify the balanced historical funded loan dataset.\nobreakspace  {}\relax }}{48}{figure.caption.42}\protected@file@percent }
\newlabel{fig:ch3 setup2}{{3.9}{48}{Schematic view of the process to find the best subset of features to accurately classify the balanced historical funded loan dataset.~\relax }{figure.caption.42}{}}
\acronymused{P2PL}
\acronymused{P2PL}
\@writefile{toc}{\contentsline {subsection}{\numberline {3.5.2}Experimental results}{49}{subsection.3.5.2}\protected@file@percent }
\newlabel{Ch3: results}{{3.5.2}{49}{Experimental results}{subsection.3.5.2}{}}
\acronymused{P2PL}
\@writefile{lot}{\contentsline {table}{\numberline {3.5}{\ignorespaces Total accuracy on 5 different balanced datasets by applying \ac {LOGIT} with forward selection, backward selection and recursive selection\relax }}{49}{table.caption.43}\protected@file@percent }
\acronymused{LOGIT}
\newlabel{table: ch3: Auccracy logit}{{3.5}{49}{Total accuracy on 5 different balanced datasets by applying \ac {LOGIT} with forward selection, backward selection and recursive selection\relax }{table.caption.43}{}}
\acronymused{LOGIT}
\acronymused{RF}
\acronymused{k-NN}
\acronymused{RF}
\acronymused{LOGIT}
\@writefile{lot}{\contentsline {table}{\numberline {3.6}{\ignorespaces Total accuracy on 5 different balanced datasets by applying \ac {RF} with forward selection, backward selection and recursive selection\relax }}{50}{table.caption.44}\protected@file@percent }
\acronymused{RF}
\newlabel{table: ch3: Auccracy rf}{{3.6}{50}{Total accuracy on 5 different balanced datasets by applying \ac {RF} with forward selection, backward selection and recursive selection\relax }{table.caption.44}{}}
\@writefile{lot}{\contentsline {table}{\numberline {3.7}{\ignorespaces Total accuracy on 5 different balanced datasets by applying \ac {k-NN} with forward selection, backward selection and recursive selection\relax }}{50}{table.caption.45}\protected@file@percent }
\acronymused{k-NN}
\newlabel{table: ch3: Auccracy knn}{{3.7}{50}{Total accuracy on 5 different balanced datasets by applying \ac {k-NN} with forward selection, backward selection and recursive selection\relax }{table.caption.45}{}}
\acronymused{RF}
\acronymused{LOGIT}
\acronymused{LOGIT}
\acronymused{RF}
\acronymused{LOGIT}
\acronymused{P2PL}
\citation{malekipirbazari2015risk}
\acronymused{RF}
\acronymused{LOGIT}
\acronymused{k-NN}
\acronymused{RF}
\acronymused{LOGIT}
\acronymused{k-NN}
\acronymused{RF}
\acronymused{RF}
\acronymused{LOGIT}
\acronymused{RF}
\acronymused{RF}
\@writefile{lot}{\contentsline {table}{\numberline {3.8}{\ignorespaces Total accuracy and MCC on 5 different unbalanced test datasets by applying \ac {RF} with recursive selection\relax }}{51}{table.caption.46}\protected@file@percent }
\acronymused{RF}
\newlabel{table: ch3: real_rf}{{3.8}{51}{Total accuracy and MCC on 5 different unbalanced test datasets by applying \ac {RF} with recursive selection\relax }{table.caption.46}{}}
\@writefile{lot}{\contentsline {table}{\numberline {3.9}{\ignorespaces Total accuracy and MCC on 5 different unbalanced test datasets by applying \ac {LOGIT} with recursive selection\relax }}{51}{table.caption.47}\protected@file@percent }
\acronymused{LOGIT}
\newlabel{table: ch3: real_lg}{{3.9}{51}{Total accuracy and MCC on 5 different unbalanced test datasets by applying \ac {LOGIT} with recursive selection\relax }{table.caption.47}{}}
\citation{malekipirbazari2015risk}
\citation{malekipirbazari2015risk}
\citation{malekipirbazari2015risk}
\citation{malekipirbazari2015risk}
\@writefile{lot}{\contentsline {table}{\numberline {3.10}{\ignorespaces Total accuracy and MCC on 5 different unbalanced test datasets by applying \ac {k-NN} with recursive selection\relax }}{52}{table.caption.48}\protected@file@percent }
\acronymused{k-NN}
\newlabel{table: ch3: real_knn}{{3.10}{52}{Total accuracy and MCC on 5 different unbalanced test datasets by applying \ac {k-NN} with recursive selection\relax }{table.caption.48}{}}
\@writefile{toc}{\contentsline {subsection}{\numberline {3.5.3}Feature set comparison}{52}{subsection.3.5.3}\protected@file@percent }
\newlabel{Ch3: Feature set comp}{{3.5.3}{52}{Feature set comparison}{subsection.3.5.3}{}}
\acronymused{RF}
\acronymused{TPR}
\acronymused{TNR}
\acronymused{TPR}
\acronymused{TNR}
\acronymused{TPR}
\acronymused{TNR}
\@writefile{lot}{\contentsline {table}{\numberline {3.11}{\ignorespaces Features selected by the proposed method and the work in\nobreakspace  {}\cite  {malekipirbazari2015risk} (the selected features are marked as $\text  {$\mathsurround \z@ \mathchar "658$}$)\relax }}{53}{table.caption.49}\protected@file@percent }
\newlabel{table:feats}{{3.11}{53}{Features selected by the proposed method and the work in~\cite {malekipirbazari2015risk} (the selected features are marked as $\checkmark $)\relax }{table.caption.49}{}}
\@writefile{toc}{\contentsline {section}{\numberline {3.6}Recommending the investment portfolio for an individual lender}{53}{section.3.6}\protected@file@percent }
\newlabel{Ch3: Portfolio}{{3.6}{53}{Recommending the investment portfolio for an individual lender}{section.3.6}{}}
\citation{sharpe1994sharpe}
\@writefile{lot}{\contentsline {table}{\numberline {3.12}{\ignorespaces Accuracy, TPR and TNR based on the 2 sets of features for \ac {RF} classification technique\relax }}{54}{table.caption.50}\protected@file@percent }
\acronymused{RF}
\newlabel{Ch3: table:A TPR TNR}{{3.12}{54}{Accuracy, TPR and TNR based on the 2 sets of features for \ac {RF} classification technique\relax }{table.caption.50}{}}
\@writefile{toc}{\contentsline {subsection}{\numberline {3.6.1}Experimental setup}{54}{subsection.3.6.1}\protected@file@percent }
\newlabel{Ch3:Port_setup}{{3.6.1}{54}{Experimental setup}{subsection.3.6.1}{}}
\@writefile{toc}{\contentsline {subsection}{\numberline {3.6.2}A numerical example}{54}{subsection.3.6.2}\protected@file@percent }
\newlabel{Ch3: numerical example}{{3.6.2}{54}{A numerical example}{subsection.3.6.2}{}}
\acronymused{P2PL}
\@writefile{lot}{\contentsline {table}{\numberline {3.13}{\ignorespaces Features (which are the 19 features in feature set 1 described in Section\nobreakspace  {}\ref {Ch3: Feature set comp}) of five loans that are available for investment. \relax }}{55}{table.caption.51}\protected@file@percent }
\newlabel{table:numerical eg}{{3.13}{55}{Features (which are the 19 features in feature set 1 described in Section~\ref {Ch3: Feature set comp}) of five loans that are available for investment. \relax }{table.caption.51}{}}
\acronymused{RF}
\@writefile{lot}{\contentsline {table}{\numberline {3.14}{\ignorespaces Return rates (observed from the feature `Lender Yield') and predicted likelihood of default of the five loans\relax }}{56}{table.caption.52}\protected@file@percent }
\newlabel{Ch3: table:return_default}{{3.14}{56}{Return rates (observed from the feature `Lender Yield') and predicted likelihood of default of the five loans\relax }{table.caption.52}{}}
\@writefile{lof}{\contentsline {figure}{\numberline {3.10}{\ignorespaces The set of Pareto solutions (or investment portfolios) obtained by applying model (\ref {model:return risk}) and the preferred investment portfolio (the one with the highest Sharpe ratio).\relax }}{56}{figure.caption.53}\protected@file@percent }
\newlabel{fig:ch3 port}{{3.10}{56}{The set of Pareto solutions (or investment portfolios) obtained by applying model (\ref {model:return risk}) and the preferred investment portfolio (the one with the highest Sharpe ratio).\relax }{figure.caption.53}{}}
\@writefile{lot}{\contentsline {table}{\numberline {3.15}{\ignorespaces Portfolio return rate and portfolio likelihood of default of the preferred investment portfolio with 50 loans for five scenarios\relax }}{56}{table.caption.54}\protected@file@percent }
\newlabel{Ch3: table:50loans}{{3.15}{56}{Portfolio return rate and portfolio likelihood of default of the preferred investment portfolio with 50 loans for five scenarios\relax }{table.caption.54}{}}
\citation{Guo2016417,malekipirbazari2015risk,serrano2015determinants}
\@writefile{toc}{\contentsline {section}{\numberline {3.7}Discussion}{57}{section.3.7}\protected@file@percent }
\newlabel{Ch3: Discussion}{{3.7}{57}{Discussion}{section.3.7}{}}
\acronymused{P2PL}
\acronymused{MCC}
\acronymused{TPR}
\acronymused{TNR}
\acronymused{RF}
\acronymused{TNR}
\acronymused{RF}
\acronymused{TNR}
\acronymused{P2PL}
\acronymused{P2PL}
\acronymused{P2PL}
\@setckpt{Chapters/Chapter3/Chapter3}{
\setcounter{page}{59}
\setcounter{equation}{5}
\setcounter{enumi}{0}
\setcounter{enumii}{0}
\setcounter{enumiii}{0}
\setcounter{enumiv}{0}
\setcounter{footnote}{6}
\setcounter{mpfootnote}{0}
\setcounter{part}{0}
\setcounter{chapter}{3}
\setcounter{section}{7}
\setcounter{subsection}{0}
\setcounter{subsubsection}{0}
\setcounter{paragraph}{0}
\setcounter{subparagraph}{0}
\setcounter{figure}{10}
\setcounter{table}{15}
\setcounter{@pps}{0}
\setcounter{@ppsavesec}{0}
\setcounter{@ppsaveapp}{0}
\setcounter{NAT@ctr}{0}
\setcounter{Item}{57}
\setcounter{Hfootnote}{18}
\setcounter{bookmark@seq@number}{46}
\setcounter{AM@survey}{0}
\setcounter{caption@flags}{2}
\setcounter{continuedfloat}{0}
\setcounter{subfigure}{0}
\setcounter{subtable}{0}
\setcounter{parentequation}{0}
\setcounter{LT@tables}{0}
\setcounter{LT@chunks}{0}
\setcounter{section@level}{0}
}
