\relax 
\providecommand\hyper@newdestlabel[2]{}
\providecommand\HyperFirstAtBeginDocument{\AtBeginDocument}
\HyperFirstAtBeginDocument{\ifx\hyper@anchor\@undefined
\global\let\oldcontentsline\contentsline
\gdef\contentsline#1#2#3#4{\oldcontentsline{#1}{#2}{#3}}
\global\let\oldnewlabel\newlabel
\gdef\newlabel#1#2{\newlabelxx{#1}#2}
\gdef\newlabelxx#1#2#3#4#5#6{\oldnewlabel{#1}{{#2}{#3}}}
\AtEndDocument{\ifx\hyper@anchor\@undefined
\let\contentsline\oldcontentsline
\let\newlabel\oldnewlabel
\fi}
\fi}
\global\let\hyper@last\relax 
\gdef\HyperFirstAtBeginDocument#1{#1}
\providecommand\HyField@AuxAddToFields[1]{}
\providecommand\HyField@AuxAddToCoFields[2]{}
\AC@reset@newl@bel
\emailauthor{keith\underscorechar kt@foxmail.com}{Ke Ren\corref {mycorrespondingauthor}}
\emailauthor{avinash.malik@auckland.ac.nz}{Avinash Malik\corref {mycorrespondingauthor}}
\newacro{P2PL}[P2PL]{Peer to Peer Lending}
\newacro{ARR}[ARR]{Annualized Rate of Return}
\newacro{LOGIT}[LOGIT]{Logistic Regression}
\newacro{MLOGIT}[MLOGIT]{Multi-nominal Logistic Regression}
\newacro{SVM}[SVM]{Support Vector Machine}
\newacro{RF}[RF]{Random Forest}
\newacro{FICO}[FICO]{Fair, Isaac, and Company}
\newacro{H3LC}[H3LC]{Hierarchical Three Label Classification}
\newacro{MSE}[MSE]{Mean Square Error}
\newacro{RMSE}[RMSE]{Root Mean Square Error}
\newacro{RBF}[RBF]{Gaussian Radial Basis Kernel Function}
\newacro{EDM}[EDM]{Exponential Distance Method}
\newacro{CV}[CV]{Cross Validation}
\newacro{NNs}[NNs]{Neural Networks}
\newacro{GP}[GP]{Gaussian Process}
\Newlabel{mycorrespondingauthor}{1}
\AC@undonewlabel{acro:P2PL}
\newlabel{acro:P2PL}{{}{1}{}{section*.1}{}}
\acronymused{P2PL}
\acronymused{P2PL}
\@writefile{toc}{\contentsline {section}{\numberline {1}Introduction}{2}{section.1}}
\newlabel{sec:introduction}{{1}{2}{Introduction}{section.1}{}}
\acronymused{P2PL}
\acronymused{P2PL}
\citation{malekipirbazari2015risk}
\citation{malekipirbazari2015risk}
\citation{tsai2014peer}
\citation{berger2010emergence}
\@writefile{toc}{\contentsline {subsection}{\numberline {1.1}Challenges and contributions}{3}{subsection.1.1}}
\newlabel{sec:chall-contr}{{1.1}{3}{Challenges and contributions}{subsection.1.1}{}}
\acronymused{P2PL}
\citation{james2013introduction}
\citation{tsai2014peer}
\citation{hall1998correlation}
\citation{goldberg1989genetic}
\citation{tsai2014peer}
\acronymused{P2PL}
\acronymused{P2PL}
\acronymused{P2PL}
\@writefile{toc}{\contentsline {section}{\numberline {2}Related work}{4}{section.2}}
\newlabel{sec:related work}{{2}{4}{Related work}{section.2}{}}
\acronymused{P2PL}
\acronymused{P2PL}
\citation{cui2016p2p}
\citation{serrano2015determinants}
\citation{andritsos2002data}
\citation{malekipirbazari2015risk}
\citation{lourenco2004binary}
\acronymused{LOGIT}
\acronymused{P2PL}
\citation{Prop}
\citation{Udacity}
\@writefile{toc}{\contentsline {section}{\numberline {3}Data analysis}{6}{section.3}}
\newlabel{sec:Data analysis}{{3}{6}{Data analysis}{section.3}{}}
\acronymused{P2PL}
\acronymused{P2PL}
\acronymused{P2PL}
\@writefile{toc}{\contentsline {subsection}{\numberline {3.1}Data description}{6}{subsection.3.1}}
\newlabel{sec3:data descrip}{{3.1}{6}{Data description}{subsection.3.1}{}}
\@writefile{lot}{\contentsline {table}{\numberline {1}{\ignorespaces Features and response variable description}}{7}{table.1}}
\newlabel{table:fe}{{1}{7}{Features and response variable description}{table.1}{}}
\citation{malekipirbazari2015risk}
\@writefile{toc}{\contentsline {subsection}{\numberline {3.2}Data distribution}{8}{subsection.3.2}}
\newlabel{sec3:data distrib}{{3.2}{8}{Data distribution}{subsection.3.2}{}}
\@writefile{lof}{\contentsline {figure}{\numberline {1}{\ignorespaces The probability distribution histograms\nobreakspace  {}}}{9}{figure.1}}
\newlabel{fig:hist_1}{{1}{9}{The probability distribution histograms~}{figure.1}{}}
\@writefile{lof}{\contentsline {figure}{\numberline {2}{\ignorespaces The probability distribution histograms cont.\nobreakspace  {}}}{10}{figure.2}}
\newlabel{fig:hist_2}{{2}{10}{The probability distribution histograms cont.~}{figure.2}{}}
\citation{lourenco2004binary}
\citation{lourenco2004binary}
\@writefile{lof}{\contentsline {figure}{\numberline {3}{\ignorespaces The heat map of correlations between 38 features and the loan status\nobreakspace  {}.}}{11}{figure.3}}
\newlabel{fig:heat}{{3}{11}{The heat map of correlations between 38 features and the loan status~}{figure.3}{}}
\acronymused{P2PL}
\@writefile{toc}{\contentsline {section}{\numberline {4}A new encoding of categorical features for \ac {P2PL} datasets}{11}{section.4}}
\newlabel{sec:method categorical}{{4}{11}{A new encoding of categorical features for \ac {P2PL} datasets}{section.4}{}}
\@writefile{toc}{\contentsline {subsection}{\numberline {4.1}The standard binary encoding technique}{11}{subsection.4.1}}
\newlabel{sec4:binary method}{{4.1}{11}{The standard binary encoding technique}{subsection.4.1}{}}
\citation{malekipirbazari2015risk}
\@writefile{toc}{\contentsline {subsection}{\numberline {4.2}The proposed percentage encoding technique}{12}{subsection.4.2}}
\newlabel{sec4:percentage encoding}{{4.2}{12}{The proposed percentage encoding technique}{subsection.4.2}{}}
\acronymused{P2PL}
\@writefile{toc}{\contentsline {section}{\numberline {5}Machine learning models for two-way classification}{13}{section.5}}
\newlabel{sec:machine learing}{{5}{13}{Machine learning models for two-way classification}{section.5}{}}
\citation{malekipirbazari2015risk}
\citation{serrano2015determinants}
\citation{wiginton1980note}
\citation{feldman2005mortgage}
\citation{friedman2001elements}
\AC@undonewlabel{acro:LOGIT}
\newlabel{acro:LOGIT}{{5}{14}{Machine learning models for two-way classification}{section*.2}{}}
\acronymused{LOGIT}
\AC@undonewlabel{acro:RF}
\newlabel{acro:RF}{{5}{14}{Machine learning models for two-way classification}{section*.3}{}}
\acronymused{RF}
\AC@undonewlabel{acro:SVM}
\newlabel{acro:SVM}{{5}{14}{Machine learning models for two-way classification}{section*.4}{}}
\acronymused{SVM}
\AC@undonewlabel{acro:GP}
\newlabel{acro:GP}{{5}{14}{Machine learning models for two-way classification}{section*.5}{}}
\acronymused{GP}
\acronymused{LOGIT}
\acronymused{RF}
\acronymused{SVM}
\acronymused{LOGIT}
\@writefile{toc}{\contentsline {subsection}{\numberline {5.1}\acf {LOGIT}}{14}{subsection.5.1}}
\newlabel{sec5:logit}{{5.1}{14}{\acf {LOGIT}}{subsection.5.1}{}}
\acronymused{LOGIT}
\acronymused{P2PL}
\citation{suykens1999least}
\citation{WikipediaSVM}
\acronymused{RF}
\@writefile{toc}{\contentsline {subsection}{\numberline {5.2}\acf {RF}}{15}{subsection.5.2}}
\newlabel{sec5:RF}{{5.2}{15}{\acf {RF}}{subsection.5.2}{}}
\acronymused{RF}
\acronymused{P2PL}
\acronymused{RF}
\acronymused{RF}
\acronymused{RF}
\acronymused{RF}
\acronymused{LOGIT}
\acronymused{RF}
\acronymused{SVM}
\@writefile{toc}{\contentsline {subsection}{\numberline {5.3}\acf {SVM}}{15}{subsection.5.3}}
\newlabel{sec5:SVM}{{5.3}{15}{\acf {SVM}}{subsection.5.3}{}}
\acronymused{SVM}
\acronymused{SVM}
\@writefile{lof}{\contentsline {figure}{\numberline {4}{\ignorespaces Optimal hyperplane for \ac {SVM} in the linear case\nobreakspace  {}. Reproduced from\nobreakspace  {}\cite  {WikipediaSVM}}}{16}{figure.4}}
\acronymused{SVM}
\newlabel{fig:svm}{{4}{16}{Optimal hyperplane for \ac {SVM} in the linear case~. Reproduced from~\cite {WikipediaSVM}}{figure.4}{}}
\acronymused{SVM}
\acronymused{SVM}
\acronymused{SVM}
\acronymused{SVM}
\acronymused{GP}
\@writefile{toc}{\contentsline {subsection}{\numberline {5.4}\acf {GP} Classification}{16}{subsection.5.4}}
\newlabel{sec5:GP}{{5.4}{16}{\acf {GP} Classification}{subsection.5.4}{}}
\acronymused{GP}
\AC@undonewlabel{acro:RBF}
\newlabel{acro:RBF}{{5.4}{16}{\acf {GP} Classification}{section*.6}{}}
\acronymused{RBF}
\citation{malekipirbazari2015risk}
\acronymused{GP}
\acronymused{GP}
\acronymused{GP}
\acronymused{GP}
\@writefile{toc}{\contentsline {subsection}{\numberline {5.5}Comparison}{17}{subsection.5.5}}
\newlabel{sec5:comparison}{{5.5}{17}{Comparison}{subsection.5.5}{}}
\acronymused{LOGIT}
\acronymused{RF}
\acronymused{SVM}
\acronymused{GP}
\acronymused{LOGIT}
\acronymused{SVM}
\acronymused{RF}
\@writefile{lot}{\contentsline {table}{\numberline {2}{\ignorespaces Total accuracy on test data set with 38 features}}{18}{table.2}}
\newlabel{table:Auccracy will all}{{2}{18}{Total accuracy on test data set with 38 features}{table.2}{}}
\@writefile{lot}{\contentsline {table}{\numberline {3}{\ignorespaces Recall rates of both defaulting and non-defaulting loans with 38 features on the balanced dataset}}{18}{table.3}}
\newlabel{table:d vs nd}{{3}{18}{Recall rates of both defaulting and non-defaulting loans with 38 features on the balanced dataset}{table.3}{}}
\acronymused{SVM}
\acronymused{GP}
\acronymused{RF}
\acronymused{LOGIT}
\acronymused{LOGIT}
\acronymused{RF}
\acronymused{LOGIT}
\acronymused{RF}
\citation{deb2014multi}
\@writefile{toc}{\contentsline {section}{\numberline {6}Balancing the unbalanced dataset and feature reduction}{19}{section.6}}
\newlabel{sec:unbalced data}{{6}{19}{Balancing the unbalanced dataset and feature reduction}{section.6}{}}
\acronymused{P2PL}
\@writefile{toc}{\contentsline {subsection}{\numberline {6.1}Optimising the split of the unbalanced dataset}{19}{subsection.6.1}}
\newlabel{sec:way-split}{{6.1}{19}{Optimising the split of the unbalanced dataset}{subsection.6.1}{}}
\acronymused{LOGIT}
\acronymused{RF}
\acronymused{LOGIT}
\acronymused{RF}
\acronymused{RF}
\acronymused{LOGIT}
\acronymused{LOGIT}
\acronymused{LOGIT}
\acronymused{LOGIT}
\acronymused{RF}
\@writefile{lof}{\contentsline {figure}{\numberline {5}{\ignorespaces \textbf  {Recall rates of sample datasets with different ratios}\nobreakspace  {}}}{20}{figure.5}}
\newlabel{fig:ratio}{{5}{20}{\textbf {Recall rates of sample datasets with different ratios}~}{figure.5}{}}
\@writefile{lof}{\contentsline {figure}{\numberline {6}{\ignorespaces \textbf  {100 tests by re-sampling the test datasets}\nobreakspace  {}}}{21}{figure.6}}
\newlabel{fig:100}{{6}{21}{\textbf {100 tests by re-sampling the test datasets}~}{figure.6}{}}
\acronymused{RF}
\acronymused{RF}
\citation{malekipirbazari2015risk}
\citation{serrano2015determinants}
\citation{guyon2003introduction}
\citation{guyon2003introduction}
\citation{friedman2001elements}
\acronymused{RF}
\@writefile{toc}{\contentsline {subsection}{\numberline {6.2}Feature reduction}{22}{subsection.6.2}}
\newlabel{sec:feature reduction}{{6.2}{22}{Feature reduction}{subsection.6.2}{}}
\acronymused{RF}
\newlabel{sec:forward-selection}{{6.2}{22}{Forward selection:}{section*.7}{}}
\@writefile{toc}{\contentsline {paragraph}{Forward selection:}{22}{section*.7}}
\acronymused{RF}
\newlabel{sec:backward-selection}{{6.2}{22}{Backward selection:}{section*.8}{}}
\@writefile{toc}{\contentsline {paragraph}{Backward selection:}{22}{section*.8}}
\acronymused{RF}
\newlabel{sec:recursive-selection}{{6.2}{23}{Recursive selection:}{section*.9}{}}
\@writefile{toc}{\contentsline {paragraph}{Recursive selection:}{23}{section*.9}}
\newlabel{alg:rs}{{1}{23}{Recursive selection:}{Algorithm.1}{}}
\@writefile{lot}{\contentsline {table}{\numberline {4}{\ignorespaces Average values of score and recall rates by applying different algorithms}}{24}{table.4}}
\newlabel{tab:msda}{{4}{24}{Average values of score and recall rates by applying different algorithms}{table.4}{}}
\citation{malekipirbazari2015risk}
\newlabel{fig:foward}{{7(a)}{25}{Subfigure 7(a)}{subfigure.7.1}{}}
\newlabel{sub@fig:foward}{{(a)}{25}{Subfigure 7(a)\relax }{subfigure.7.1}{}}
\newlabel{fig:back}{{7(b)}{25}{Subfigure 7(b)}{subfigure.7.2}{}}
\newlabel{sub@fig:back}{{(b)}{25}{Subfigure 7(b)\relax }{subfigure.7.2}{}}
\newlabel{fig:rec}{{7(c)}{25}{Subfigure 7(c)}{subfigure.7.3}{}}
\newlabel{sub@fig:rec}{{(c)}{25}{Subfigure 7(c)\relax }{subfigure.7.3}{}}
\@writefile{lof}{\contentsline {figure}{\numberline {7}{\ignorespaces Distribution diagrams of the three algorithms}}{25}{figure.7}}
\@writefile{lof}{\contentsline {subfigure}{\numberline{(a)}{\ignorespaces {Forward selection\nobreakspace {}}}}{25}{figure.7}}
\@writefile{lof}{\contentsline {subfigure}{\numberline{(b)}{\ignorespaces {Backward selection\nobreakspace {}}}}{25}{figure.7}}
\@writefile{lof}{\contentsline {subfigure}{\numberline{(c)}{\ignorespaces {Recursive selection\nobreakspace {}}}}{25}{figure.7}}
\newlabel{fig:d3}{{7}{25}{Distribution diagrams of the three algorithms}{figure.7}{}}
\acronymused{RF}
\citation{malekipirbazari2015risk}
\citation{malekipirbazari2015risk}
\@writefile{lot}{\contentsline {table}{\numberline {5}{\ignorespaces T-test and McNemar's test between each pair of distributions}}{26}{table.5}}
\newlabel{tab:tm}{{5}{26}{T-test and McNemar's test between each pair of distributions}{table.5}{}}
\newlabel{tab:fb}{{5(a)}{26}{Subtable 5(a)}{subtable.5.1}{}}
\newlabel{sub@tab:fb}{{(a)}{26}{Subtable 5(a)\relax }{subtable.5.1}{}}
\newlabel{tab:fr}{{5(b)}{26}{Subtable 5(b)}{subtable.5.2}{}}
\newlabel{sub@tab:fr}{{(b)}{26}{Subtable 5(b)\relax }{subtable.5.2}{}}
\newlabel{tab:br}{{5(c)}{26}{Subtable 5(c)}{subtable.5.3}{}}
\newlabel{sub@tab:br}{{(c)}{26}{Subtable 5(c)\relax }{subtable.5.3}{}}
\@writefile{lot}{\contentsline {subtable}{\numberline{(a)}{\ignorespaces {Comparing forward selection and backward selection\nobreakspace {}}}}{26}{subtable.5.3}}
\@writefile{lot}{\contentsline {subtable}{\numberline{(b)}{\ignorespaces {Comparing forward selection and recursive selection\nobreakspace {}}}}{26}{subtable.5.3}}
\@writefile{lot}{\contentsline {subtable}{\numberline{(c)}{\ignorespaces {Comparing backward selection and recursive selection\nobreakspace {}}}}{26}{subtable.5.3}}
\@writefile{toc}{\contentsline {subsection}{\numberline {6.3}Feature set comparison}{26}{subsection.6.3}}
\newlabel{sec:comparison}{{6.3}{26}{Feature set comparison}{subsection.6.3}{}}
\acronymused{RF}
\@writefile{lot}{\contentsline {table}{\numberline {6}{\ignorespaces Recall rates of both defaulting and non-defaulting loans based on the 2 sets of features}}{27}{table.6}}
\newlabel{table:cp d vs nd}{{6}{27}{Recall rates of both defaulting and non-defaulting loans based on the 2 sets of features}{table.6}{}}
\@writefile{toc}{\contentsline {section}{\numberline {7}Conclusion}{27}{section.7}}
\newlabel{sec:conclusion}{{7}{27}{Conclusion}{section.7}{}}
\acronymused{P2PL}
\acronymused{P2PL}
\bibstyle{plain}
\bibdata{mybibfile}
\bibcite{Udacity}{{1}{}{{}}{{}}}
\bibcite{Prop}{{2}{}{{}}{{}}}
\bibcite{andritsos2002data}{{3}{}{{}}{{}}}
\bibcite{berger2010emergence}{{4}{}{{}}{{}}}
\bibcite{cui2016p2p}{{5}{}{{}}{{}}}
\bibcite{deb2014multi}{{6}{}{{}}{{}}}
\bibcite{feldman2005mortgage}{{7}{}{{}}{{}}}
\bibcite{friedman2001elements}{{8}{}{{}}{{}}}
\acronymused{RF}
\acronymused{P2PL}
\bibcite{goldberg1989genetic}{{9}{}{{}}{{}}}
\bibcite{guyon2003introduction}{{10}{}{{}}{{}}}
\bibcite{hall1998correlation}{{11}{}{{}}{{}}}
\bibcite{james2013introduction}{{12}{}{{}}{{}}}
\bibcite{lourenco2004binary}{{13}{}{{}}{{}}}
\bibcite{malekipirbazari2015risk}{{14}{}{{}}{{}}}
\bibcite{serrano2015determinants}{{15}{}{{}}{{}}}
\bibcite{suykens1999least}{{16}{}{{}}{{}}}
\bibcite{tsai2014peer}{{17}{}{{}}{{}}}
\bibcite{wiginton1980note}{{18}{}{{}}{{}}}
\bibcite{WikipediaSVM}{{19}{}{{}}{{}}}
\providecommand\NAT@force@numbers{}\NAT@force@numbers
