\BOOKMARK [1][-]{section.1}{Introduction}{}% 1
\BOOKMARK [2][-]{subsection.1.1}{Challenges and contributions}{section.1}% 2
\BOOKMARK [1][-]{section.2}{Related work}{}% 3
\BOOKMARK [1][-]{section.3}{Data analysis}{}% 4
\BOOKMARK [2][-]{subsection.3.1}{Data description}{section.3}% 5
\BOOKMARK [2][-]{subsection.3.2}{Data distribution}{section.3}% 6
\BOOKMARK [1][-]{section.4}{A new encoding of categorical features for P2PL datasets}{}% 7
\BOOKMARK [2][-]{subsection.4.1}{The standard binary encoding technique}{section.4}% 8
\BOOKMARK [2][-]{subsection.4.2}{The proposed percentage encoding technique}{section.4}% 9
\BOOKMARK [1][-]{section.5}{Machine learning models for two-way classification}{}% 10
\BOOKMARK [2][-]{subsection.5.1}{Logistic Regression \(LOGIT\)}{section.5}% 11
\BOOKMARK [2][-]{subsection.5.2}{Random Forest \(RF\)}{section.5}% 12
\BOOKMARK [2][-]{subsection.5.3}{Support Vector Machine \(SVM\)}{section.5}% 13
\BOOKMARK [2][-]{subsection.5.4}{Gaussian Process \(GP\) Classification}{section.5}% 14
\BOOKMARK [2][-]{subsection.5.5}{Comparison}{section.5}% 15
\BOOKMARK [1][-]{section.6}{Balancing the unbalanced dataset and feature reduction}{}% 16
\BOOKMARK [2][-]{subsection.6.1}{Optimising the split of the unbalanced dataset}{section.6}% 17
\BOOKMARK [2][-]{subsection.6.2}{Feature reduction}{section.6}% 18
\BOOKMARK [2][-]{subsection.6.3}{Feature set comparison}{section.6}% 19
\BOOKMARK [1][-]{section.7}{Conclusion}{}% 20
